route_id,service_id,trip_id,trip_headsign,shape_id
3407.1,MTWHFS,3407.1-10-0-395-0900-0953-3515-0-0-0-0_WH_5LB,""CEDARS SINAI TO LA BREA"",3407.1
3407.1,MTWHFS,3407.1-10-0-395-0930-1023-3515-0-0-0-0_WH_5LB,""CEDARS SINAI TO LA BREA"",3407.1
3407.1,MTWHFS,3407.1-11-0-395-1000-1053-3515-0-0-0-0_WH_5LB,""CEDARS SINAI TO LA BREA"",3407.1
3407.1,MTWHFS,3407.1-11-0-395-1030-1123-3515-0-0-0-0_WH_5LB,""CEDARS SINAI TO LA BREA"",3407.1
3407.1,MTWHFS,3407.1-12-0-395-1111-1211-3515-0-0-0-0_WH_5LB,""CEDARS SINAI TO LA BREA"",3407.1
3407.1,MTWHFS,3407.1-12-0-395-1141-1236-3515-0-0-0-0_WH_5LB,""CEDARS SINAI TO LA BREA"",3407.1
3407.1,MTWHFS,3407.1-13-0-395-1211-1311-3515-0-0-0-0_WH_5LB,""CEDARS SINAI TO LA BREA"",3407.1
3407.1,MTWHFS,3407.1-13-0-395-1241-1341-3515-0-0-0-0_WH_5LB,""CEDARS SINAI TO LA BREA"",3407.1
3407.1,MTWHFS,3407.1-14-0-395-1314-1414-3515-0-0-0-0_WH_5LB,""CEDARS SINAI TO LA BREA"",3407.1
3407.1,MTWHFS,3407.1-14-0-395-1340-1439-3515-0-0-0-0_WH_5LB,""CEDARS SINAI TO LA BREA"",3407.1
3407.1,MTWHFS,3407.1-15-0-395-1415-1510-3515-0-0-0-0_WH_5LB,""CEDARS SINAI TO LA BREA"",3407.1
3407.1,MTWHFS,3407.1-15-0-395-1445-1545-3515-0-0-0-0_WH_5LB,""CEDARS SINAI TO LA BREA"",3407.1
3407.1,MTWHFS,3407.1-16-0-395-1533-1629-3515-0-0-0-0_WH_5LB,""CEDARS SINAI TO LA BREA"",3407.1
3407.1,MTWHFS,3407.1-16-0-395-1558-1654-3515-0-0-0-0_WH_5LB,""CEDARS SINAI TO LA BREA"",3407.1
3407.1,MTWHFS,3407.1-17-0-395-1631-1727-3515-0-0-0-0_WH_5LB,""CEDARS SINAI TO LA BREA"",3407.1
3407.1,MTWHFS,3407.1-18-0-395-1705-1801-3515-0-0-0-0_WH_5LB,""CEDARS SINAI TO LA BREA"",3407.1
3408.1,MTWHFS,3408.1-10-0-445-0900-0958-3516-0-0-0-0_WH_5LB,""LA BREA TO CEDARS SINAI"",3408.1
3408.1,MTWHFS,3408.1-10-0-445-0930-1028-3516-0-0-0-0_WH_5LB,""LA BREA TO CEDARS SINAI"",3408.1
3408.1,MTWHFS,3408.1-11-0-445-1011-1109-3516-0-0-0-0_WH_5LB,""LA BREA TO CEDARS SINAI"",3408.1
3408.1,MTWHFS,3408.1-11-0-445-1041-1139-3516-0-0-0-0_WH_5LB,""LA BREA TO CEDARS SINAI"",3408.1
3408.1,MTWHFS,3408.1-12-0-445-1111-1209-3516-0-0-0-0_WH_5LB,""LA BREA TO CEDARS SINAI"",3408.1
3408.1,MTWHFS,3408.1-12-0-445-1141-1239-3516-0-0-0-0_WH_5LB,""LA BREA TO CEDARS SINAI"",3408.1
3408.1,MTWHFS,3408.1-13-0-445-1214-1312-3516-0-0-0-0_WH_5LB,""LA BREA TO CEDARS SINAI"",3408.1
3408.1,MTWHFS,3408.1-13-0-445-1239-1338-3516-0-0-0-0_WH_5LB,""LA BREA TO CEDARS SINAI"",3408.1
3408.1,MTWHFS,3408.1-14-0-445-1314-1413-3516-0-0-0-0_WH_5LB,""LA BREA TO CEDARS SINAI"",3408.1
3408.1,MTWHFS,3408.1-14-0-445-1344-1443-3516-0-0-0-0_WH_5LB,""LA BREA TO CEDARS SINAI"",3408.1
3408.1,MTWHFS,3408.1-15-0-445-1432-1531-3516-0-0-0-0_WH_5LB,""LA BREA TO CEDARS SINAI"",3408.1
3408.1,MTWHFS,3408.1-15-0-445-1457-1556-3516-0-0-0-0_WH_5LB,""LA BREA TO CEDARS SINAI"",3408.1
3408.1,MTWHFS,3408.1-16-0-445-1528-1629-3516-0-0-0-0_WH_5LB,""LA BREA TO CEDARS SINAI"",3408.1
3408.1,MTWHFS,3408.1-17-0-445-1603-1703-3516-0-0-0-0_WH_5LB,""LA BREA TO CEDARS SINAI"",3408.1
3408.1,MTWHFS,3408.1-17-0-445-1632-1733-3516-0-0-0-0_WH_5LB,""LA BREA TO CEDARS SINAI"",3408.1
3408.1,MTWHFS,3408.1-17-0-445-1657-1758-3516-0-0-0-0_WH_5LB,""LA BREA TO CEDARS SINAI"",3408.1
642.1,MTWHF,642.1-18-0-195-1747-1823-3508-0-0-0-0_WH_5LB,""EAST TO HOLLYWOOD"",642.1
642.1,MTWHF,642.1-19-0-195-1812-1848-3508-0-0-0-0_WH_5LB,""EAST TO HOLLYWOOD"",642.1
642.1,MTWHF,642.1-19-0-195-1825-1902-3508-0-0-0-0_WH_5LB,""EAST TO HOLLYWOOD"",642.1
642.1,MTWHF,642.1-19-0-195-1850-1926-3508-0-0-0-0_WH_5LB,""EAST TO HOLLYWOOD"",642.1
642.1,MTWHF,642.1-20-0-195-1902-1936-3508-0-0-0-0_WH_5LB,""EAST TO HOLLYWOOD"",642.1
642.1,MTWHF,642.1-8-0-195-0700-0729-3508-0-0-0-0_WH_5LB,""EAST TO HOLLYWOOD"",642.1
642.1,MTWHF,642.1-8-0-195-0712-0741-3508-0-0-0-0_WH_5LB,""EAST TO HOLLYWOOD"",642.1
642.1,MTWHF,642.1-8-0-195-0730-0758-3508-0-0-0-0_WH_5LB,""EAST TO HOLLYWOOD"",642.1
642.1,MTWHF,642.1-8-0-195-0745-0814-3508-0-0-0-0_WH_5LB,""EAST TO HOLLYWOOD"",642.1
642.1,MTWHF,642.1-9-0-195-0805-0834-3508-0-0-0-0_WH_5LB,""EAST TO HOLLYWOOD"",642.1
642.1,MTWHF,642.1-9-0-195-0816-0845-3508-0-0-0-0_WH_5LB,""EAST TO HOLLYWOOD"",642.1
642.1,MTWHF,642.1-9-0-195-0835-0904-3508-0-0-0-0_WH_5LB,""EAST TO HOLLYWOOD"",642.1
642.2,MTWHF,642.2-18-139-195-1740-1754-3508-0-0-0-0_WH_5LB,""EAST TO HOLLYWOOD"",642.2
642.2,MTWHF,642.2-19-139-195-1820-1834-3508-0-0-0-0_WH_5LB,""EAST TO HOLLYWOOD"",642.2
644.1,MTWHF,644.1-10-0-56-0905-0913-3509-0-0-0-0_WH_5LB,""WEST TO WEST HOLLYWOOD"",644.1
644.1,MTWHF,644.1-9-0-56-0835-0843-3509-0-0-0-0_WH_5LB,""WEST TO WEST HOLLYWOOD"",644.1
644.2,MTWHF,644.2-18-0-193-1755-1821-3509-0-0-0-0_WH_5LB,""WEST TO WEST HOLLYWOOD"",644.2
644.2,MTWHF,644.2-19-0-193-1824-1849-3509-0-0-0-0_WH_5LB,""WEST TO WEST HOLLYWOOD"",644.2
644.2,MTWHF,644.2-19-0-193-1835-1901-3509-0-0-0-0_WH_5LB,""WEST TO WEST HOLLYWOOD"",644.2
644.2,MTWHF,644.2-19-0-193-1850-1916-3509-0-0-0-0_WH_5LB,""WEST TO WEST HOLLYWOOD"",644.2
644.2,MTWHF,644.2-20-0-193-1904-1929-3509-0-0-0-0_WH_5LB,""WEST TO WEST HOLLYWOOD"",644.2
644.2,MTWHF,644.2-8-0-193-0710-0744-3509-0-0-0-0_WH_5LB,""WEST TO WEST HOLLYWOOD"",644.2
644.2,MTWHF,644.2-8-0-193-0730-0804-3509-0-0-0-0_WH_5LB,""WEST TO WEST HOLLYWOOD"",644.2
644.2,MTWHF,644.2-8-0-193-0742-0815-3509-0-0-0-0_WH_5LB,""WEST TO WEST HOLLYWOOD"",644.2
644.2,MTWHF,644.2-9-0-193-0800-0834-3509-0-0-0-0_WH_5LB,""WEST TO WEST HOLLYWOOD"",644.2
644.2,MTWHF,644.2-9-0-193-0815-0850-3509-0-0-0-0_WH_5LB,""WEST TO WEST HOLLYWOOD"",644.2
644.2,MTWHF,644.2-9-0-193-0846-0920-3509-0-0-0-0_WH_5LB,""WEST TO WEST HOLLYWOOD"",644.2
