shape_id,shape_pt_lat,shape_pt_lon,shape_pt_sequence
3236.1,34.145211778858,-118.76017211448,0
3236.1,34.144957162605,-118.75563859333,13
3236.1,34.143422409354,-118.75630223669,19
3236.1,34.143481222279,-118.76181547307,36
3236.1,34.153922395573,-118.75716411917,76
3236.1,34.170860245364,-118.75855409057,138
3236.1,34.176496519717,-118.75982859358,159
3236.1,34.18017054992,-118.76157143604,173
3236.1,34.181198970841,-118.76537994797,186
3236.1,34.180965205263,-118.77146500603,204
3236.1,34.179224558736,-118.77551910504,218
3236.1,34.184008891779,-118.78359522277,248
3236.1,34.184944499628,-118.78593517045,256
3236.1,34.175618274101,-118.78757660419,290
3236.1,34.175681900763,-118.78455197685,299
3236.1,34.1786469035,-118.78116103021,314
3236.1,34.177933452232,-118.77588073637,330
3236.1,34.179224558736,-118.77551910504,335
3236.1,34.180965205263,-118.77146500603,349
3236.1,34.181198970841,-118.76537994797,367
3236.1,34.18017054992,-118.76157143604,379
3236.1,34.176496519717,-118.75982859358,394
3236.1,34.170860245364,-118.75855409057,415
3236.1,34.153922395573,-118.75716411917,476
3236.1,34.145077310971,-118.76145324768,511
3236.1,34.145211778858,-118.76017211448,515
