stop_id,stop_name,stop_desc,stop_lat,stop_lon
10004,ROCKFIELD ST/OCHO RIOS WY,0,34.175681900763,-118.78455197685
10005,KANAN RD/GOLDEN EAGLE DR,0,34.184008891779,-118.78359522277
10006,ROCKFIELD ST/HAWTHORNE DR,0,34.1786469035,-118.78116103021
10007,HAWTHORNE DR/MARETO WY,0,34.177933452232,-118.77588073637
10008,KANAN RD/HAWTHORNE DR,0,34.179224558736,-118.77551910504
10009,KANAN RD/SPANISH OAK LN,0,34.180965205263,-118.77146500603
10010,KANAN RD/DOUBLETREE RD,0,34.181198970841,-118.76537994797
10013,KANAN RD/DEERHILL RD,0,34.18017054992,-118.76157143604
10014,ROADSIDE DR/29136 ROADSIDE DR,0,34.145211778858,-118.76017211448
10015,KANAN RD/SUNNYCREST DR,0,34.176496519717,-118.75982859358
10016,KANAN RD/CONIFER ST,0,34.170860245364,-118.75855409057
10017,KANAN RD/THOUSAND OAKS BLVD,0,34.153922395573,-118.75716411917
