route_id,service_id,trip_id,trip_headsign,shape_id
2968.1,MTWHFS,2968.1-10-0-269-0900-0932-3340-0-0-0-0_SO_5LB,""SOG THE GATE"",2968.1
2968.1,MTWHFS,2968.1-10-0-269-0920-0952-3340-0-0-0-0_SO_5LB,""SOG THE GATE"",2968.1
2968.1,MTWHFS,2968.1-10-0-269-0940-1012-3340-0-0-0-0_SO_5LB,""SOG THE GATE"",2968.1
2968.1,MTWHFS,2968.1-11-0-269-1000-1032-3340-0-0-0-0_SO_5LB,""SOG THE GATE"",2968.1
2968.1,MTWHFS,2968.1-11-0-269-1020-1052-3340-0-0-0-0_SO_5LB,""SOG THE GATE"",2968.1
2968.1,MTWHFS,2968.1-11-0-269-1040-1112-3340-0-0-0-0_SO_5LB,""SOG THE GATE"",2968.1
2968.1,MTWHFS,2968.1-12-0-269-1100-1132-3340-0-0-0-0_SO_5LB,""SOG THE GATE"",2968.1
2968.1,MTWHFS,2968.1-12-0-269-1120-1152-3340-0-0-0-0_SO_5LB,""SOG THE GATE"",2968.1
2968.1,MTWHFS,2968.1-12-0-269-1140-1212-3340-0-0-0-0_SO_5LB,""SOG THE GATE"",2968.1
2968.1,MTWHFS,2968.1-13-0-269-1200-1232-3340-0-0-0-0_SO_5LB,""SOG THE GATE"",2968.1
2968.1,MTWHFS,2968.1-13-0-269-1220-1252-3340-0-0-0-0_SO_5LB,""SOG THE GATE"",2968.1
2968.1,MTWHFS,2968.1-13-0-269-1240-1312-3340-0-0-0-0_SO_5LB,""SOG THE GATE"",2968.1
2968.1,MTWHFS,2968.1-14-0-269-1300-1332-3340-0-0-0-0_SO_5LB,""SOG THE GATE"",2968.1
2968.1,MTWHFS,2968.1-14-0-269-1320-1352-3340-0-0-0-0_SO_5LB,""SOG THE GATE"",2968.1
2968.1,MTWHFS,2968.1-14-0-269-1340-1412-3340-0-0-0-0_SO_5LB,""SOG THE GATE"",2968.1
2968.1,MTWHFS,2968.1-15-0-269-1400-1432-3340-0-0-0-0_SO_5LB,""SOG THE GATE"",2968.1
2968.1,MTWHFS,2968.1-15-0-269-1420-1452-3340-0-0-0-0_SO_5LB,""SOG THE GATE"",2968.1
2968.1,MTWHFS,2968.1-15-0-269-1440-1512-3340-0-0-0-0_SO_5LB,""SOG THE GATE"",2968.1
2968.1,MTWHFS,2968.1-16-0-269-1500-1532-3340-0-0-0-0_SO_5LB,""SOG THE GATE"",2968.1
2968.1,MTWHFS,2968.1-16-0-269-1520-1552-3340-0-0-0-0_SO_5LB,""SOG THE GATE"",2968.1
2968.1,MTWHFS,2968.1-16-0-269-1540-1612-3340-0-0-0-0_SO_5LB,""SOG THE GATE"",2968.1
2968.1,MTWHFS,2968.1-17-0-269-1600-1632-3340-0-0-0-0_SO_5LB,""SOG THE GATE"",2968.1
2968.1,MTWHFS,2968.1-17-0-269-1620-1652-3340-0-0-0-0_SO_5LB,""SOG THE GATE"",2968.1
2968.1,MTWHF,2968.1-17-0-269-1640-1712-3340-0-0-0-0_SO_5LB,""SOG THE GATE"",2968.1
2968.1,MTWHF,2968.1-18-0-269-1700-1732-3340-0-0-0-0_SO_5LB,""SOG THE GATE"",2968.1
2968.1,MTWHF,2968.1-18-0-269-1720-1752-3340-0-0-0-0_SO_5LB,""SOG THE GATE"",2968.1
2968.1,MTWHF,2968.1-18-0-269-1740-1812-3340-0-0-0-0_SO_5LB,""SOG THE GATE"",2968.1
2968.1,MTWHF,2968.1-19-0-269-1800-1832-3340-0-0-0-0_SO_5LB,""SOG THE GATE"",2968.1
2968.1,MTWHF,2968.1-19-0-269-1820-1852-3340-0-0-0-0_SO_5LB,""SOG THE GATE"",2968.1
2968.1,MTWHF,2968.1-8-0-269-0700-0732-3340-0-0-0-0_SO_5LB,""SOG THE GATE"",2968.1
2968.1,MTWHF,2968.1-8-0-269-0740-0812-3340-0-0-0-0_SO_5LB,""SOG THE GATE"",2968.1
2968.1,MTWHFS,2968.1-9-0-269-0800-0832-3340-0-0-0-0_SO_5LB,""SOG THE GATE"",2968.1
2968.1,MTWHFS,2968.1-9-0-269-0820-0852-3340-0-0-0-0_SO_5LB,""SOG THE GATE"",2968.1
2968.1,MTWHFS,2968.1-9-0-269-0840-0912-3340-0-0-0-0_SO_5LB,""SOG THE GATE"",2968.1
