route_id,service_id,trip_id,trip_headsign,shape_id
192.1,MTWHFS,192.1-6-504-701-0544-0559-2396-0-0-0-0_CM_5LB,""CITY OF COMMERCE (GRN BACKGROUND)"",192.1
192.2,MTWHFS,192.2-22-0-504-2100-2130-2396-0-0-0-0_CM_5LB,""CITY OF COMMERCE (GRN BACKGROUND)"",192.2
192.3,MTWHFS,192.3-10-0-701-0915-1005-2396-0-0-0-0_CM_5LB,""CITY OF COMMERCE (GRN BACKGROUND)"",192.3
192.3,MTWHFS,192.3-11-0-701-1020-1110-2396-0-0-0-0_CM_5LB,""CITY OF COMMERCE (GRN BACKGROUND)"",192.3
192.3,MTWHFS,192.3-12-0-701-1140-1230-2396-0-0-0-0_CM_5LB,""CITY OF COMMERCE (GRN BACKGROUND)"",192.3
192.3,MTWHFS,192.3-13-0-701-1245-1340-2396-0-0-0-0_CM_5LB,""CITY OF COMMERCE (GRN BACKGROUND)"",192.3
192.3,MTWHFS,192.3-14-0-701-1355-1445-2396-0-0-0-0_CM_5LB,""CITY OF COMMERCE (GRN BACKGROUND)"",192.3
192.3,MTWHFS,192.3-16-0-701-1500-1600-2396-0-0-0-0_CM_5LB,""CITY OF COMMERCE (GRN BACKGROUND)"",192.3
192.3,MTWHFS,192.3-17-0-701-1615-1715-2396-0-0-0-0_CM_5LB,""CITY OF COMMERCE (GRN BACKGROUND)"",192.3
192.3,MTWHFS,192.3-18-0-701-1730-1830-2396-0-0-0-0_CM_5LB,""CITY OF COMMERCE (GRN BACKGROUND)"",192.3
192.3,MTWHFS,192.3-20-0-701-1900-1950-2396-0-0-0-0_CM_5LB,""CITY OF COMMERCE (GRN BACKGROUND)"",192.3
192.3,MTWHFS,192.3-21-0-701-2005-2050-2396-0-0-0-0_CM_5LB,""CITY OF COMMERCE (GRN BACKGROUND)"",192.3
192.3,MTWHFS,192.3-7-0-701-0600-0651-2396-0-0-0-0_CM_5LB,""CITY OF COMMERCE (GRN BACKGROUND)"",192.3
192.3,MTWHFS,192.3-8-0-701-0705-0756-2396-0-0-0-0_CM_5LB,""CITY OF COMMERCE (GRN BACKGROUND)"",192.3
192.3,MTWHFS,192.3-9-0-701-0810-0900-2396-0-0-0-0_CM_5LB,""CITY OF COMMERCE (GRN BACKGROUND)"",192.3
194.1,MTWHFS,194.1-7-754-1200-0604-0645-2394-0-0-0-0_CM_5LB,""CITY OF COMMERCE (RED BACKGROUND)"",194.1
194.2,MTWHFS,194.2-7-154-1200-0604-0745-2394-0-0-0-0_CM_5LB,""CITY OF COMMERCE (RED BACKGROUND)"",194.2
194.3,MTWHFS,194.3-21-0-319-2053-2121-2394-0-0-0-0_CM_5LB,""CITY OF COMMERCE (RED BACKGROUND)"",194.3
194.4,MTWHFS,194.4-11-0-600-1053-1145-2394-0-0-0-0_CM_5LB,""CITY OF COMMERCE (RED BACKGROUND)"",194.4
194.4,MTWHFS,194.4-13-600-1200-1253-1345-2394-0-0-0-0_CM_5LB,""CITY OF COMMERCE (RED BACKGROUND)"",194.4
194.4,MTWHFS,194.4-18-0-600-1753-1845-2394-0-0-0-0_CM_5LB,""CITY OF COMMERCE (RED BACKGROUND)"",194.4
194.4,MTWHFS,194.4-20-600-1200-1953-2045-2394-0-0-0-0_CM_5LB,""CITY OF COMMERCE (RED BACKGROUND)"",194.4
194.5,MTWHFS,194.5-20-0-919-1953-2121-2394-0-0-0-0_CM_5LB,""CITY OF COMMERCE (RED BACKGROUND)"",194.5
194.6,MTWHFS,194.6-10-0-1200-0953-1145-2394-0-0-0-0_CM_5LB,""CITY OF COMMERCE (RED BACKGROUND)"",194.6
194.6,MTWHFS,194.6-13-0-1200-1253-1445-2394-0-0-0-0_CM_5LB,""CITY OF COMMERCE (RED BACKGROUND)"",194.6
194.6,MTWHFS,194.6-14-0-1200-1353-1545-2394-0-0-0-0_CM_5LB,""CITY OF COMMERCE (RED BACKGROUND)"",194.6
194.6,MTWHFS,194.6-15-0-1200-1453-1645-2394-0-0-0-0_CM_5LB,""CITY OF COMMERCE (RED BACKGROUND)"",194.6
194.6,MTWHFS,194.6-16-0-1200-1553-1745-2394-0-0-0-0_CM_5LB,""CITY OF COMMERCE (RED BACKGROUND)"",194.6
194.6,MTWHFS,194.6-17-0-1200-1653-1845-2394-0-0-0-0_CM_5LB,""CITY OF COMMERCE (RED BACKGROUND)"",194.6
194.6,MTWHFS,194.6-7-0-1200-0653-0845-2394-0-0-0-0_CM_5LB,""CITY OF COMMERCE (RED BACKGROUND)"",194.6
194.6,MTWHFS,194.6-8-0-1200-0753-0945-2394-0-0-0-0_CM_5LB,""CITY OF COMMERCE (RED BACKGROUND)"",194.6
194.6,MTWHFS,194.6-9-0-1200-0853-1045-2394-0-0-0-0_CM_5LB,""CITY OF COMMERCE (RED BACKGROUND)"",194.6
198.1,MTWHF,198.1-6-194-695-0544-0618-2397-0-0-0-0_CM_5LB,""CITY OF COMMERCE (YLW BACKGROUND)"",198.1
198.2,MTWHF,198.2-21-0-194-2052-2105-2397-0-0-0-0_CM_5LB,""CITY OF COMMERCE (YLW BACKGROUND)"",198.2
198.3,MTWHF,198.3-11-0-695-1000-1052-2397-0-0-0-0_CM_5LB,""CITY OF COMMERCE (YLW BACKGROUND)"",198.3
198.3,MTWHF,198.3-12-0-695-1110-1205-2397-0-0-0-0_CM_5LB,""CITY OF COMMERCE (YLW BACKGROUND)"",198.3
198.3,MTWHF,198.3-13-0-695-1235-1330-2397-0-0-0-0_CM_5LB,""CITY OF COMMERCE (YLW BACKGROUND)"",198.3
198.3,MTWHF,198.3-14-0-695-1355-1450-2397-0-0-0-0_CM_5LB,""CITY OF COMMERCE (YLW BACKGROUND)"",198.3
198.3,MTWHF,198.3-16-0-695-1505-1600-2397-0-0-0-0_CM_5LB,""CITY OF COMMERCE (YLW BACKGROUND)"",198.3
198.3,MTWHF,198.3-17-0-695-1615-1710-2397-0-0-0-0_CM_5LB,""CITY OF COMMERCE (YLW BACKGROUND)"",198.3
198.3,MTWHF,198.3-18-0-695-1725-1820-2397-0-0-0-0_CM_5LB,""CITY OF COMMERCE (YLW BACKGROUND)"",198.3
198.3,MTWHF,198.3-19-0-695-1850-1937-2397-0-0-0-0_CM_5LB,""CITY OF COMMERCE (YLW BACKGROUND)"",198.3
198.3,MTWHF,198.3-20-0-695-1950-2037-2397-0-0-0-0_CM_5LB,""CITY OF COMMERCE (YLW BACKGROUND)"",198.3
198.3,MTWHF,198.3-7-0-695-0630-0726-2397-0-0-0-0_CM_5LB,""CITY OF COMMERCE (YLW BACKGROUND)"",198.3
198.3,MTWHF,198.3-8-0-695-0740-0835-2397-0-0-0-0_CM_5LB,""CITY OF COMMERCE (YLW BACKGROUND)"",198.3
198.3,MTWHF,198.3-9-0-695-0850-0942-2397-0-0-0-0_CM_5LB,""CITY OF COMMERCE (YLW BACKGROUND)"",198.3
3132.1,MTWHFS,3132.1-10-519-1345-0906-1017-2395-0-0-0-0_CM_5LB,""CITY OF COMMERCE (BLU BACKGROUND)"",3132.1
3132.2,MTWHFS,3132.2-21-0-390-2023-2054-2395-0-0-0-0_CM_5LB,""CITY OF COMMERCE (BLU BACKGROUND)"",3132.2
3132.3,MTWHFS,3132.3-13-0-620-1223-1314-2395-0-0-0-0_CM_5LB,""CITY OF COMMERCE (BLU BACKGROUND)"",3132.3
3132.4,MTWHFS,3132.4-20-0-1063-1923-2054-2395-0-0-0-0_CM_5LB,""CITY OF COMMERCE (BLU BACKGROUND)"",3132.4
3132.5,MTWHFS,3132.5-10-0-1345-0923-1117-2395-0-0-0-0_CM_5LB,""CITY OF COMMERCE (BLU BACKGROUND)"",3132.5
3132.5,MTWHFS,3132.5-11-0-1345-1023-1217-2395-0-0-0-0_CM_5LB,""CITY OF COMMERCE (BLU BACKGROUND)"",3132.5
3132.5,MTWHFS,3132.5-12-0-1345-1123-1317-2395-0-0-0-0_CM_5LB,""CITY OF COMMERCE (BLU BACKGROUND)"",3132.5
3132.5,MTWHFS,3132.5-15-0-1345-1423-1617-2395-0-0-0-0_CM_5LB,""CITY OF COMMERCE (BLU BACKGROUND)"",3132.5
3132.5,MTWHFS,3132.5-16-0-1345-1523-1717-2395-0-0-0-0_CM_5LB,""CITY OF COMMERCE (BLU BACKGROUND)"",3132.5
3132.5,MTWHFS,3132.5-17-0-1345-1623-1817-2395-0-0-0-0_CM_5LB,""CITY OF COMMERCE (BLU BACKGROUND)"",3132.5
3132.5,MTWHFS,3132.5-18-0-1345-1723-1917-2395-0-0-0-0_CM_5LB,""CITY OF COMMERCE (BLU BACKGROUND)"",3132.5
3132.5,MTWHFS,3132.5-19-0-1345-1823-2017-2395-0-0-0-0_CM_5LB,""CITY OF COMMERCE (BLU BACKGROUND)"",3132.5
3133.1,U,3133.1-13-357-2122-1239-1412-3387-0-0-0-0_CM_5LB,""SHOPPERS SPECIAL"",3133.1
3133.2,U,3133.2-18-0-357-1716-1739-3387-0-0-0-0_CM_5LB,""SHOPPERS SPECIAL"",3133.2
3133.3,U,3133.3-17-0-1368-1616-1739-3387-0-0-0-0_CM_5LB,""SHOPPERS SPECIAL"",3133.3
3133.4,U,3133.4-14-0-2122-1316-1512-3387-0-0-0-0_CM_5LB,""SHOPPERS SPECIAL"",3133.4
3133.4,U,3133.4-15-0-2122-1416-1612-3387-0-0-0-0_CM_5LB,""SHOPPERS SPECIAL"",3133.4
3133.4,U,3133.4-16-0-2122-1516-1712-3387-0-0-0-0_CM_5LB,""SHOPPERS SPECIAL"",3133.4
3190.1,MTWHFSU,3190.1-22-0-714-2145-2218-3403-0-0-0-0_CM_5LB,""CITADEL EXPRESS"",3190.1
3190.2,MTWHFSU,3190.2-21-0-821-2035-2120-3403-0-0-0-0_CM_5LB,""CITADEL EXPRESS"",3190.2
3190.3,MTWHFSU,3190.3-11-0-1149-1030-1155-3403-0-0-0-0_CM_5LB,""CITADEL EXPRESS"",3190.3
3190.3,MTWHFSU,3190.3-12-0-1149-1105-1220-3403-0-0-0-0_CM_5LB,""CITADEL EXPRESS"",3190.3
3190.3,MTWHFSU,3190.3-12-0-1149-1140-1320-3403-0-0-0-0_CM_5LB,""CITADEL EXPRESS"",3190.3
3190.3,MTWHFSU,3190.3-13-0-1149-1220-1345-3403-0-0-0-0_CM_5LB,""CITADEL EXPRESS"",3190.3
3190.3,MTWHFSU,3190.3-14-0-1149-1320-1450-3403-0-0-0-0_CM_5LB,""CITADEL EXPRESS"",3190.3
3190.3,MTWHFSU,3190.3-14-0-1149-1345-1535-3403-0-0-0-0_CM_5LB,""CITADEL EXPRESS"",3190.3
3190.3,MTWHFSU,3190.3-15-0-1149-1450-1615-3403-0-0-0-0_CM_5LB,""CITADEL EXPRESS"",3190.3
3190.3,MTWHFSU,3190.3-16-0-1149-1535-1705-3403-0-0-0-0_CM_5LB,""CITADEL EXPRESS"",3190.3
3190.3,MTWHFSU,3190.3-17-0-1149-1615-1740-3403-0-0-0-0_CM_5LB,""CITADEL EXPRESS"",3190.3
3190.3,MTWHFSU,3190.3-18-0-1149-1705-1835-3403-0-0-0-0_CM_5LB,""CITADEL EXPRESS"",3190.3
3190.3,MTWHFSU,3190.3-18-0-1149-1740-1920-3403-0-0-0-0_CM_5LB,""CITADEL EXPRESS"",3190.3
3190.3,MTWHFSU,3190.3-19-0-1149-1835-2035-3403-0-0-0-0_CM_5LB,""CITADEL EXPRESS"",3190.3
3190.3,MTWHFSU,3190.3-20-0-1149-1920-2145-3403-0-0-0-0_CM_5LB,""CITADEL EXPRESS"",3190.3
3190.4,MTWHFSU,3190.4-10-674-1149-0925-1030-3403-0-0-0-0_CM_5LB,""CITADEL EXPRESS"",3190.4
3235.1,MTWHF,3235.1-10-0-377-0902-0931-3429-0-0-0-0_CM_5LB,""COMMUTER SHUTTLE"",3235.1
3235.2,MTWHF,3235.2-16-0-412-1518-1550-3429-0-0-0-0_CM_5LB,""COMMUTER SHUTTLE"",3235.2
3235.2,MTWHF,3235.2-16-0-412-1557-1630-3429-0-0-0-0_CM_5LB,""COMMUTER SHUTTLE"",3235.2
3235.2,MTWHF,3235.2-18-0-412-1700-1735-3429-0-0-0-0_CM_5LB,""COMMUTER SHUTTLE"",3235.2
3235.2,MTWHF,3235.2-8-0-412-0700-0732-3429-0-0-0-0_CM_5LB,""COMMUTER SHUTTLE"",3235.2
3235.2,MTWHF,3235.2-8-0-412-0733-0805-3429-0-0-0-0_CM_5LB,""COMMUTER SHUTTLE"",3235.2
3235.2,MTWHF,3235.2-9-0-412-0820-0852-3429-0-0-0-0_CM_5LB,""COMMUTER SHUTTLE"",3235.2
3235.3,MTWHF,3235.3-15-24-412-1445-1517-3429-0-0-0-0_CM_5LB,""COMMUTER SHUTTLE"",3235.3
3259.1,MTWHF,3259.1-10-0-916-0930-1030-3403-0-0-0-0_CM_5LB,""CITADEL EXPRESS"",3259.1
3259.1,MTWHF,3259.1-8-0-916-0725-0830-3403-0-0-0-0_CM_5LB,""CITADEL EXPRESS"",3259.1
3259.1,MTWHF,3259.1-9-0-916-0830-0930-3403-0-0-0-0_CM_5LB,""CITADEL EXPRESS"",3259.1
3259.2,MTWHF,3259.2-7-480-916-0635-0725-3403-0-0-0-0_CM_5LB,""CITADEL EXPRESS"",3259.2
494.1,MTWHF,494.1-6-616-1573-0537-0706-2398-0-0-0-0_CM_5LB,""CITY OF COMMERCE (ORG BACKGROUND)"",494.1
494.2,MTWHF,494.2-18-0-616-1725-1817-2398-0-0-0-0_CM_5LB,""CITY OF COMMERCE (ORG BACKGROUND)"",494.2
494.3,MTWHF,494.3-17-0-1402-1600-1817-2398-0-0-0-0_CM_5LB,""CITY OF COMMERCE (ORG BACKGROUND)"",494.3
494.4,MTWHF,494.4-11-0-1573-1013-1300-2398-0-0-0-0_CM_5LB,""CITY OF COMMERCE (ORG BACKGROUND)"",494.4
494.4,MTWHF,494.4-12-0-1573-1152-1424-2398-0-0-0-0_CM_5LB,""CITY OF COMMERCE (ORG BACKGROUND)"",494.4
494.4,MTWHF,494.4-14-0-1573-1315-1533-2398-0-0-0-0_CM_5LB,""CITY OF COMMERCE (ORG BACKGROUND)"",494.4
494.4,MTWHF,494.4-15-0-1573-1425-1708-2398-0-0-0-0_CM_5LB,""CITY OF COMMERCE (ORG BACKGROUND)"",494.4
494.4,MTWHF,494.4-6-0-1573-0558-0830-2398-0-0-0-0_CM_5LB,""CITY OF COMMERCE (ORG BACKGROUND)"",494.4
494.4,MTWHF,494.4-8-0-1573-0723-0955-2398-0-0-0-0_CM_5LB,""CITY OF COMMERCE (ORG BACKGROUND)"",494.4
494.4,MTWHF,494.4-9-0-1573-0848-1120-2398-0-0-0-0_CM_5LB,""CITY OF COMMERCE (ORG BACKGROUND)"",494.4
