shape_id,shape_pt_lat,shape_pt_lon,shape_pt_sequence
1422.1,34.19914947232,-119.17730953703,0
1422.1,34.199148518261,-119.17768986469,1
1422.1,34.199173358642,-119.18049812588,9
1422.1,34.199188242842,-119.18178818988,13
1422.1,34.199188242842,-119.18178818988,14
1422.1,34.196530691509,-119.18180680804,23
1422.1,34.193914484563,-119.1818127816,32
1422.1,34.192680616797,-119.18181185807,37
1422.1,34.190070228319,-119.18178484397,46
1422.1,34.186723010628,-119.18179370242,58
1422.1,34.184480939951,-119.18175867473,67
1422.1,34.182719486324,-119.18175359483,73
1422.1,34.180977298754,-119.18174548111,79
1422.1,34.178583718388,-119.18174799187,88
1422.1,34.176082007725,-119.18156712074,97
1422.1,34.173448085499,-119.18141745377,107
1422.1,34.173448085499,-119.18141745377,108
1422.1,34.173156915747,-119.17802439311,117
1422.1,34.173156915747,-119.17802439311,118
1422.1,34.169466496988,-119.17800211199,130
1422.1,34.1656167776,-119.17797097484,145
1422.1,34.160738687056,-119.17800137593,162
1422.1,34.15836951442,-119.17803739444,171
1422.1,34.154557425823,-119.17809273458,185
1422.1,34.154581611201,-119.18096559927,193
1422.1,34.154601714702,-119.18424829738,203
1422.1,34.154601714702,-119.18424829738,204
1422.1,34.151062161149,-119.18425432761,216
1422.1,34.147385418413,-119.18423858158,230
1422.1,34.147385418413,-119.18423858158,231
1422.1,34.147403213338,-119.18634759548,236
1422.1,34.147412644538,-119.18818545966,242
1422.1,34.147424368615,-119.1906249168,249
1422.1,34.147424368615,-119.1906249168,250
1422.1,34.143318567213,-119.19064574497,264
1422.1,34.142340466818,-119.19229756606,270
1422.1,34.143640513041,-119.19561462712,281
1422.1,34.146471625528,-119.19555266962,291
1422.1,34.147669936186,-119.19553676041,296
1422.1,34.14759591668,-119.19940288086,308
1422.1,34.148955483571,-119.19781269593,314
1422.1,34.148944710849,-119.19862234864,317
1422.1,34.148918736504,-119.20013251399,321
1422.1,34.150245991371,-119.20013835414,326
1422.1,34.151427652669,-119.20013879801,331
1422.1,34.153961626037,-119.20011238696,340
1422.1,34.154678931479,-119.20010616128,342
1422.1,34.154678931479,-119.20010616128,343
1422.1,34.154670346478,-119.19709136562,352
1422.1,34.15467887927,-119.19539573495,357
1422.1,34.156311550664,-119.19536289648,363
1422.1,34.161016574635,-119.19532772878,380
1422.1,34.160989950237,-119.19245790484,388
1422.1,34.160936755241,-119.18892985,399
1422.1,34.160891871696,-119.18622506397,407
1422.1,34.160797755033,-119.18096089681,423
1422.1,34.160738687056,-119.17800137593,432
1422.1,34.160738687056,-119.17800137593,433
1422.1,34.163605189081,-119.17797236708,443
1422.1,34.1656167776,-119.17797097484,450
1422.1,34.167705204494,-119.17798058412,457
1422.1,34.169466496988,-119.17800211199,464
1422.1,34.173156915747,-119.17802439311,477
1422.1,34.173448085499,-119.18141745377,488
1422.1,34.176082007725,-119.18156712074,497
1422.1,34.180977298754,-119.18174548111,515
1422.1,34.18356861487,-119.18175568772,524
1422.1,34.186723010628,-119.18179370242,536
1422.1,34.190070228319,-119.18178484397,548
1422.1,34.192680616797,-119.18181185807,558
1422.1,34.19522525494,-119.18181810051,567
1422.1,34.197253362445,-119.18181372687,574
1422.1,34.199188242842,-119.18178818988,581
1422.1,34.199173358642,-119.18049812588,585
1422.1,34.199148518261,-119.17768986469,594
1422.1,34.19914947232,-119.17730953703,595
1424.1,34.19914947232,-119.17730953703,0
1424.1,34.199148518261,-119.17768986469,1
1424.1,34.199173358642,-119.18049812588,9
1424.1,34.199188242842,-119.18178818988,13
1424.1,34.199188242842,-119.18178818988,14
1424.1,34.196530691509,-119.18180680804,23
1424.1,34.193914484563,-119.1818127816,32
1424.1,34.192680616797,-119.18181185807,37
1424.1,34.190070228319,-119.18178484397,46
1424.1,34.186723010628,-119.18179370242,58
1424.1,34.184480939951,-119.18175867473,67
1424.1,34.182719486324,-119.18175359483,73
1424.1,34.180977298754,-119.18174548111,79
1424.1,34.178583718388,-119.18174799187,88
1424.1,34.176082007725,-119.18156712074,97
1424.1,34.173448085499,-119.18141745377,107
1424.1,34.173156915747,-119.17802439311,117
1424.1,34.173156915747,-119.17802439311,118
1424.1,34.169466496988,-119.17800211199,130
1424.1,34.1656167776,-119.17797097484,145
1424.1,34.160738687056,-119.17800137593,162
1424.1,34.160797755033,-119.18096089681,171
1424.1,34.160891871696,-119.18622506397,187
1424.1,34.160936755241,-119.18892985,195
1424.1,34.160982990287,-119.19177019724,204
1424.1,34.161009457644,-119.19410117106,211
1424.1,34.161016574635,-119.19532772878,215
1424.1,34.161016574635,-119.19532772878,216
1424.1,34.156311550664,-119.19536289648,232
1424.1,34.15467887927,-119.19539573495,238
1424.1,34.154678931479,-119.20010616128,252
1424.1,34.153068469842,-119.20011608695,258
1424.1,34.151427652669,-119.20013879801,264
1424.1,34.148918736504,-119.20013251399,273
1424.1,34.148918736504,-119.20013251399,274
1424.1,34.148955483571,-119.19781269593,280
1424.1,34.14759591668,-119.19940288086,287
1424.1,34.14759591668,-119.19940288086,288
1424.1,34.147669936186,-119.19553676041,299
1424.1,34.146471625528,-119.19555266962,303
1424.1,34.143640513041,-119.19561462712,313
1424.1,34.142340466818,-119.19229756606,324
1424.1,34.143318567213,-119.19064574497,330
1424.1,34.147424368615,-119.1906249168,345
1424.1,34.147403213338,-119.18634759548,358
1424.1,34.147385418413,-119.18423858158,365
1424.1,34.147385418413,-119.18423858158,366
1424.1,34.149317129702,-119.18425604055,372
1424.1,34.151062161149,-119.18425432761,378
1424.1,34.154601714702,-119.18424829738,391
1424.1,34.154581611201,-119.18096559927,401
1424.1,34.154557425823,-119.17809273458,410
1424.1,34.157146508981,-119.17804990279,419
1424.1,34.15836951442,-119.17803739444,424
1424.1,34.160738687056,-119.17800137593,432
1424.1,34.163605189081,-119.17797236708,443
1424.1,34.1656167776,-119.17797097484,450
1424.1,34.167705204494,-119.17798058412,457
1424.1,34.169466496988,-119.17800211199,464
1424.1,34.173156915747,-119.17802439311,477
1424.1,34.173448085499,-119.18141745377,488
1424.1,34.176082007725,-119.18156712074,497
1424.1,34.180977298754,-119.18174548111,515
1424.1,34.18356861487,-119.18175568772,524
1424.1,34.186723010628,-119.18179370242,536
1424.1,34.190070228319,-119.18178484397,548
1424.1,34.192680616797,-119.18181185807,558
1424.1,34.19522525494,-119.18181810051,567
1424.1,34.197253362445,-119.18181372687,574
1424.1,34.199188242842,-119.18178818988,581
1424.1,34.199173358642,-119.18049812588,585
1424.1,34.199148518261,-119.17768986469,594
1424.1,34.19914947232,-119.17730953703,595
1426.1,34.19914947232,-119.17730953703,0
1426.1,34.199148518261,-119.17768986469,1
1426.1,34.199173358642,-119.18049812588,9
1426.1,34.200572022461,-119.18050797426,14
1426.1,34.200572022461,-119.18050797426,15
1426.1,34.200804063276,-119.17445544236,33
1426.1,34.200804063276,-119.17445544236,34
1426.1,34.201719296827,-119.17444185407,36
1426.1,34.20475075598,-119.17440510601,47
1426.1,34.206715859302,-119.17437982013,54
1426.1,34.206684501734,-119.17222943213,61
1426.1,34.206675094554,-119.16894153636,71
1426.1,34.206677892844,-119.16694378001,77
1426.1,34.20667624549,-119.16483350332,83
1426.1,34.207419786366,-119.16409965662,86
1426.1,34.20700711164,-119.16243347884,92
1426.1,34.206610692859,-119.15964295883,100
1426.1,34.206610692859,-119.15964295883,101
1426.1,34.205128994547,-119.15969514951,106
1426.1,34.205128994547,-119.15969514951,107
1426.1,34.205085012531,-119.15625138794,116
1426.1,34.205068966986,-119.15419056841,122
1426.1,34.202260171112,-119.15422120539,133
1426.1,34.202259761643,-119.15627842037,139
1426.1,34.202281222467,-119.15977797906,149
1426.1,34.202512059498,-119.15977787736,150
1426.1,34.202512059498,-119.15977787736,151
1426.1,34.202519225061,-119.1613225518,155
1426.1,34.20252968556,-119.16337992622,161
1426.1,34.202547523382,-119.16694890661,172
1426.1,34.202558016025,-119.16899305444,178
1426.1,34.203090341042,-119.17106436541,186
1426.1,34.20311503724,-119.17333694293,193
1426.1,34.203126461024,-119.17442526109,196
1426.1,34.203126461024,-119.17442526109,197
1426.1,34.200804063276,-119.17445544236,205
1426.1,34.20081970238,-119.17595721248,209
1426.1,34.200557253551,-119.17920466146,219
1426.1,34.200572022461,-119.18050797426,223
1426.1,34.199173358642,-119.18049812588,228
1426.1,34.199148518261,-119.17768986469,237
1426.1,34.19914947232,-119.17730953703,238
1426.2,34.20475075598,-119.17440510601,47
1426.2,34.206715859302,-119.17437982013,54
1426.2,34.206684501734,-119.17222943213,61
1426.2,34.206675094554,-119.16894153636,71
1426.2,34.206677892844,-119.16694378001,77
1426.2,34.20667624549,-119.16483350332,83
1426.2,34.207419786366,-119.16409965662,86
1426.2,34.20700711164,-119.16243347884,92
1426.2,34.206610692859,-119.15964295883,100
1426.2,34.206610692859,-119.15964295883,101
1426.2,34.205128994547,-119.15969514951,106
1426.2,34.205128994547,-119.15969514951,107
1426.2,34.205085012531,-119.15625138794,116
1426.2,34.205068966986,-119.15419056841,122
1426.2,34.202260171112,-119.15422120539,133
1426.2,34.202259761643,-119.15627842037,139
1426.2,34.202281222467,-119.15977797906,149
1426.2,34.202512059498,-119.15977787736,150
1426.2,34.202512059498,-119.15977787736,151
1426.2,34.202519225061,-119.1613225518,155
1426.2,34.20252968556,-119.16337992622,161
1426.2,34.202547523382,-119.16694890661,172
1426.2,34.202558016025,-119.16899305444,178
1426.2,34.203090341042,-119.17106436541,186
1426.2,34.20311503724,-119.17333694293,193
1426.2,34.203126461024,-119.17442526109,196
1426.2,34.203126461024,-119.17442526109,197
1426.2,34.200804063276,-119.17445544236,205
1426.2,34.20081970238,-119.17595721248,209
1426.2,34.200557253551,-119.17920466146,219
1426.2,34.200572022461,-119.18050797426,223
1426.2,34.199173358642,-119.18049812588,228
1426.2,34.199148518261,-119.17768986469,237
1426.2,34.19914947232,-119.17730953703,238
1428.1,34.19914947232,-119.17730953703,0
1428.1,34.199148518261,-119.17768986469,1
1428.1,34.199173358642,-119.18049812588,9
1428.1,34.199188242842,-119.18178818988,13
1428.1,34.199188242842,-119.18178818988,14
1428.1,34.197847280318,-119.18177913671,18
1428.1,34.197858918053,-119.18311874363,22
1428.1,34.197889848438,-119.18557317374,29
1428.1,34.197902655806,-119.18734935851,35
1428.1,34.197920669518,-119.18859314791,39
1428.1,34.197920669518,-119.18859314791,40
1428.1,34.195632298289,-119.18879539097,47
1428.1,34.192732155724,-119.18972969639,58
1428.1,34.190274255265,-119.19012459166,67
1428.1,34.186424343029,-119.19011272618,81
1428.1,34.182879697761,-119.18868003432,94
1428.1,34.181710766877,-119.18738373548,100
1428.1,34.179562482971,-119.18619260316,109
1428.1,34.178716199486,-119.18618058614,112
1428.1,34.178716199486,-119.18618058614,113
1428.1,34.178583718388,-119.18174799187,125
1428.1,34.178583718388,-119.18174799187,126
1428.1,34.176082007725,-119.18156712074,134
1428.1,34.176082007725,-119.18156712074,135
1428.1,34.173448085499,-119.18141745377,144
1428.1,34.170310628204,-119.1813334124,155
1428.1,34.170310628204,-119.1813334124,156
1428.1,34.170327561796,-119.18409761421,164
1428.1,34.170337634982,-119.18615419871,170
1428.1,34.17036413971,-119.1879332989,175
1428.1,34.170416907786,-119.19150803125,186
1428.1,34.170470847638,-119.19523156473,198
1428.1,34.170470847638,-119.19523156473,199
1428.1,34.172520675173,-119.19525427888,205
1428.1,34.175642421034,-119.19525926723,216
1428.1,34.175642421034,-119.19525926723,217
1428.1,34.175599309851,-119.19155218961,228
1428.1,34.175591680368,-119.19065274361,230
1428.1,34.175635765543,-119.18616660429,244
1428.1,34.173448085499,-119.18141745377,260
1428.1,34.176082007725,-119.18156712074,270
1428.1,34.176082007725,-119.18156712074,271
1428.1,34.178583718388,-119.18174799187,279
1428.1,34.178716199486,-119.18618058614,292
1428.1,34.178716199486,-119.18618058614,293
1428.1,34.180291937295,-119.18634845054,298
1428.1,34.181710766877,-119.18738373548,304
1428.1,34.182879697761,-119.18868003432,310
1428.1,34.185045256418,-119.18978885533,319
1428.1,34.18573753982,-119.18981194337,321
1428.1,34.186424343029,-119.19011272618,324
1428.1,34.190150577463,-119.19012613637,337
1428.1,34.192732155724,-119.18972969639,347
1428.1,34.194329789462,-119.18962678343,353
1428.1,34.195632298289,-119.18879539097,358
1428.1,34.197920669518,-119.18859314791,366
1428.1,34.197920669518,-119.18859314791,367
1428.1,34.197889848438,-119.18557317374,375
1428.1,34.197835772709,-119.18183189009,387
1428.1,34.199188242842,-119.18178818988,392
1428.1,34.199173358642,-119.18049812588,396
1428.1,34.199148518261,-119.17768986469,404
1428.1,34.19914947232,-119.17730953703,405
1430.1,34.19914947232,-119.17730953703,0
1430.1,34.199148518261,-119.17768986469,1
1430.1,34.199173358642,-119.18049812588,9
1430.1,34.199202757523,-119.1831146298,17
1430.1,34.199227187903,-119.18567153405,25
1430.1,34.201875783747,-119.18572567447,34
1430.1,34.203285794397,-119.18569938953,40
1430.1,34.204294677022,-119.18566410103,43
1430.1,34.206352944312,-119.18566686373,51
1430.1,34.206352944312,-119.18566686373,52
1430.1,34.208271274695,-119.1856477936,58
1430.1,34.208271274695,-119.1856477936,59
1430.1,34.208305834429,-119.18884681123,67
1430.1,34.208366289671,-119.19331304569,81
1430.1,34.209259250371,-119.19332911401,84
1430.1,34.21203443146,-119.19336546598,94
1430.1,34.214771145131,-119.19340127057,104
1430.1,34.216285014375,-119.19343283151,110
1430.1,34.216262937127,-119.19539085101,116
1430.1,34.219256686734,-119.19527823045,127
1430.1,34.221117578899,-119.19523209038,133
1430.1,34.224642543586,-119.1950344284,146
1430.1,34.226762141372,-119.19494897346,154
1430.1,34.226762141372,-119.19494897346,155
1430.1,34.22672135194,-119.19072354735,167
1430.1,34.224582588538,-119.19080221946,174
1430.1,34.221651974503,-119.19092252459,185
1430.1,34.219227355319,-119.19100703366,194
1430.1,34.219227355319,-119.19100703366,195
1430.1,34.21924176084,-119.18702426954,206
1430.1,34.219109889792,-119.18168641778,222
1430.1,34.219031296324,-119.17734507529,235
1430.1,34.218995310641,-119.17256105659,250
1430.1,34.218900909084,-119.16526538575,272
1430.1,34.218858544147,-119.1628135002,279
1430.1,34.218815507164,-119.15813195855,293
1430.1,34.218815507164,-119.15813195855,294
1430.1,34.21477075928,-119.15924024851,308
1430.1,34.213311349784,-119.15954746671,314
1430.1,34.206610692859,-119.15964295883,338
1430.1,34.202512059498,-119.15977787736,353
1430.1,34.200657025089,-119.15978849724,360
1430.1,34.200657025089,-119.15978849724,361
1430.1,34.20068748855,-119.16491203504,375
1430.1,34.200759877733,-119.16994025311,391
1430.1,34.200779254984,-119.17106172497,394
1430.1,34.200804063276,-119.17445544236,404
1430.1,34.200557253551,-119.17920466146,419
1430.1,34.200572022461,-119.18050797426,423
1430.1,34.199173358642,-119.18049812588,428
1430.1,34.199148518261,-119.17768986469,436
1430.1,34.19914947232,-119.17730953703,437
1432.1,34.19914947232,-119.17730953703,0
1432.1,34.199148518261,-119.17768986469,1
1432.1,34.199173358642,-119.18049812588,9
1432.1,34.200572022461,-119.18050797426,14
1432.1,34.200804063276,-119.17445544236,33
1432.1,34.200759877733,-119.16994025311,46
1432.1,34.200709165833,-119.16693975603,55
1432.1,34.20068748855,-119.16491203504,61
1432.1,34.200657025089,-119.15978849724,77
1432.1,34.200657025089,-119.15978849724,78
1432.1,34.202281222467,-119.15977797906,83
1432.1,34.205128994547,-119.15969514951,93
1432.1,34.206610692859,-119.15964295883,99
1432.1,34.21477075928,-119.15924024851,128
1432.1,34.216871977143,-119.15820093376,137
1432.1,34.216930689537,-119.15608462144,143
1432.1,34.216861330937,-119.15413855302,149
1432.1,34.21877469389,-119.15377464701,156
1432.1,34.218815507164,-119.15813195855,169
1432.1,34.218815507164,-119.15813195855,170
1432.1,34.218858544147,-119.1628135002,183
1432.1,34.218900909084,-119.16526538575,191
1432.1,34.218995310641,-119.17256105659,213
1432.1,34.219031296324,-119.17734507529,227
1432.1,34.219109889792,-119.18168641778,240
1432.1,34.21924176084,-119.18702426954,256
1432.1,34.219227355319,-119.19100703366,268
1432.1,34.221651974503,-119.19092252459,277
1432.1,34.224582588538,-119.19080221946,288
1432.1,34.22672135194,-119.19072354735,296
1432.1,34.22672135194,-119.19072354735,297
1432.1,34.226762141372,-119.19494897346,309
1432.1,34.226762141372,-119.19494897346,310
1432.1,34.225780504113,-119.19500770791,312
1432.1,34.223234755893,-119.19511352666,321
1432.1,34.219256686734,-119.19527823045,336
1432.1,34.216270981084,-119.19513294224,347
1432.1,34.216262937127,-119.19539085101,348
1432.1,34.216285014375,-119.19343283151,353
1432.1,34.216285014375,-119.19343283151,354
1432.1,34.214771145131,-119.19340127057,359
1432.1,34.21203443146,-119.19336546598,369
1432.1,34.208366289671,-119.19331304569,382
1432.1,34.208305834429,-119.18884681123,396
1432.1,34.208271274695,-119.1856477936,405
1432.1,34.208251950254,-119.18172461444,417
1432.1,34.205209788911,-119.18173117893,428
1432.1,34.20424487024,-119.18176713746,432
1432.1,34.203222573437,-119.1817692084,436
1432.1,34.200586971169,-119.18179144603,445
1432.1,34.199188242842,-119.18178818988,450
1432.1,34.199173358642,-119.18049812588,454
1432.1,34.199148518261,-119.17768986469,463
1432.1,34.19914947232,-119.17730953703,464
1434.1,34.19914947232,-119.17730953703,0
1434.1,34.199148518261,-119.17768986469,1
1434.1,34.199173358642,-119.18049812588,9
1434.1,34.199188242842,-119.18178818988,13
1434.1,34.199188242842,-119.18178818988,14
1434.1,34.197860501787,-119.18183224003,18
1434.1,34.197858918053,-119.18311874363,22
1434.1,34.197889848438,-119.18557317374,29
1434.1,34.197920669518,-119.18859314791,38
1434.1,34.197966553879,-119.19230786758,50
1434.1,34.197986248823,-119.19532438288,59
1434.1,34.197986248823,-119.19532438288,60
1434.1,34.195306681399,-119.19534556218,68
1434.1,34.192734861352,-119.19530875499,78
1434.1,34.190201149295,-119.19530887204,87
1434.1,34.190284611016,-119.20020107637,102
1434.1,34.190350687505,-119.20433574493,114
1434.1,34.187968228913,-119.20432454149,123
1434.1,34.186223854822,-119.20425970915,129
1434.1,34.186076484825,-119.2033283718,132
1434.1,34.183897287871,-119.20332673923,140
1434.1,34.181201364869,-119.20333419622,150
1434.1,34.181190539324,-119.2038697116,152
1434.1,34.181224224487,-119.20848292571,166
1434.1,34.181254363786,-119.21616794462,189
1434.1,34.181250922493,-119.22168995264,205
1434.1,34.185463088522,-119.22175155938,221
1434.1,34.190523580848,-119.22189502866,239
1434.1,34.190523580848,-119.22189502866,240
1434.1,34.190477394342,-119.21502243464,260
1434.1,34.190414838607,-119.20864897114,279
1434.1,34.190350687505,-119.20433574493,292
1434.1,34.19025450355,-119.19741617493,313
1434.1,34.190201149295,-119.19530887204,320
1434.1,34.192734861352,-119.19530875499,329
1434.1,34.195306681399,-119.19534556218,338
1434.1,34.197986248823,-119.19532438288,348
1434.1,34.197986248823,-119.19532438288,349
1434.1,34.197966553879,-119.19230786758,357
1434.1,34.197920669518,-119.18859314791,368
1434.1,34.197889848438,-119.18557317374,377
1434.1,34.197861115612,-119.18176941069,389
1434.1,34.199188242842,-119.18178818988,394
1434.1,34.199173358642,-119.18049812588,398
1434.1,34.199148518261,-119.17768986469,406
1434.1,34.19914947232,-119.17730953703,407
1436.1,34.176082007725,-119.18156712074,0
1436.1,34.173448085499,-119.18141745377,9
1436.1,34.173156915747,-119.17802439311,19
1436.1,34.173156915747,-119.17802439311,20
1436.1,34.169466496988,-119.17800211199,33
1436.1,34.1656167776,-119.17797097484,47
1436.1,34.16185993195,-119.17799734915,61
1436.1,34.160738687056,-119.17800137593,65
1436.1,34.157146508981,-119.17804990279,78
1436.1,34.154557425823,-119.17809273458,87
1436.1,34.154557425823,-119.17809273458,88
1436.1,34.154526772695,-119.1733323144,102
1436.1,34.15450338889,-119.17092554934,109
1436.1,34.155051045837,-119.16543937449,126
1436.1,34.157757011069,-119.15952691081,146
1436.1,34.157757011069,-119.15952691081,147
1436.1,34.159917227546,-119.15950069115,154
1436.1,34.161807759234,-119.15951370348,161
1436.1,34.161707145216,-119.15595854595,171
1436.1,34.161599270402,-119.15171238232,184
1436.1,34.166252642287,-119.15161453449,201
1436.1,34.167728872794,-119.15155884342,207
1436.1,34.168977014023,-119.15150331277,211
1436.1,34.166871358231,-119.14781452112,225
1436.1,34.166606508379,-119.1473447345,226
1436.1,34.164698087032,-119.14545067212,235
1436.1,34.16431423037,-119.14622891336,238
1436.1,34.161599270402,-119.15171238232,257
1436.1,34.161707145216,-119.15595854595,270
1436.1,34.161807759234,-119.15951370348,281
1436.1,34.159917227546,-119.15950069115,288
1436.1,34.157757011069,-119.15952691081,296
1436.1,34.157757011069,-119.15952691081,297
1436.1,34.155051045837,-119.16543937449,316
1436.1,34.15450338889,-119.17092554934,333
1436.1,34.154526772695,-119.1733323144,340
1436.1,34.154557425823,-119.17809273458,355
1436.1,34.154557425823,-119.17809273458,356
1436.1,34.15836951442,-119.17803739444,368
1436.1,34.160738687056,-119.17800137593,377
1436.1,34.163605189081,-119.17797236708,388
1436.1,34.1656167776,-119.17797097484,395
1436.1,34.167705204494,-119.17798058412,402
1436.1,34.169466496988,-119.17800211199,409
1436.1,34.173156915747,-119.17802439311,422
1436.1,34.173448085499,-119.18141745377,433
1436.1,34.176082007725,-119.18156712074,442
1438.1,34.19914947232,-119.17730953703,0
1438.1,34.199148518261,-119.17768986469,1
1438.1,34.197816646536,-119.17787613393,6
1438.1,34.197318472638,-119.17286525288,21
1438.1,34.197262881581,-119.16980858528,30
1438.1,34.197271238214,-119.16524140969,44
1438.1,34.197207764189,-119.15983650802,60
1438.1,34.190006648641,-119.1599646919,86
1438.1,34.190044512211,-119.16260416167,94
1438.1,34.190071550438,-119.16522033496,102
1438.1,34.189078363555,-119.16533875603,106
1438.1,34.187186748766,-119.16543802492,113
1438.1,34.186340335747,-119.16543944251,116
1438.1,34.186294212864,-119.15994620526,133
1438.1,34.182303880783,-119.1599635411,147
1438.1,34.1824102702,-119.15660216158,157
1438.1,34.1824102702,-119.15660216158,158
1438.1,34.178898478235,-119.15657999102,170
1438.1,34.177288399196,-119.15655108661,176
1438.1,34.177314397727,-119.15555620769,179
1438.1,34.177384188797,-119.15227387486,189
1438.1,34.177421582726,-119.15036657255,195
1438.1,34.177426900965,-119.14865060168,200
1438.1,34.17684704512,-119.14865254793,202
1438.1,34.172933399019,-119.14869792571,216
1438.1,34.172932317084,-119.15256624195,228
1438.1,34.172952546675,-119.15964854877,249
1438.1,34.172952546675,-119.15964854877,250
1438.1,34.171426949184,-119.15969349652,255
1438.1,34.162970377221,-119.15949347336,286
1438.1,34.161807759234,-119.15951370348,290
1438.1,34.161944242926,-119.16304292365,300
1438.1,34.162037184111,-119.16566244265,308
1438.1,34.161756915666,-119.17049496237,323
1438.1,34.160738687056,-119.17800137593,346
1438.1,34.160738687056,-119.17800137593,347
1438.1,34.163605189081,-119.17797236708,357
1438.1,34.1656167776,-119.17797097484,364
1438.1,34.167705204494,-119.17798058412,371
1438.1,34.169466496988,-119.17800211199,378
1438.1,34.173156915747,-119.17802439311,391
1438.1,34.173448085499,-119.18141745377,402
1438.1,34.176082007725,-119.18156712074,411
1438.2,34.19914947232,-119.17730953703,0
1438.2,34.199148518261,-119.17768986469,1
1438.2,34.197816646536,-119.17787613393,6
1438.2,34.197318472638,-119.17286525288,21
1438.2,34.197262881581,-119.16980858528,30
1438.2,34.197271238214,-119.16524140969,44
1438.2,34.197207764189,-119.15983650802,60
1438.2,34.190006648641,-119.1599646919,86
1438.2,34.190044512211,-119.16260416167,94
1438.2,34.190071550438,-119.16522033496,102
1438.2,34.189078363555,-119.16533875603,106
1438.2,34.187186748766,-119.16543802492,113
1438.2,34.186340335747,-119.16543944251,116
1438.2,34.186294212864,-119.15994620526,133
1438.2,34.182303880783,-119.1599635411,147
1438.2,34.1824102702,-119.15660216158,157
1438.2,34.1824102702,-119.15660216158,158
1438.2,34.178898478235,-119.15657999102,170
1438.2,34.177288399196,-119.15655108661,176
1438.2,34.177314397727,-119.15555620769,179
1438.2,34.177384188797,-119.15227387486,189
1438.2,34.177421582726,-119.15036657255,195
1438.2,34.177426900965,-119.14865060168,200
1438.2,34.17684704512,-119.14865254793,202
1438.2,34.172933399019,-119.14869792571,216
1438.2,34.172932317084,-119.15256624195,228
1438.2,34.172952546675,-119.15964854877,249
1438.2,34.172952546675,-119.15964854877,250
1438.2,34.171426949184,-119.15969349652,255
1438.2,34.162970377221,-119.15949347336,286
1438.2,34.161807759234,-119.15951370348,290
1438.2,34.161944242926,-119.16304292365,300
1438.2,34.162037184111,-119.16566244265,308
1438.2,34.161756915666,-119.17049496237,323
1438.2,34.160738687056,-119.17800137593,346
1438.2,34.160738687056,-119.17800137593,347
1438.2,34.163605189081,-119.17797236708,357
1438.2,34.1656167776,-119.17797097484,364
1438.2,34.167705204494,-119.17798058412,371
1438.2,34.169466496988,-119.17800211199,378
1438.2,34.173156915747,-119.17802439311,391
1438.2,34.173448085499,-119.18141745377,402
1438.2,34.176082007725,-119.18156712074,411
1438.2,34.177335983169,-119.1817600991,416
1438.2,34.177298468809,-119.17800013491,427
1438.2,34.177298468809,-119.17800013491,428
1438.2,34.173156915747,-119.17802439311,442
1438.2,34.169466496988,-119.17800211199,456
1438.2,34.168034925607,-119.17798523307,461
1438.2,34.1656167776,-119.17797097484,470
1438.2,34.163605189081,-119.17797236708,477
1438.2,34.160738687056,-119.17800137593,487
1438.2,34.160738687056,-119.17800137593,488
1438.2,34.161756915666,-119.17049496237,510
1438.2,34.162037184111,-119.16566244265,525
1438.2,34.161944242926,-119.16304292365,533
1438.2,34.161807759234,-119.15951370348,544
1438.2,34.162970377221,-119.15949347336,548
1438.2,34.171426949184,-119.15969349652,579
1438.2,34.172952546675,-119.15964854877,584
1438.2,34.172952546675,-119.15964854877,585
1438.2,34.172932317084,-119.15256624195,606
1438.2,34.172933399019,-119.14869792571,617
1438.2,34.172933399019,-119.14869792571,618
1438.2,34.177426900965,-119.14865060168,634
1438.2,34.177421582726,-119.15036657255,639
1438.2,34.17732620778,-119.15460742235,652
1438.2,34.177288399196,-119.15655108661,658
1438.2,34.178898478235,-119.15657999102,664
1438.2,34.178898478235,-119.15657999102,665
1438.2,34.178819481819,-119.15966386342,673
1438.2,34.182303880783,-119.1599635411,686
1438.2,34.186294212864,-119.15994620526,700
1438.2,34.186294212864,-119.15994620526,701
1438.2,34.186340335747,-119.16543944251,717
1438.2,34.190079984598,-119.16520061092,730
1438.2,34.190044512211,-119.16260416167,738
1438.2,34.190006648641,-119.1599646919,746
1438.2,34.197207764189,-119.15983650802,772
1438.2,34.197854119465,-119.17656698644,823
1438.2,34.197831756373,-119.17547527518,826
1438.2,34.197816646536,-119.17787613393,834
1438.2,34.199148518261,-119.17768986469,838
1438.2,34.19914947232,-119.17730953703,840
1442.1,34.273129009998,-119.2476403942,0
1442.1,34.273858496028,-119.24297715539,14
1442.1,34.274456979454,-119.23901368202,26
1442.1,34.274802548036,-119.23666185393,33
1442.1,34.275192929385,-119.2339531521,42
1442.1,34.275792509936,-119.23039343663,53
1442.1,34.276085767286,-119.22830559843,59
1442.1,34.276376373743,-119.22647591787,65
1442.1,34.276660722715,-119.22499041524,69
1442.1,34.277092959976,-119.22219283412,78
1442.1,34.277705283183,-119.21787836312,91
1442.1,34.278176496529,-119.21474030266,101
1442.1,34.278988557641,-119.20911104696,118
1442.1,34.279707972288,-119.20420535246,133
1442.1,34.280476498307,-119.19848257731,150
1442.1,34.280758149293,-119.19640097243,157
1442.1,34.281247273275,-119.19278290679,168
1442.1,34.281511331164,-119.19080364187,174
1442.1,34.281926928999,-119.18822068446,182
1442.1,34.282355095406,-119.18490954537,192
1442.1,34.282655585088,-119.18284467134,198
1442.1,34.28371581303,-119.18036345924,207
1442.1,34.286976046116,-119.17488717898,227
1442.1,34.288752693605,-119.17190593451,238
1442.1,34.29235915329,-119.16582130361,261
1442.1,34.294703968404,-119.16174169062,276
1442.1,34.294885520664,-119.16143628638,277
1442.1,34.292372193721,-119.15873593762,289
1442.1,34.291810067074,-119.15832087921,292
1442.1,34.291315054438,-119.15778425242,294
1442.1,34.291138151923,-119.15817911169,295
1442.1,34.286333525869,-119.15397064955,317
1442.1,34.288238096823,-119.15077555038,329
1442.1,34.289377476544,-119.1488610238,336
1442.1,34.290449784118,-119.14706140549,343
1442.1,34.28773601921,-119.14460057775,355
1442.1,34.285971937137,-119.14690713903,364
1442.1,34.283929337885,-119.14902105913,374
1442.1,34.282483683525,-119.14701147557,382
1442.1,34.281964660309,-119.14755389735,385
1442.1,34.283637992488,-119.15134112487,398
1442.1,34.29222557596,-119.15912459873,437
1442.1,34.292372193721,-119.15873593762,438
1442.1,34.291810067074,-119.15832087921,441
1442.2,34.273129009998,-119.2476403942,0
1442.2,34.273858496028,-119.24297715539,14
1442.2,34.274456979454,-119.23901368202,26
1442.2,34.274802548036,-119.23666185393,33
1442.2,34.275192929385,-119.2339531521,42
1442.2,34.275792509936,-119.23039343663,53
1442.2,34.276085767286,-119.22830559843,59
1442.2,34.276376373743,-119.22647591787,65
1442.2,34.276660722715,-119.22499041524,69
1442.2,34.277092959976,-119.22219283412,78
1442.2,34.277705283183,-119.21787836312,91
1442.2,34.278176496529,-119.21474030266,101
1442.2,34.278988557641,-119.20911104696,118
1442.2,34.279707972288,-119.20420535246,133
1442.2,34.280476498307,-119.19848257731,150
1442.2,34.280758149293,-119.19640097243,157
1442.2,34.281247273275,-119.19278290679,168
1442.2,34.281511331164,-119.19080364187,174
1442.2,34.281926928999,-119.18822068446,182
1442.2,34.282355095406,-119.18490954537,192
1442.2,34.282655585088,-119.18284467134,198
1442.2,34.28371581303,-119.18036345924,207
1442.2,34.286976046116,-119.17488717898,227
1442.2,34.288752693605,-119.17190593451,238
1442.2,34.29235915329,-119.16582130361,261
1442.2,34.294703968404,-119.16174169062,276
1442.2,34.294885520664,-119.16143628638,277
1442.2,34.292372193721,-119.15873593762,289
1442.2,34.291810067074,-119.15832087921,292
1442.2,34.291315054438,-119.15778425242,294
1442.2,34.291138151923,-119.15817911169,295
1442.2,34.286333525869,-119.15397064955,317
1442.2,34.288238096823,-119.15077555038,329
1442.2,34.289377476544,-119.1488610238,336
1442.2,34.290449784118,-119.14706140549,343
1442.2,34.28773601921,-119.14460057775,355
1442.2,34.285971937137,-119.14690713903,364
1442.2,34.283929337885,-119.14902105913,374
1442.2,34.282483683525,-119.14701147557,382
1442.2,34.281964660309,-119.14755389735,385
1442.2,34.283637992488,-119.15134112487,398
1442.2,34.29222557596,-119.15912459873,437
1442.2,34.292372193721,-119.15873593762,438
1442.2,34.291810067074,-119.15832087921,441
1442.2,34.293561001631,-119.16028546648,449
1442.2,34.294885520664,-119.16143628638,455
1442.2,34.290898413984,-119.16826092404,480
1442.2,34.287866645557,-119.17344626693,500
1442.2,34.28371581303,-119.18036345924,525
1442.2,34.282655585088,-119.18284467134,534
1442.2,34.282355095406,-119.18490954537,540
1442.2,34.281511331164,-119.19080364187,558
1442.2,34.281380761547,-119.19178502024,561
1442.2,34.280758149293,-119.19640097243,575
1442.2,34.278988557641,-119.20911104696,614
1442.2,34.278176496529,-119.21474030266,632
1442.2,34.277705283183,-119.21787836312,641
1442.2,34.277092959976,-119.22219283412,654
1442.2,34.276376373743,-119.22647591787,668
1442.2,34.275792509936,-119.23039343663,680
1442.2,34.275192929385,-119.2339531521,691
1442.2,34.274802548036,-119.23666185393,699
1442.2,34.274456979454,-119.23901368202,706
1442.2,34.273746267673,-119.24373685183,721
1442.2,34.273129009998,-119.2476403942,733
1442.3,34.283929337885,-119.14902105913,374
1442.3,34.282483683525,-119.14701147557,382
1442.3,34.281964660309,-119.14755389735,385
1442.3,34.283637992488,-119.15134112487,398
1442.3,34.29222557596,-119.15912459873,437
1442.3,34.292372193721,-119.15873593762,438
1442.3,34.291810067074,-119.15832087921,441
1442.3,34.293561001631,-119.16028546648,449
1442.3,34.294885520664,-119.16143628638,455
1442.3,34.290898413984,-119.16826092404,480
1442.3,34.287866645557,-119.17344626693,500
1442.3,34.28371581303,-119.18036345924,525
1442.3,34.282655585088,-119.18284467134,534
1442.3,34.282355095406,-119.18490954537,540
1442.3,34.281511331164,-119.19080364187,558
1442.3,34.281380761547,-119.19178502024,561
1442.3,34.280758149293,-119.19640097243,575
1442.3,34.278988557641,-119.20911104696,614
1442.3,34.278176496529,-119.21474030266,632
1442.3,34.277705283183,-119.21787836312,641
1442.3,34.277092959976,-119.22219283412,654
1442.3,34.276376373743,-119.22647591787,668
1442.3,34.275792509936,-119.23039343663,680
1442.3,34.275192929385,-119.2339531521,691
1442.3,34.274802548036,-119.23666185393,699
1442.3,34.274456979454,-119.23901368202,706
1442.3,34.273746267673,-119.24373685183,721
1442.3,34.273129009998,-119.2476403942,733
1446.1,34.233919692055,-119.17937813768,0
1446.1,34.232475087642,-119.17731299325,8
1446.1,34.229943716975,-119.17509366361,19
1446.1,34.23470877744,-119.17141526578,40
1446.1,34.239102152619,-119.16808199279,59
1446.1,34.24432974498,-119.16400553629,81
1446.1,34.240751795076,-119.1588499244,102
1446.1,34.23930213565,-119.15670217862,110
1446.1,34.238730704536,-119.15726007801,113
1446.1,34.236567363796,-119.15962234219,123
1446.1,34.236567363796,-119.15962234219,124
1446.1,34.235173678943,-119.15765744691,131
1446.1,34.235173678943,-119.15765744691,132
1446.1,34.233168512485,-119.1595718211,140
1446.1,34.227475615934,-119.16518325165,167
1446.1,34.226516191988,-119.1615041627,179
1446.1,34.22609862027,-119.15977138163,184
1446.1,34.22774397011,-119.15783895037,193
1446.1,34.228122428202,-119.15763245795,194
1446.1,34.227809834707,-119.15208979385,211
1446.1,34.226991432462,-119.14885611234,221
1446.1,34.223940803057,-119.15004481719,233
1446.1,34.225606580657,-119.15461343903,248
1446.1,34.228251493511,-119.15620499331,259
1446.1,34.228122428202,-119.15763245795,263
1446.1,34.225306508736,-119.15840726595,273
1446.1,34.222173967237,-119.15809583836,285
1446.1,34.218815507164,-119.15813195855,297
1446.1,34.218815507164,-119.15813195855,298
1446.1,34.218795892646,-119.15616006819,303
1446.1,34.216916951119,-119.15608443122,310
1446.1,34.217405534215,-119.15815540628,316
1446.1,34.218815507164,-119.15813195855,322
1446.1,34.222173967237,-119.15809583836,334
1446.1,34.22774397011,-119.15783895037,354
1446.1,34.228122428202,-119.15763245795,356
1446.1,34.227809834707,-119.15208979385,372
1446.1,34.226991432462,-119.14885611234,383
1446.1,34.223940803057,-119.15004481719,394
1446.1,34.225606580657,-119.15461343903,409
1446.1,34.228251493511,-119.15620499331,420
1446.1,34.22774397011,-119.15783895037,425
1446.1,34.22609862027,-119.15977138163,434
1446.1,34.226516191988,-119.1615041627,439
1446.1,34.227475615934,-119.16518325165,451
1446.1,34.227475615934,-119.16518325165,452
1446.1,34.233168512485,-119.1595718211,478
1446.1,34.235173678943,-119.15765744691,487
1446.1,34.236567363796,-119.15962234219,495
1446.1,34.238730704536,-119.15726007801,505
1446.1,34.23930213565,-119.15670217862,508
1446.1,34.240751795076,-119.1588499244,516
1446.1,34.24340339451,-119.1626028124,531
1446.1,34.24432974498,-119.16400553629,537
1446.1,34.239102152619,-119.16808199279,559
1446.1,34.23470877744,-119.17141526578,578
1446.1,34.231992952759,-119.17347812726,590
1446.1,34.229943716975,-119.17509366361,599
1446.1,34.226732627313,-119.17777790278,613
1446.1,34.233793408917,-119.17992890439,640
1446.1,34.233919692055,-119.17937813768,641
1446.2,34.216916951119,-119.15608443122,310
1446.2,34.217405534215,-119.15815540628,316
1446.2,34.218815507164,-119.15813195855,322
1446.2,34.222173967237,-119.15809583836,334
1446.2,34.22774397011,-119.15783895037,354
1446.2,34.228122428202,-119.15763245795,356
1446.2,34.227809834707,-119.15208979385,372
1446.2,34.226991432462,-119.14885611234,383
1446.2,34.223940803057,-119.15004481719,394
1446.2,34.225606580657,-119.15461343903,409
1446.2,34.228251493511,-119.15620499331,420
1446.2,34.22774397011,-119.15783895037,425
1446.2,34.22609862027,-119.15977138163,434
1446.2,34.226516191988,-119.1615041627,439
1446.2,34.227475615934,-119.16518325165,451
1446.2,34.227475615934,-119.16518325165,452
1446.2,34.233168512485,-119.1595718211,478
1446.2,34.235173678943,-119.15765744691,487
1446.2,34.236567363796,-119.15962234219,495
1446.2,34.238730704536,-119.15726007801,505
1446.2,34.23930213565,-119.15670217862,508
1446.2,34.240751795076,-119.1588499244,516
1446.2,34.24340339451,-119.1626028124,531
1446.2,34.24432974498,-119.16400553629,537
1446.2,34.239102152619,-119.16808199279,559
1446.2,34.23470877744,-119.17141526578,578
1446.2,34.231992952759,-119.17347812726,590
1446.2,34.229943716975,-119.17509366361,599
1446.2,34.226732627313,-119.17777790278,613
1446.2,34.233793408917,-119.17992890439,640
1446.2,34.233919692055,-119.17937813768,641
1448.1,34.3542997618,-119.30572503104,464
1448.1,34.36487790427,-119.30820387769,508
1448.1,34.367435539256,-119.30675270232,519
1448.1,34.372902808017,-119.30688482667,540
1448.1,34.375118320222,-119.3068333964,548
1448.1,34.377609632818,-119.30643495664,557
1448.1,34.382110595627,-119.30443056408,575
1448.1,34.385776745626,-119.3023665005,590
1448.1,34.392795431208,-119.30159108912,616
1448.1,34.39673337955,-119.29980272297,632
1448.1,34.400084659811,-119.29993126021,644
1448.1,34.40290702288,-119.29966696162,654
1448.1,34.413195880944,-119.29478075033,697
1448.1,34.417525139235,-119.29339562387,713
1448.1,34.420101017492,-119.29176097517,724
1448.1,34.422269064799,-119.28997067885,733
1448.1,34.42601629843,-119.28878507872,748
1448.1,34.430210857204,-119.28843210491,763
1448.1,34.432467637003,-119.27980731867,791
1448.1,34.432523574548,-119.26556993016,834
1448.1,34.435215182574,-119.26360421638,846
1448.1,34.441316639595,-119.26062529198,870
1448.1,34.447657382632,-119.24777088266,916
1448.1,34.448075387656,-119.24104317506,937
1448.2,34.273129009998,-119.2476403942,0
1448.2,34.272560810477,-119.25157109855,12
1448.2,34.271804168288,-119.25696534559,28
1448.2,34.272600550558,-119.26019160234,38
1448.2,34.273745559223,-119.26633957989,57
1448.2,34.275368493172,-119.27483214328,84
1448.2,34.276623485513,-119.28116429899,103
1448.2,34.278293467715,-119.28849620265,127
1448.2,34.278238857549,-119.29464625901,146
1448.2,34.278254778202,-119.29752332841,154
1448.2,34.278250366116,-119.30049608754,163
1448.2,34.281079610813,-119.30061633194,174
1448.2,34.284585156344,-119.29968768844,187
1448.2,34.287622815676,-119.29882452226,198
1448.2,34.289701417829,-119.29821455894,206
1448.2,34.291845676234,-119.29763207485,214
1448.2,34.292677979964,-119.29740993545,217
1448.2,34.294419555348,-119.2969635289,223
1448.2,34.296006977977,-119.29654119745,229
1448.2,34.29794198269,-119.29599511081,237
1448.2,34.301159272988,-119.29503511927,249
1448.2,34.303386050636,-119.29444381982,257
1448.2,34.305029053493,-119.29396264938,263
1448.2,34.306013495659,-119.29364676184,267
1448.2,34.308459131931,-119.29288988758,276
1448.2,34.309357864514,-119.2926223221,279
1448.2,34.313598941703,-119.29151895424,296
1448.2,34.317053782655,-119.29121475744,309
1448.2,34.321424047817,-119.29062329512,325
1448.2,34.323053575052,-119.29037359624,331
1448.2,34.326298314427,-119.29070204838,343
1448.2,34.329713917468,-119.29175861749,356
1448.2,34.335164753576,-119.29214452608,376
1448.2,34.338804295918,-119.29436094259,391
1448.2,34.342789681203,-119.29404181503,405
1448.2,34.3542997618,-119.30572503104,464
1448.2,34.36487790427,-119.30820387769,508
1448.2,34.367435539256,-119.30675270232,519
1448.2,34.372902808017,-119.30688482667,540
1448.2,34.375118320222,-119.3068333964,548
1448.2,34.377609632818,-119.30643495664,557
1448.2,34.382110595627,-119.30443056408,575
1448.2,34.385776745626,-119.3023665005,590
1448.2,34.392795431208,-119.30159108912,616
1448.2,34.39673337955,-119.29980272297,632
1448.2,34.400084659811,-119.29993126021,644
1448.2,34.40290702288,-119.29966696162,654
1448.2,34.413195880944,-119.29478075033,697
1448.2,34.417525139235,-119.29339562387,713
1448.2,34.420101017492,-119.29176097517,724
1448.2,34.422269064799,-119.28997067885,733
1448.2,34.42601629843,-119.28878507872,748
1448.2,34.430210857204,-119.28843210491,763
1448.2,34.432467637003,-119.27980731867,791
1448.2,34.432523574548,-119.26556993016,834
1448.2,34.435215182574,-119.26360421638,846
1448.2,34.441316639595,-119.26062529198,870
1448.2,34.447657382632,-119.24777088266,916
1448.2,34.448075387656,-119.24104317506,937
1449.1,34.448075387656,-119.24104317506,0
1449.1,34.447777540415,-119.24543736291,13
1449.1,34.441363900621,-119.26057293597,65
1449.1,34.432523574548,-119.26556993016,102
1449.1,34.432467637003,-119.27980731867,145
1449.1,34.430210857204,-119.28843210491,173
1449.1,34.422269064799,-119.28997067885,203
1449.1,34.418875441658,-119.29278653516,218
1449.1,34.41545674967,-119.2940830683,231
1449.1,34.413195880944,-119.29478075033,239
1449.1,34.415555982374,-119.29405476636,248
1449.1,34.39673337955,-119.29980272297,325
1449.1,34.400084659811,-119.29993126021,337
1449.1,34.39673337955,-119.29980272297,350
1449.1,34.392795431208,-119.30159108912,365
1449.1,34.377609632818,-119.30643495664,424
1449.1,34.372902808017,-119.30688482667,441
1449.1,34.371399207836,-119.30743129156,447
1449.1,34.367435539256,-119.30675270232,467
1449.1,34.36487790427,-119.30820387769,478
1449.1,34.354001515819,-119.30636980732,521
1449.1,34.354001515819,-119.30636980732,522
1449.1,34.3542997618,-119.30572503104,523
1449.2,34.448075387656,-119.24104317506,0
1449.2,34.447777540415,-119.24543736291,13
1449.2,34.441363900621,-119.26057293597,65
1449.2,34.432523574548,-119.26556993016,102
1449.2,34.432467637003,-119.27980731867,145
1449.2,34.430210857204,-119.28843210491,173
1449.2,34.422269064799,-119.28997067885,203
1449.2,34.418875441658,-119.29278653516,218
1449.2,34.41545674967,-119.2940830683,231
1449.2,34.413195880944,-119.29478075033,239
1449.2,34.415555982374,-119.29405476636,248
1449.2,34.39673337955,-119.29980272297,325
1449.2,34.400084659811,-119.29993126021,337
1449.2,34.39673337955,-119.29980272297,350
1449.2,34.392795431208,-119.30159108912,365
1449.2,34.377609632818,-119.30643495664,424
1449.2,34.372902808017,-119.30688482667,441
1449.2,34.371399207836,-119.30743129156,447
1449.2,34.367435539256,-119.30675270232,467
1449.2,34.36487790427,-119.30820387769,478
1449.2,34.354001515819,-119.30636980732,521
1449.2,34.354001515819,-119.30636980732,522
1449.2,34.3542997618,-119.30572503104,523
1449.2,34.349979507693,-119.29833155022,551
1449.2,34.342789681203,-119.29404181503,582
1449.2,34.33876311684,-119.29435699041,596
1449.2,34.335164753576,-119.29214452608,611
1449.2,34.329713917468,-119.29175861749,631
1449.2,34.326298314427,-119.29070204838,644
1449.2,34.322054631854,-119.29050387729,660
1449.2,34.317053782655,-119.29121475744,678
1449.2,34.309357864514,-119.2926223221,708
1449.2,34.306013495659,-119.29364676184,720
1449.2,34.303386050636,-119.29444381982,730
1449.2,34.301159272988,-119.29503511927,738
1449.2,34.299108092957,-119.29565229392,746
1449.2,34.296880671308,-119.29630312314,754
1449.2,34.294419555348,-119.2969635289,763
1449.2,34.292677979964,-119.29740993545,770
1449.2,34.289701417829,-119.29821455894,781
1449.2,34.287622815676,-119.29882452226,789
1449.2,34.284585156344,-119.29968768844,800
1449.2,34.283275872997,-119.30005464409,805
1449.2,34.281079610813,-119.30061633194,813
1449.2,34.278250366116,-119.30049608754,824
1449.2,34.278254778202,-119.29752332841,833
1449.2,34.278238857549,-119.29464625901,841
1449.2,34.278293467715,-119.28849620265,860
1449.2,34.276623485513,-119.28116429899,884
1449.2,34.275368493172,-119.27483214328,903
1449.2,34.273745559223,-119.26633957989,930
1449.2,34.272600550558,-119.26019160234,949
1449.2,34.271728402344,-119.25685165671,959
1449.2,34.273129009998,-119.2476403942,988
2450.1,34.176082007725,-119.18156712074,0
2450.1,34.177335983169,-119.1817600991,4
2450.1,34.177298468809,-119.17800013491,15
2450.1,34.177298468809,-119.17800013491,16
2450.1,34.180958760049,-119.17801207338,29
2450.1,34.182761589966,-119.17800112446,35
2450.1,34.186067205697,-119.17803120932,47
2450.1,34.186605296801,-119.1738457546,60
2450.1,34.18440902762,-119.17107030605,72
2450.1,34.18440902762,-119.17107030605,73
2450.1,34.183594157592,-119.1720707309,76
2450.1,34.182711928581,-119.17208149866,79
2450.1,34.180925256579,-119.17241023472,86
2450.1,34.17947734955,-119.17266104925,91
2450.1,34.177248694206,-119.1726595225,99
2450.1,34.177285841541,-119.17675673225,112
2450.1,34.177335983169,-119.1817600991,127
2450.1,34.176082007725,-119.18156712074,131
2450.1,34.173448085499,-119.18141745377,141
2450.1,34.173156915747,-119.17802439311,151
2450.1,34.173064570652,-119.17310665165,166
2450.1,34.173005187645,-119.16788520744,182
2450.1,34.172979489334,-119.16542167417,189
2450.1,34.172952546675,-119.15964854877,207
2450.1,34.172952546675,-119.15964854877,208
2450.1,34.177300235529,-119.15961962827,223
2450.1,34.178802742112,-119.15969008305,228
2450.1,34.178876104971,-119.15748235673,235
2450.1,34.178898478235,-119.15657999102,238
2450.1,34.177288399196,-119.15655108661,243
2450.1,34.177314397727,-119.15555620769,246
2450.1,34.177353869169,-119.15401264505,251
2450.1,34.177384188797,-119.15227387486,256
2450.1,34.177325864584,-119.15147291182,259
2450.1,34.177421582726,-119.15036657255,262
2450.1,34.177426900965,-119.14865060168,267
2450.1,34.17684704512,-119.14865254793,269
2450.1,34.173636994888,-119.14868776242,281
2450.1,34.172933399019,-119.14869792571,284
2450.1,34.172923235955,-119.15092290248,290
2450.1,34.172932317084,-119.15256624195,295
2450.1,34.172952546675,-119.15964854877,317
2450.1,34.172978611118,-119.16608291661,336
2450.1,34.173064570652,-119.17310665165,358
2450.1,34.173135292349,-119.17657593576,368
2450.1,34.173156915747,-119.17802439311,372
2450.1,34.173448085499,-119.18141745377,383
2450.1,34.176082007725,-119.18156712074,392
2450.2,34.178876104971,-119.15748235673,235
2450.2,34.178898478235,-119.15657999102,238
2450.2,34.177288399196,-119.15655108661,243
2450.2,34.177314397727,-119.15555620769,246
2450.2,34.177353869169,-119.15401264505,251
2450.2,34.177384188797,-119.15227387486,256
2450.2,34.177325864584,-119.15147291182,259
2450.2,34.177421582726,-119.15036657255,262
2450.2,34.177426900965,-119.14865060168,267
2450.2,34.17684704512,-119.14865254793,269
2450.2,34.173636994888,-119.14868776242,281
2450.2,34.172933399019,-119.14869792571,284
2450.2,34.172923235955,-119.15092290248,290
2450.2,34.172932317084,-119.15256624195,295
2450.2,34.172952546675,-119.15964854877,317
2450.2,34.172978611118,-119.16608291661,336
2450.2,34.173064570652,-119.17310665165,358
2450.2,34.173135292349,-119.17657593576,368
2450.2,34.173156915747,-119.17802439311,372
2450.2,34.173448085499,-119.18141745377,383
2450.2,34.176082007725,-119.18156712074,392
2801.1,34.291810067074,-119.15832087921,0
2801.1,34.291315054438,-119.15778425242,2
2801.1,34.291138151923,-119.15817911169,3
2801.1,34.283637992488,-119.15134112487,38
2801.1,34.279441458418,-119.15828489812,63
2801.1,34.278310838529,-119.16012967255,70
2801.1,34.277139372163,-119.1622187981,78
2801.1,34.275592667225,-119.16474621484,87
2801.1,34.273548235855,-119.16815703554,100
2801.1,34.272182181878,-119.17046167567,109
2801.1,34.271029563434,-119.17455672785,122
2801.1,34.270330519094,-119.17946905883,137
2801.1,34.269635054677,-119.18455679697,152
2801.1,34.269000782039,-119.18870857114,165
2801.1,34.268240068468,-119.19396403626,181
2801.1,34.267236299129,-119.20098346721,203
2801.1,34.266900242902,-119.20355381746,211
2801.1,34.266512069085,-119.20638488411,219
2801.1,34.265570859117,-119.21229941365,238
2801.1,34.265570859117,-119.21229941365,239
2801.1,34.264443990051,-119.21997529,261
2801.1,34.263712444974,-119.22520084202,277
2801.1,34.262421923129,-119.23132496097,296
2801.1,34.261274209636,-119.23365798317,304
2801.1,34.257679388325,-119.23476984341,318
2801.1,34.257958149302,-119.23707418671,325
2801.1,34.260591739839,-119.23563706719,335
2801.1,34.26292390208,-119.23519166834,344
2801.1,34.263525760953,-119.23922209163,356
2801.1,34.265120123714,-119.24586898634,377
2801.1,34.269205506702,-119.24676744245,392
2801.1,34.273129009998,-119.2476403942,407
2970.1,34.19914947232,-119.17730953703,0
2970.1,34.199148518261,-119.17768986469,1
2970.1,34.199173358642,-119.18049812588,9
2970.1,34.199188242842,-119.18178818988,13
2970.1,34.197847183399,-119.18178905713,18
2970.1,34.197858918053,-119.18311874363,22
2970.1,34.197882894562,-119.18572190204,30
2970.1,34.197920669518,-119.18859314791,39
2970.1,34.197966553879,-119.19230786758,50
2970.1,34.197986248823,-119.19532438288,59
2970.1,34.197721141016,-119.20045015716,75
2970.1,34.197830823852,-119.20875298731,100
2970.1,34.197873507213,-119.21245114011,111
2970.1,34.19792816312,-119.22203974183,140
2970.1,34.19792816312,-119.22203974183,141
2970.1,34.203286071137,-119.22212145273,159
2970.1,34.208833434214,-119.22221917788,180
2970.1,34.219383120485,-119.22250593145,218
2970.1,34.219393049379,-119.21770597649,232
2970.1,34.219382852819,-119.21461934196,242
2970.1,34.219395487197,-119.21664410184,248
2970.1,34.219352335089,-119.20750973236,276
2970.1,34.219346249361,-119.20508809669,283
2970.1,34.219341016284,-119.20229927265,291
2970.1,34.219321992801,-119.19895448737,301
2970.1,34.219256686734,-119.19527823045,313
2970.1,34.219227355319,-119.19100703366,325
2970.1,34.21924176084,-119.18702426954,337
2970.1,34.219109889792,-119.18168641778,354
2970.1,34.219031296324,-119.17734507529,367
2970.1,34.218995310641,-119.17256105659,381
2970.1,34.218900909084,-119.16526538575,403
2970.1,34.218858544147,-119.1628135002,411
2970.1,34.218815507164,-119.15813195855,425
2970.1,34.218815507164,-119.15813195855,426
2970.1,34.21877469389,-119.15377464701,438
2970.1,34.218752534755,-119.1491728008,452
2970.1,34.218722796442,-119.14477264822,465
2970.1,34.218693817107,-119.14202324044,474
2970.1,34.211530938095,-119.14217997846,500
2970.1,34.206613763051,-119.14227810411,518
2970.1,34.202174716882,-119.14237945112,534
2970.1,34.201748017848,-119.14884289805,553
2970.1,34.199062146846,-119.14895147253,563
2970.1,34.198370619874,-119.15634694487,586
2970.1,34.198392554304,-119.15979673806,596
2970.1,34.200657025089,-119.15978849724,604
2970.1,34.20068748855,-119.16491203504,620
2970.1,34.200759877733,-119.16994025311,635
2970.1,34.200804063276,-119.17445544236,649
2970.1,34.200557253551,-119.17920466146,663
2970.1,34.200572022461,-119.18050797426,667
2970.1,34.199173358642,-119.18049812588,672
2970.1,34.19914947232,-119.17730953703,682
2999.1,34.19914947232,-119.17730953703,0
2999.1,34.199173358642,-119.18049812588,9
2999.1,34.199188242842,-119.18178818988,13
2999.1,34.200586971169,-119.18179144603,18
2999.1,34.203222573437,-119.1817692084,28
2999.1,34.205209788911,-119.18173117893,35
2999.1,34.208251950254,-119.18172461444,46
2999.1,34.211178806144,-119.18170649433,57
2999.1,34.214259531858,-119.18169055049,68
2999.1,34.216103674371,-119.18167033731,75
2999.1,34.219109889792,-119.18168641778,86
2999.1,34.221072020815,-119.18168441411,93
2999.1,34.220983908123,-119.17775635774,105
2999.1,34.226732627313,-119.17777790278,125
2999.1,34.227706652504,-119.17680572697,130
2999.1,34.229943716975,-119.17509366361,140
2999.1,34.232475087642,-119.17731299325,151
2999.1,34.233793408917,-119.17992890439,160
2999.1,34.233933430435,-119.17937833177,162
2999.1,34.233854024738,-119.18019445633,165
2999.1,34.247040997998,-119.19513339643,241
2999.1,34.253655755985,-119.19761756276,267
2999.1,34.254728782081,-119.19804334125,271
2999.1,34.253870261613,-119.2036968669,289
2999.1,34.253262166603,-119.20736160761,300
2999.1,34.253262166603,-119.20736160761,301
2999.1,34.256333577262,-119.20800507667,311
2999.1,34.255918715464,-119.21047132509,319
2999.1,34.255962446474,-119.21049512641,320
2999.1,34.258836670635,-119.21106967637,330
2999.1,34.261239353484,-119.21153150653,338
2999.1,34.265570859117,-119.21229941365,354
2999.1,34.278176496529,-119.21474030266,401
2999.1,34.278176496529,-119.21474030266,402
2999.1,34.277705283183,-119.21787836312,411
2999.1,34.277092959976,-119.22219283412,424
2999.1,34.276376373743,-119.22647591787,437
2999.1,34.275792509936,-119.23039343663,449
2999.1,34.275192929385,-119.2339531521,460
2999.1,34.274802548036,-119.23666185393,468
2999.1,34.274456979454,-119.23901368202,475
2999.1,34.273746267673,-119.24373685183,490
2999.1,34.273129009998,-119.2476403942,502
2999.1,34.273129009998,-119.2476403942,503
2999.1,34.276775949502,-119.24841659807,515
2999.1,34.276775949502,-119.24841659807,516
2999.1,34.276344622626,-119.25133322986,524
2999.1,34.275654517891,-119.25587795859,538
2999.1,34.275398432915,-119.25751604654,543
2999.1,34.274806977026,-119.26127430577,555
2999.1,34.274863712172,-119.26136785314,556
2999.1,34.275761342563,-119.26330806667,562
2999.1,34.276651390644,-119.26518199902,569
2999.1,34.277876063358,-119.26895133213,595
2999.1,34.278402538773,-119.27115750613,602
2999.1,34.278789613135,-119.27276568946,607
2999.1,34.279597289207,-119.27618455768,617
2999.1,34.280332096774,-119.27920841783,627
2999.1,34.280894652334,-119.28240183618,655
2999.1,34.280848413013,-119.28546673672,664
2999.1,34.280801884772,-119.28855149417,674
2999.1,34.28076123223,-119.29159330262,683
2999.1,34.280739450463,-119.29311914951,688
2999.1,34.280719937011,-119.29468806883,692
2999.1,34.280741316467,-119.29756861929,701
2999.1,34.281079610813,-119.30061633194,710
2999.1,34.281079610813,-119.30061633194,711
2999.1,34.284585156344,-119.29968768844,723
2999.1,34.287622815676,-119.29882452226,735
2999.1,34.289701417829,-119.29821455894,743
2999.1,34.291922822813,-119.29761340862,751
2999.1,34.292677979964,-119.29740993545,754
2999.1,34.294419555348,-119.2969635289,760
2999.1,34.296006977977,-119.29654119745,766
2999.1,34.29794198269,-119.29599511081,773
2999.1,34.301159272988,-119.29503511927,785
2999.1,34.303386050636,-119.29444381982,794
2999.1,34.305029053493,-119.29396264938,800
2999.1,34.306013495659,-119.29364676184,804
3000.1,34.306013495659,-119.29364676184,0
3000.1,34.303386050636,-119.29444381982,9
3000.1,34.301159272988,-119.29503511927,18
3000.1,34.299108092957,-119.29565229392,25
3000.1,34.296880671308,-119.29630312314,34
3000.1,34.294419555348,-119.2969635289,43
3000.1,34.292677979964,-119.29740993545,49
3000.1,34.289701417829,-119.29821455894,60
3000.1,34.287622815676,-119.29882452226,68
3000.1,34.284585156344,-119.29968768844,80
3000.1,34.283275872997,-119.30005464409,84
3000.1,34.281079610813,-119.30061633194,93
3000.1,34.280741316467,-119.29756861929,106
3000.1,34.280719937011,-119.29468806883,115
3000.1,34.28076123223,-119.29159330262,124
3000.1,34.280801884772,-119.28855149417,133
3000.1,34.280848413013,-119.28546673672,142
3000.1,34.280894652334,-119.28240183618,152
3000.1,34.280721811834,-119.28081671787,157
3000.1,34.279918644371,-119.27750376354,167
3000.1,34.279523564411,-119.27587886039,172
3000.1,34.279031606061,-119.27379564177,179
3000.1,34.278402538773,-119.27115750613,187
3000.1,34.277876063358,-119.26895133213,194
3000.1,34.276651390644,-119.26518199902,206
3000.1,34.275761342563,-119.26330806667,213
3000.1,34.274806977026,-119.26127430577,220
3000.1,34.274806977026,-119.26127430577,221
3000.1,34.275398432915,-119.25751604654,231
3000.1,34.275654517891,-119.25587795859,236
3000.1,34.276344622626,-119.25133322986,250
3000.1,34.276775949502,-119.24841659807,259
3000.1,34.273129009998,-119.2476403942,273
3000.1,34.273129009998,-119.2476403942,274
3000.1,34.273858496028,-119.24297715539,287
3000.1,34.274471632199,-119.23892452086,300
3000.1,34.274802548036,-119.23666185393,306
3000.1,34.275192929385,-119.2339531521,315
3000.1,34.275792509936,-119.23039343663,326
3000.1,34.276085767286,-119.22830559843,332
3000.1,34.276376373743,-119.22647591787,338
3000.1,34.276768546232,-119.22438288297,344
3000.1,34.277092959976,-119.22219283412,351
3000.1,34.277705283183,-119.21787836312,364
3000.1,34.278176496529,-119.21474030266,374
3000.1,34.265570859117,-119.21229941365,437
3000.1,34.261239353484,-119.21153150653,453
3000.1,34.258836670635,-119.21106967637,462
3000.1,34.255962446474,-119.21049512641,473
3000.1,34.256333577262,-119.20800507667,480
3000.1,34.253262166603,-119.20736160761,492
3000.1,34.253870261613,-119.2036968669,503
3000.1,34.254728782081,-119.19804334125,520
3000.1,34.253655755985,-119.19761756276,524
3000.1,34.250847903374,-119.19671683688,535
3000.1,34.247040997998,-119.19513339643,550
3000.1,34.236132599561,-119.18071306074,609
3000.1,34.236031591045,-119.18148919458,611
3000.1,34.236031591045,-119.18148919458,612
3000.1,34.233854024738,-119.18019445633,620
3000.1,34.233919692055,-119.17937813768,622
3000.1,34.233919692055,-119.17937813768,623
3000.1,34.232475087642,-119.17731299325,630
3000.1,34.229943716975,-119.17509366361,642
3000.1,34.229943716975,-119.17509366361,643
3000.1,34.226732627313,-119.17777790278,656
3000.1,34.226732627313,-119.17777790278,657
3000.1,34.220983908123,-119.17775635774,677
3000.1,34.220983908123,-119.17775635774,678
3000.1,34.221072020815,-119.18168441411,689
3000.1,34.221072020815,-119.18168441411,690
3000.1,34.219109889792,-119.18168641778,696
3000.1,34.216103674371,-119.18167033731,707
3000.1,34.214259531858,-119.18169055049,714
3000.1,34.212038990098,-119.18170212825,722
3000.1,34.21016491388,-119.18169214637,728
3000.1,34.208251950254,-119.18172461444,735
3000.1,34.205209788911,-119.18173117893,747
3000.1,34.203222573437,-119.1817692084,754
3000.1,34.200586971169,-119.18179144603,763
3000.1,34.199188242842,-119.18178818988,768
3000.1,34.199173358642,-119.18049812588,772
3000.1,34.19914947232,-119.17730953703,782
3088.1,34.19914947232,-119.17730953703,0
3088.1,34.199173358642,-119.18049812588,9
3088.1,34.200572022461,-119.18050797426,14
3088.1,34.200839526238,-119.17448240011,32
3088.1,34.200759877733,-119.16994025311,46
3088.1,34.200704388611,-119.16486927495,62
3088.1,34.200657025089,-119.15978849724,77
3088.1,34.198384216141,-119.1598065441,85
3088.1,34.198370619874,-119.15634694487,96
3088.1,34.199062146846,-119.14895147253,118
3088.1,34.201748017848,-119.14884289805,128
3088.1,34.202174716882,-119.14237945112,148
3088.1,34.206613763051,-119.14227810411,164
3088.1,34.211530938095,-119.14217997846,182
3088.1,34.218693817107,-119.14202324044,208
3088.1,34.218722796442,-119.14477264822,216
3088.1,34.218752534755,-119.1491728008,229
3088.1,34.21877469389,-119.15377464701,243
3088.1,34.218815507164,-119.15813195855,257
3088.1,34.218815507164,-119.15813195855,258
3088.1,34.218900909084,-119.16526538575,278
3088.1,34.218995310641,-119.17256105659,300
3088.1,34.219109889792,-119.18168641778,328
3088.1,34.21924176084,-119.18702426954,344
3088.1,34.219227355319,-119.19100703366,356
3088.1,34.219341016284,-119.20229927265,390
3088.1,34.219419410269,-119.21426259558,426
3088.1,34.219383120485,-119.22250593145,451
3088.1,34.19792816312,-119.22203974183,529
3088.1,34.197936728851,-119.21873919892,539
3088.1,34.197830823852,-119.20875298731,569
3088.1,34.197986248823,-119.19532438288,610
3088.1,34.197966553879,-119.19230786758,619
3088.1,34.197920669518,-119.18859314791,630
3088.1,34.197889848438,-119.18557317374,640
3088.1,34.197847183399,-119.18178905713,651
3088.1,34.199188242842,-119.18178818988,656
3088.1,34.199173358642,-119.18049812588,660
3088.1,34.19914947232,-119.17730953703,669
3128.1,34.161807759234,-119.15951370348,0
3128.1,34.166397465321,-119.15946499647,16
3128.1,34.1674956822,-119.15956950088,20
3128.1,34.171426949184,-119.15969349652,35
3128.1,34.172952546675,-119.15964854877,40
3128.1,34.179116168083,-119.15967459511,63
3128.1,34.186294212864,-119.15994620526,89
3128.1,34.186340335747,-119.16543944251,105
3128.1,34.190071550438,-119.16522033496,119
3128.1,34.190044512211,-119.16260416167,127
3128.1,34.190006648641,-119.1599646919,135
3128.1,34.197207764189,-119.15983650802,161
3128.1,34.200657025089,-119.15978849724,174
3128.1,34.202281222467,-119.15977797906,179
3128.1,34.205128994547,-119.15969514951,190
3128.1,34.206610692859,-119.15964295883,195
3128.1,34.21477075928,-119.15924024851,225
3128.1,34.216871977143,-119.15820093376,238
3128.1,34.218815507164,-119.15813195855,245
3128.1,34.222173967237,-119.15809583836,257
3128.1,34.22774397011,-119.15783895037,278
3128.1,34.226508298206,-119.16146766057,290
3128.1,34.227475615934,-119.16518325165,301
3128.1,34.232297205902,-119.17157332725,327
3128.1,34.234350332101,-119.17352449951,337
3128.1,34.237557730215,-119.17715967485,353
3128.1,34.240885505377,-119.17405977602,368
3128.1,34.243378592953,-119.17172886106,380
3128.1,34.245573030964,-119.17667375706,397
3128.1,34.239247861905,-119.18250753458,426
3128.1,34.236031591045,-119.18148919458,438
3128.1,34.233919692055,-119.17937813768,448
3129.1,34.233919692055,-119.17937813768,0
3129.1,34.232404452616,-119.17722928134,8
3129.1,34.229943716975,-119.17509366361,19
3129.1,34.226732627313,-119.17777790278,33
3129.1,34.233854024738,-119.18019445633,60
3129.1,34.236031591045,-119.18148919458,69
3129.1,34.239473914721,-119.18243463182,82
3129.1,34.245573030964,-119.17667375706,110
3129.1,34.243378592953,-119.17172886106,127
3129.1,34.240885505377,-119.17405977602,139
3129.1,34.237557730215,-119.17715967485,154
3129.1,34.234350332101,-119.17352449951,170
3129.1,34.233662466986,-119.17219466686,175
3129.1,34.232297205902,-119.17157332725,180
3129.1,34.229643292674,-119.1700803356,191
3129.1,34.227475615934,-119.16518325165,207
3129.1,34.227693942073,-119.15789780843,229
3129.1,34.222173967237,-119.15809583836,249
3129.1,34.218815507164,-119.15813195855,262
3129.1,34.21477075928,-119.15924024851,277
3129.1,34.206610692859,-119.15964295883,307
3129.1,34.202281222467,-119.15977797906,322
3129.1,34.197207764189,-119.15983650802,341
3129.1,34.190006648641,-119.1599646919,367
3129.1,34.186294212864,-119.15994620526,380
3129.1,34.182303880783,-119.1599635411,395
3129.1,34.172952546675,-119.15964854877,429
3129.1,34.171426949184,-119.15969349652,435
3129.1,34.166397465321,-119.15946499647,453
3129.1,34.162970377221,-119.15949347336,465
3129.1,34.162927664246,-119.15764159172,471
3129.1,34.161807759234,-119.15951370348,481
3176.1,34.273129009998,-119.2476403942,0
3176.1,34.269205506702,-119.24676744245,14
3176.1,34.265120123714,-119.24586898634,29
3176.1,34.262979115704,-119.23570551487,61
3176.1,34.26292390208,-119.23519166834,62
3176.1,34.257958149302,-119.23707418671,81
3176.1,34.257679388325,-119.23476984341,88
3176.1,34.261274209636,-119.23365798317,102
3176.1,34.263712444974,-119.22520084202,129
3176.1,34.264443990051,-119.21997529,145
3176.1,34.265570859117,-119.21229941365,168
3176.1,34.265570859117,-119.21229941365,169
3176.1,34.265916504216,-119.20988815458,176
3176.1,34.266512069085,-119.20638488411,187
3176.1,34.266900242902,-119.20355381746,195
3176.1,34.267236299129,-119.20098346721,203
3176.1,34.268240068468,-119.19396403626,225
3176.1,34.269000782039,-119.18870857114,241
3176.1,34.269635054677,-119.18455679697,254
3176.1,34.270330519094,-119.17946905883,269
3176.1,34.271029563434,-119.17455672785,284
3176.1,34.272182181878,-119.17046167567,297
3176.1,34.273548235855,-119.16815703554,306
3176.1,34.275963679256,-119.16417208201,321
3176.1,34.277139372163,-119.1622187981,328
3176.1,34.279441458418,-119.15828489812,343
3176.1,34.280711899817,-119.15618379004,350
3176.1,34.283591628086,-119.15130406789,369
3176.1,34.283637992488,-119.15134112487,370
3176.1,34.286333525869,-119.15397064955,381
3176.1,34.29222557596,-119.15912459873,408
3176.1,34.292372193721,-119.15873593762,409
3176.1,34.291810067074,-119.15832087921,412
3205.1,34.176082007725,-119.18156712074,0
3205.1,34.177335983169,-119.1817600991,4
3205.1,34.177298468809,-119.17800013491,15
3205.1,34.173156915747,-119.17802439311,31
3205.1,34.173448085499,-119.18141745377,41
3205.1,34.175635765543,-119.18616660429,57
3205.1,34.175603435201,-119.19252763276,77
3205.1,34.175642421034,-119.19525926723,85
3205.1,34.175930113573,-119.20061644951,101
3205.1,34.175679896186,-119.20835643144,124
3205.1,34.175680575028,-119.2126812096,138
3205.1,34.175723461345,-119.22152645784,164
3205.1,34.177534103822,-119.22155954702,171
3205.1,34.181250922493,-119.22168995264,184
3205.1,34.185463088522,-119.22175155938,200
3205.1,34.190523580848,-119.22189502866,218
3205.1,34.19792816312,-119.22203974183,245
3205.1,34.219383120485,-119.22250593145,323
3205.1,34.226506898701,-119.22242828114,349
3205.1,34.251324322387,-119.21098383653,449
3205.1,34.255962446474,-119.21049512641,467
3205.1,34.258836670635,-119.21106967637,477
3205.1,34.261239353484,-119.21153150653,486
3205.1,34.265570859117,-119.21229941365,502
3205.1,34.278176496529,-119.21474030266,549
3205.1,34.277672361893,-119.21814602841,559
3205.1,34.277092959976,-119.22219283412,572
3205.1,34.276376373743,-119.22647591787,585
3205.1,34.275792509936,-119.23039343663,597
3205.1,34.275192929385,-119.2339531521,608
3205.1,34.274802548036,-119.23666185393,616
3205.1,34.274456979454,-119.23901368202,624
3205.1,34.273746267673,-119.24373685183,638
3205.1,34.273129009998,-119.2476403942,650
3206.1,34.273129009998,-119.2476403942,0
3206.1,34.273858496028,-119.24297715539,14
3206.1,34.274456979454,-119.23901368202,26
3206.1,34.274802548036,-119.23666185393,33
3206.1,34.275192929385,-119.2339531521,42
3206.1,34.275792509936,-119.23039343663,53
3206.1,34.276085700131,-119.22831221821,59
3206.1,34.276376373743,-119.22647591787,65
3206.1,34.276657774131,-119.22501023438,69
3206.1,34.277092959976,-119.22219283412,78
3206.1,34.277672361893,-119.21814602841,90
3206.1,34.278176496529,-119.21474030266,101
3206.1,34.265570859117,-119.21229941365,147
3206.1,34.261239353484,-119.21153150653,163
3206.1,34.258836670635,-119.21106967637,172
3206.1,34.255962446474,-119.21049512641,182
3206.1,34.251324322387,-119.21098383653,200
3206.1,34.226506898701,-119.22242828114,300
3206.1,34.219383120485,-119.22250593145,326
3206.1,34.19792816312,-119.22203974183,404
3206.1,34.190523580848,-119.22189502866,431
3206.1,34.181250922493,-119.22168995264,464
3206.1,34.175723461345,-119.22152645784,485
3206.1,34.175679896186,-119.20835643144,524
3206.1,34.175642421034,-119.19525926723,564
3206.1,34.175591680368,-119.19065274361,578
3206.1,34.175635765543,-119.18616660429,592
3206.1,34.173448085499,-119.18141745377,608
3206.1,34.176082007725,-119.18156712074,618
3350.1,34.294885520664,-119.16143628638,0
3350.1,34.283637992488,-119.15134112487,51
3350.1,34.280240156561,-119.14393495816,76
3350.1,34.274525692954,-119.13589868473,108
3350.1,34.258218695322,-119.15335022625,187
3350.1,34.254933048151,-119.15612452876,202
3350.1,34.258218695322,-119.15335022625,217
3350.1,34.250754523466,-119.14268033605,259
3350.1,34.22774397011,-119.15783895037,354
3350.1,34.222173967237,-119.15809583836,375
3350.1,34.218815507164,-119.15813195855,387
3350.1,34.218795892646,-119.15616006819,393
3350.1,34.216916951119,-119.15608443122,400
3350.1,34.217405534215,-119.15815540628,406
3350.1,34.218815507164,-119.15813195855,411
3350.1,34.21877469389,-119.15377464701,424
3350.1,34.218752534755,-119.1491728008,438
3350.1,34.218722796442,-119.14477264822,452
3350.1,34.218693817107,-119.14202324044,460
3350.1,34.224628715827,-119.1403675583,482
3350.1,34.22310447852,-119.14143515359,489
3350.1,34.222889722755,-119.13739285669,501
3350.2,34.294885520664,-119.16143628638,0
3350.2,34.283637992488,-119.15134112487,51
3350.2,34.280240156561,-119.14393495816,76
3350.2,34.274525692954,-119.13589868473,108
3350.2,34.258218695322,-119.15335022625,187
3350.2,34.254933048151,-119.15612452876,202
3350.2,34.258218695322,-119.15335022625,217
3350.2,34.250754523466,-119.14268033605,259
3350.2,34.22774397011,-119.15783895037,354
3350.2,34.222173967237,-119.15809583836,375
3350.2,34.218815507164,-119.15813195855,387
3350.2,34.218795892646,-119.15616006819,393
3350.2,34.216916951119,-119.15608443122,400
3350.2,34.217405534215,-119.15815540628,406
3350.2,34.218815507164,-119.15813195855,411
3350.2,34.21877469389,-119.15377464701,424
3350.2,34.218752534755,-119.1491728008,438
3350.2,34.218722796442,-119.14477264822,452
3350.2,34.218693817107,-119.14202324044,460
3350.2,34.224628715827,-119.1403675583,482
3350.2,34.22310447852,-119.14143515359,489
3350.2,34.222889722755,-119.13739285669,501
3350.2,34.225989561045,-119.13504644946,515
3350.2,34.228831178528,-119.13209753163,528
3350.2,34.230401459838,-119.13432230995,537
3350.2,34.227247589219,-119.13744891739,552
3350.2,34.224628715827,-119.1403675583,565
3350.2,34.218693817107,-119.14202324044,587
3350.2,34.218722796442,-119.14477264822,595
3350.2,34.218752534755,-119.1491728008,609
3350.2,34.21877469389,-119.15377464701,623
3350.2,34.21710862252,-119.15414197118,629
3350.2,34.216916951119,-119.15608443122,635
3350.2,34.217405534215,-119.15815540628,641
3350.2,34.218815507164,-119.15813195855,646
3350.2,34.222173967237,-119.15809583836,659
3350.2,34.22774397011,-119.15783895037,679
3350.2,34.250754523466,-119.14268033605,774
3350.2,34.258218695322,-119.15335022625,816
3350.2,34.254933048151,-119.15612452876,831
3350.2,34.258218695322,-119.15335022625,846
3350.2,34.274525692954,-119.13589868473,925
3350.2,34.280240156561,-119.14393495816,957
3350.2,34.283637992488,-119.15134112487,983
3350.2,34.294885520664,-119.16143628638,1034
3350.3,34.222889722755,-119.13739285669,501
3350.3,34.225989561045,-119.13504644946,515
3350.3,34.228831178528,-119.13209753163,528
3350.3,34.230401459838,-119.13432230995,537
3350.3,34.227247589219,-119.13744891739,552
3350.3,34.224628715827,-119.1403675583,565
3350.3,34.218693817107,-119.14202324044,587
3350.3,34.218722796442,-119.14477264822,595
3350.3,34.218752534755,-119.1491728008,609
3350.3,34.21877469389,-119.15377464701,623
3350.3,34.21710862252,-119.15414197118,629
3350.3,34.216916951119,-119.15608443122,635
3350.3,34.217405534215,-119.15815540628,641
3350.3,34.218815507164,-119.15813195855,646
3350.3,34.222173967237,-119.15809583836,659
3350.3,34.22774397011,-119.15783895037,679
3350.3,34.250754523466,-119.14268033605,774
3350.3,34.258218695322,-119.15335022625,816
3350.3,34.254933048151,-119.15612452876,831
3350.3,34.258218695322,-119.15335022625,846
3350.3,34.274525692954,-119.13589868473,925
3350.3,34.280240156561,-119.14393495816,957
3350.3,34.283637992488,-119.15134112487,983
3350.3,34.294885520664,-119.16143628638,1034
3351.1,34.294885520664,-119.16143628638,0
3351.1,34.283637992488,-119.15134112487,51
3351.1,34.280240156561,-119.14393495816,76
3351.1,34.274525692954,-119.13589868473,108
3351.1,34.258218695322,-119.15335022625,187
3351.1,34.250754523466,-119.14268033605,230
3351.1,34.22774397011,-119.15783895037,325
3351.1,34.222173967237,-119.15809583836,345
3351.1,34.218815507164,-119.15813195855,358
3351.1,34.218795892646,-119.15616006819,364
3351.1,34.216916951119,-119.15608443122,370
3351.1,34.217405534215,-119.15815540628,377
3351.1,34.218815507164,-119.15813195855,382
3351.1,34.21877469389,-119.15377464701,395
3351.1,34.218752534755,-119.1491728008,409
3351.1,34.218722796442,-119.14477264822,422
3351.1,34.218693817107,-119.14202324044,431
3351.1,34.224628715827,-119.1403675583,453
3351.1,34.22310447852,-119.14143515359,459
3351.1,34.222889722755,-119.13739285669,472
3351.2,34.294885520664,-119.16143628638,0
3351.2,34.283637992488,-119.15134112487,51
3351.2,34.280240156561,-119.14393495816,76
3351.2,34.274525692954,-119.13589868473,108
3351.2,34.258218695322,-119.15335022625,187
3351.2,34.250754523466,-119.14268033605,230
3351.2,34.22774397011,-119.15783895037,325
3351.2,34.222173967237,-119.15809583836,345
3351.2,34.218815507164,-119.15813195855,358
3351.2,34.218795892646,-119.15616006819,364
3351.2,34.216916951119,-119.15608443122,370
3351.2,34.217405534215,-119.15815540628,377
3351.2,34.218815507164,-119.15813195855,382
3351.2,34.21877469389,-119.15377464701,395
3351.2,34.218752534755,-119.1491728008,409
3351.2,34.218722796442,-119.14477264822,422
3351.2,34.218693817107,-119.14202324044,431
3351.2,34.224628715827,-119.1403675583,453
3351.2,34.22310447852,-119.14143515359,459
3351.2,34.222889722755,-119.13739285669,472
3351.2,34.225989561045,-119.13504644946,485
3351.2,34.228831178528,-119.13209753163,499
3351.2,34.230401459838,-119.13432230995,508
3351.2,34.227247589219,-119.13744891739,523
3351.2,34.224628715827,-119.1403675583,536
3351.2,34.218693817107,-119.14202324044,558
3351.2,34.218722796442,-119.14477264822,566
3351.2,34.218752534755,-119.1491728008,579
3351.2,34.21877469389,-119.15377464701,593
3351.2,34.21710862252,-119.15414197118,600
3351.2,34.216916951119,-119.15608443122,605
3351.2,34.217405534215,-119.15815540628,612
3351.2,34.218815507164,-119.15813195855,617
3351.2,34.222173967237,-119.15809583836,629
3351.2,34.22774397011,-119.15783895037,650
3351.2,34.250754523466,-119.14268033605,745
3351.2,34.258218695322,-119.15335022625,787
3351.2,34.258218695322,-119.15335022625,788
3351.2,34.274525692954,-119.13589868473,867
3351.2,34.280240156561,-119.14393495816,899
3351.2,34.283637992488,-119.15134112487,924
3351.2,34.294885520664,-119.16143628638,975
3351.3,34.222889722755,-119.13739285669,472
3351.3,34.225989561045,-119.13504644946,485
3351.3,34.228831178528,-119.13209753163,499
3351.3,34.230401459838,-119.13432230995,508
3351.3,34.227247589219,-119.13744891739,523
3351.3,34.224628715827,-119.1403675583,536
3351.3,34.218693817107,-119.14202324044,558
3351.3,34.218722796442,-119.14477264822,566
3351.3,34.218752534755,-119.1491728008,579
3351.3,34.21877469389,-119.15377464701,593
3351.3,34.21710862252,-119.15414197118,600
3351.3,34.216916951119,-119.15608443122,605
3351.3,34.217405534215,-119.15815540628,612
3351.3,34.218815507164,-119.15813195855,617
3351.3,34.222173967237,-119.15809583836,629
3351.3,34.22774397011,-119.15783895037,650
3351.3,34.250754523466,-119.14268033605,745
3351.3,34.258218695322,-119.15335022625,787
3351.3,34.258218695322,-119.15335022625,788
3351.3,34.274525692954,-119.13589868473,867
3351.3,34.280240156561,-119.14393495816,899
3351.3,34.283637992488,-119.15134112487,924
3351.3,34.294885520664,-119.16143628638,975
