stop_id,stop_name,stop_desc,stop_lat,stop_lon
10002,VENTURA AV/SYCAMORE DR,0,34.36487790427,-119.30820387769
10004,VENTURA AV/ARROYO TRAILER PARK,0,34.372902808017,-119.30688482667
10005,VENTURA AV/CASITAS MARKET,0,34.367435539256,-119.30675270232
10006,VENTURA AV/NYE RD,0,34.375118320222,-119.3068333964
10007,CASITAS VISTA RD/33 FRWY,0,34.354001515819,-119.30636980732
10008,VENTURA AV/SULPHUR MOUNTAIN RD,0,34.377609632818,-119.30643495664
10009,CASITAS VISTA RD/VENTURA AV,0,34.3542997618,-119.30572503104
10010,VENTURA AV/RANCHO ARNAZ,0,34.382110595627,-119.30443056408
10011,VENTURA AV/CREEK RD,0,34.385776745626,-119.3023665005
10012,MAIN ST/VENTURA AV,0,34.281079610813,-119.30061633194
10014,VENTURA AV/FIX WY,0,34.283275872997,-119.30005464409
10015,VENTURA AV/LARMIER AV,0,34.392795431208,-119.30159108912
10016,VENTURA AV/PARK ROW AV,0,34.284585156344,-119.29968768844
10017,VENTURA AV/CENTER ST,0,34.287622815676,-119.29882452226
10018,VENTURA AV/RAMONA ST,0,34.289701417829,-119.29821455894
10019,VENTURA AV/SANTA ANA BLVD,0,34.400084659811,-119.29993126021
10020,VENTURA AV/OAK VIEW AV,0,34.39673337955,-119.29980272297
10021,VENTURA AV/OAK DELL PARK,0,34.40290702288,-119.29966696162
10022,MAIN ST/FIGUEROA ST,0,34.280741316467,-119.29756861929
10023,THOMPSON BLVD/FIGUEROA ST,0,34.278254778202,-119.29752332841
10026,VENTURA AV/FIRE STATION,0,34.349979507693,-119.29833155022
10027,VENTURA AV/WARNER ST,0,34.292677979964,-119.29740993545
10028,VENTURA AV/VINCE ST,0,34.294419555348,-119.2969635289
10029,VENTURA AV/FORBES LN,0,34.296006977977,-119.29654119745
10030,VENTURA AV/PLEASANT PL,0,34.296880671308,-119.29630312314
10031,VENTURA AV/COMSTOCK DR,0,34.29794198269,-119.29599511081
10032,vENTURA AV/JAMES DR,0,34.299108092957,-119.29565229392
10033,VENTURA AV/DE ANZA DR,0,34.301159272988,-119.29503511927
10034,MAIN ST/OAK ST,0,34.280719937011,-119.29468806883
10035,THOMPSON BLVD/OAK ST,0,34.278238857549,-119.29464625901
10036,VENTURA AV/BARRY DR,0,34.303386050636,-119.29444381982
10037,VENTURA AV/2400 VENTURA AV,0,34.305029053493,-119.29396264938
10038,VENTURA AV/NORWAY DR & CANADA LARGA RD,0,34.338804295918,-119.29436094259
10039,VENTURA AV/5301 VENTURA AV,0,34.33876311684,-119.29435699041
10040,VENTURA AV/SENECA ST,0,34.306013495659,-119.29364676184
10041,MAIN ST/CALIFORNIA ST,0,34.280739450463,-119.29311914951
10042,VENTURA AV/CANADA LARGA RD,0,34.342789681203,-119.29404181503
10043,VENTURA AV/BARBARA ST,0,34.413195880944,-119.29478075033
10044,VENTURA AV/2759 VENTURA AV,0,34.308459131931,-119.29288988758
10045,VENTURA AV/DAKOTA DR,0,34.309357864514,-119.2926223221
10046,VENTURA AV/VALLEY MEADOW DR&BARBARA ST,0,34.41545674967,-119.2940830683
10047,VENTURA/OAK DELL PARK,0,34.415555982374,-119.29405476636
10048,MAIN ST/CHESTNUT ST,0,34.28076123223,-119.29159330262
10049,VENTURA AV/NORWAY DR,0,34.335164753576,-119.29214452608
10050,VENTURA AV/11195 VENTURA AV,0,34.417525139235,-119.29339562387
10051,VENTURA AV/PIPE YARD,0,34.313598941703,-119.29151895424
10052,VENTURA AV/LOS CABOS LN,0,34.329713917468,-119.29175861749
10053,VENTURA AV/SHELL RD,0,34.317053782655,-119.29121475744
10054,VENTURA AV/HIGHLAND DR&VALLEY MEADOW DR,0,34.418875441658,-119.29278653516
10055,VENTURA AV/MCKEE ST,0,34.326298314427,-119.29070204838
10056,VENTURA AV/3820 VENTURA AV,0,34.321424047817,-119.29062329512
10057,VENTURA AV/ORCHARD DR,0,34.322054631854,-119.29050387729
10058,VENTURA AV/MILL DR,0,34.323053575052,-119.29037359624
10059,VENTURA AV/HIGHLAND DR,0,34.420101017492,-119.29176097517
10060,MAIN ST/ASH ST,0,34.280801884772,-119.28855149417
10061,THOMPSON BLVD/ASH ST,0,34.278293467715,-119.28849620265
10062,VENTURA AV/WOODLAND AV,0,34.422269064799,-119.28997067885
10063,VENTURA AV/VILLANOVA RD,0,34.42601629843,-119.28878507872
10064,VENTURA AV/BALDWIN RD,0,34.430210857204,-119.28843210491
10065,MAIN ST/LAUREL ST,0,34.280848413013,-119.28546673672
10066,MAIN ST/HEMLOCK ST,0,34.280894652334,-119.28240183618
10067,THOMPSON BLVD/SANJON RD,0,34.276623485513,-119.28116429899
10068,MAIN ST/CRIMEA ST,0,34.280721811834,-119.28081671787
10069,MAIN ST/ALISO LA,0,34.280332096774,-119.27920841783
10070,MAIN ST/CHRISMAN AV,0,34.279918644371,-119.27750376354
10072,MAIN ST/ENCINAL WY,0,34.279597289207,-119.27618455768
10073,MAIN ST/MACMILLAN AV,0,34.279523564411,-119.27587886039
10074,THOMPSON BLVD/HURST AV,0,34.275368493172,-119.27483214328
10075,MAIN ST/HURST AV,0,34.279031606061,-119.27379564177
10076,MAIN ST/PACIFIC AV,0,34.278789613135,-119.27276568946
10077,MAIN ST/SANTA CRUZ ST,0,34.278402538773,-119.27115750613
10078,MAIN ST/CATALINA ST,0,34.277876063358,-119.26895133213
10079,THOMPSON BLVD/SEAWARD AV,0,34.273745559223,-119.26633957989
10080,MAIN ST/SEAWARD AV,0,34.276651390644,-119.26518199902
10081,MAIN ST/EVERGREEN AV,0,34.275761342563,-119.26330806667
10083,MAIN ST/KATHERINE DR,0,34.274863712172,-119.26136785314
10084,LOMA VISTA RD/MAIN ST,0,34.274806977026,-119.26127430577
10086,THOMPSON BLVD/BORCHARD DR,0,34.272600550558,-119.26019160234
10087,HWY 33/OJAI  AV,0,34.441316639595,-119.26062529198
10088,HWY 33/OJAI AV,0,34.441363900621,-119.26057293597
10089,LOMA VISTA RD/BRENT ST,0,34.275398432915,-119.25751604654
10091,TELEGRAPH RD/MAIN ST,0,34.271728402344,-119.25685165671
10092,LOMA VISTA RD/DOS CAMINOS AV,0,34.275654517891,-119.25587795859
10094,LOMA VISTA RD/ST PAULS DR,0,34.276344622626,-119.25133322986
10095,LOMA VISTA RD/MILLS RD,0,34.276775949502,-119.24841659807
10096,PACIFIC VIEW MALL/VCTC,0,34.273129009998,-119.2476403942
10097,MILLS RD/MAPLE ST,0,34.269205506702,-119.24676744245
10098,MAIN ST/MILLS RD,0,34.265120123714,-119.24586898634
10099,OJAI AV/BLANCHE ST,0,34.447657382632,-119.24777088266
10100,TELEGRAPH RD/PALOMARES AV,0,34.273746267673,-119.24373685183
10101,TELEGRAPH RD/COLLEGE DR,0,34.273858496028,-119.24297715539
10102,OJAI AV/SIGNAL ST,0,34.447777540415,-119.24543736291
10103,MAIN ST/CALLENS RD,0,34.263525760953,-119.23922209163
10104,TELEGRAPH RD/ASHWOOD AV,0,34.274456979454,-119.23901368202
10105,TELEGRAPH RD/ASHWOOD AV,0,34.274471632199,-119.23892452086
10106,OJAI AV/FOX ST,0,34.448075387656,-119.24104317506
10107,MARKET ST/DONLON ST,0,34.257958149302,-119.23707418671
10108,TELEGRAPH RD/BAYLOR DR,0,34.274802548036,-119.23666185393
10110,DONLON ST/BESSEMER ST,0,34.260591739839,-119.23563706719
10111,MAIN ST/DONLON ST,0,34.26292390208,-119.23519166834
10112,TELEPHONE RD/MARKET ST,0,34.257679388325,-119.23476984341
10113,TELEGRAPH RD/CLAREMONT WY,0,34.275192929385,-119.2339531521
10114,TELEPHONE RD/TELEPONE RD PLAZA,0,34.261274209636,-119.23365798317
10116,TELEGRAPH RD/ESTATES AV,0,34.275792509936,-119.23039343663
10117,TELEGRAPH RD/TOWNHOUSE,0,34.276085700131,-119.22831221821
10118,TELEGRAPH RD/ESTATES AV&DAY RD,0,34.276085767286,-119.22830559843
10119,TELEGRAPH RD/DAY RD,0,34.276376373743,-119.22647591787
10120,TELEPHONE RD/PORTOLA RD,0,34.263712444974,-119.22520084202
10121,TELEGRAPH RD/MOUND SCHOOL PLAZA,0,34.276657774131,-119.22501023438
10122,TELEGRAPH RD/MOUND SCHOOL CTR,0,34.276660722715,-119.22499041524
10123,TELEGRAPH RD/DAY RD&BRYN MAWR ST,0,34.276768546232,-119.22438288297
10124,GONZALES RD/VICTORIA AV,0,34.219383120485,-119.22250593145
10127,VICTORIA AV/5TH ST,0,34.19792816312,-119.22203974183
10128,VICTORIA AV/GUM TREE ST,0,34.226506898701,-119.22242828114
10129,WOOLEY RD/VICTORIA AV,0,34.190523580848,-119.22189502866
10130,VICTORIA AV/HEMLOCK ST,0,34.181250922493,-119.22168995264
10131,VICTORIA AV/LEEWARD WY,0,34.185463088522,-119.22175155938
10133,CHANNEL ISLANDS BLVD/VICTORIA AV,0,34.175723461345,-119.22152645784
10134,TELEGRAPH RD/BRYN MAWR ST,0,34.277092959976,-119.22219283412
10135,TELEPHONE RD/SARATOGA AV,0,34.264443990051,-119.21997529
10136,5TH ST/SOUTHHAMPTON PL,0,34.197936728851,-119.21873919892
10138,TELEGRAPH RD/WAKE FOREST AV,0,34.277672361893,-119.21814602841
10139,TELEGRAPH RD/WAKE FOREST AV,0,34.277705283183,-119.21787836312
10140,HEMLOCK ST/CAPSTAN DR,0,34.181254363786,-119.21616794462
10141,GONZALES RD/3400 GONZALEZ RD,0,34.219395487197,-119.21664410184
10142,WOOLEY RD/OFFSHORE ST,0,34.190477394342,-119.21502243464
10144,GONZALES RD/3400 GONZALES RD,0,34.219419410269,-119.21426259558
10145,TELEGRAPH RD/VICTORIA AV,0,34.278176496529,-119.21474030266
10146,CHANNEL ISLANDS BLVD/WHEELHOUSE AV,0,34.175680575028,-119.2126812096
10147,5TH ST/3151 W 5TH ST MEXICAN CONSULATE,0,34.197873507213,-119.21245114011
10148,TELEPHONE RD/VICTORIA AV,0,34.265570859117,-119.21229941365
10149,VICTORIA AV/RALSTON ST,0,34.261239353484,-119.21153150653
10150,VICTORIA AV/VALENTINE RD,0,34.251324322387,-119.21098383653
10151,VICTORIA AV/AVOCET DR,0,34.258836670635,-119.21106967637
10152,MOON DR/VICTORIA AV,0,34.255962446474,-119.21049512641
10154,TELEPHONE RD/LARK AV,0,34.265916504216,-119.20988815458
10155,WOOLEY RD/PATTERSON RD,0,34.190414838607,-119.20864897114
10156,5TH ST/PATTERSON RD,0,34.197830823852,-119.20875298731
10157,HEMLOCK ST/PATTERSON RD,0,34.181224224487,-119.20848292571
10158,CHANNEL ISLANDS BLVD/PATTERSON RD,0,34.175679896186,-119.20835643144
10159,TELEGRAPH RD/HILL RD,0,34.278988557641,-119.20911104696
10162,GRAND AV/BRISTOL RD,0,34.253262166603,-119.20736160761
10163,TELEPHONE RD/HILL RD,0,34.266512069085,-119.20638488411
10165,NOVATO DR/EL PORTAL WY,0,34.187968228913,-119.20432454149
10166,WOOLEY RD/NOVATO DR,0,34.190350687505,-119.20433574493
10168,HEMLOCK ST/LIDO DR,0,34.181190539324,-119.2038697116
10170,MC LOUGHLIN AV/CAROB ST,0,34.183897287871,-119.20332673923
10171,HILL ST/MC LOUGHLIN AV,0,34.186076484825,-119.2033283718
10172,TELEGRAPH RD/LEMONNAIRE RANCH,0,34.279707972288,-119.20420535246
10173,BRISTOL RD/HILL RD,0,34.253870261613,-119.2036968669
10174,TELEPHONE RD/PARTRIDGE DR,0,34.266900242902,-119.20355381746
10175,GONZALES RD/GALLATIN PL,0,34.219341016284,-119.20229927265
10176,CHANNEL ISLANDS BLVD/UKIAH ST,0,34.175930113573,-119.20061644951
10177,SCOTT ST/PONOMA ST,0,34.148918736504,-119.20013251399
10179,PONOMA ST/CLARA ST,0,34.151427652669,-119.20013879801
10180,PONOMA ST/B ST,0,34.153068469842,-119.20011608695
10181,PONOMA ST/C ST,0,34.153961626037,-119.20011238696
10184,WOOLEY RD/ESCALON DR,0,34.190284611016,-119.20020107637
10185,PORT HUENEME RD/MARKET ST,0,34.14759591668,-119.19940288086
10186,TELEPHONE RD/JOHNSON DR,0,34.267236299129,-119.20098346721
10187,SCOTT ST/2ND ST,0,34.148944710849,-119.19862234864
10190,PLEASANT VALLEY RD/3RD ST,0,34.154670346478,-119.19709136562
10191,WOOLEY RD/PISCO LN,0,34.19025450355,-119.19741617493
10192,TELEGRAPH RD/HOOVER AV,0,34.280476498307,-119.19848257731
10193,JOHNSON DR/BRISTOL RD,0,34.254728782081,-119.19804334125
10194,JOHNSON DR/HUMMINGBIRD ST,0,34.253655755985,-119.19761756276
10195,VENTURA RD/SURFSIDE DR,0,34.143640513041,-119.19561462712
10196,VENTURA RD/SEAVIEW ST,0,34.146471625528,-119.19555266962
10197,PORT HUENEME RD/VENTURA RD,0,34.147669936186,-119.19553676041
10198,VENTURA RD/PLEASANT VALLEY RD,0,34.15467887927,-119.19539573495
10200,JOHNSON DR/CRESCENT ST,0,34.250847903374,-119.19671683688
10201,VENTURA RD/BARD RD,0,34.161016574635,-119.19532772878
10202,VENTURA RD/TEAKWOOD ST,0,34.170470847638,-119.19523156473
10203,VENTURA RD/SPRUCE ST,0,34.172520675173,-119.19525427888
10204,CHANNEL ISLANDS BLVD/VENTURA RD,0,34.175642421034,-119.19525926723
10205,WOOLEY RD/VENTURA RD,0,34.190201149295,-119.19530887204
10206,VENTURA RD/9TH ST,0,34.192734861352,-119.19530875499
10207,VENTURA RD/7TH ST,0,34.195306681399,-119.19534556218
10208,5TH ST/VENTURA RD,0,34.197986248823,-119.19532438288
10209,TELEGRAPH RD/HARDING AV,0,34.280758149293,-119.19640097243
10210,IVYWOOD DR/VENTURA RD,0,34.216262937127,-119.19539085101
10211,GONZALES RD/VENTURA RD,0,34.219256686734,-119.19527823045
10214,VENTURA RD/BEVRA AV,0,34.223234755893,-119.19511352666
10215,VENTURA RD/FUCHSIA ST,0,34.224642543586,-119.1950344284
10216,BARD RD/5TH PL,0,34.161009457644,-119.19410117106
10217,VENTURA RD/CARMEN WY,0,34.225780504113,-119.19500770791
10218,HOLLY AV/VENTURA RD,0,34.226762141372,-119.19494897346
10219,JOHNSON DR/NORTH BANK DR,0,34.247040997998,-119.19513339643
10222,M ST/DORIS AV,0,34.208366289671,-119.19331304569
10223,M ST/DEVONSHIRE DR,0,34.21203443146,-119.19336546598
10224,M ST/GLENWOOD DR,0,34.214771145131,-119.19340127057
10225,SURFSIDE DR/OCEAN VIEW DR,0,34.142340466818,-119.19229756606
10227,TELEPHONE RD/RAMELLI AV,0,34.268240068468,-119.19396403626
10228,CHANNEL ISLANDS BLVD/MANZANITA DR,0,34.175603435201,-119.19252763276
10229,5TH ST/K ST,0,34.197966553879,-119.19230786758
10230,BARD RD/6TH PL,0,34.160982990287,-119.19177019724
10231,TEAKWOOD ST/M ST,0,34.170416907786,-119.19150803125
10234,SURFSIDE DR/INDUSTRIAL AV,0,34.143318567213,-119.19064574497
10235,SURFSIDE RD/PORT HUENEME RD,0,34.147424368615,-119.1906249168
10236,CHANNEL ISLANDS BLVD/LASSEN ST,0,34.175591680368,-119.19065274361
10237,GONZALES RD/LANTANA ST,0,34.219227355319,-119.19100703366
10238,TELEGRAPH RD/CROCKER&KIMBALL RD,0,34.281380761547,-119.19178502024
10239,LANTANA ST/BLUEBELL ST,0,34.221651974503,-119.19092252459
10240,LANTANA ST/FUCHSIA ST,0,34.224582588538,-119.19080221946
10241,HOLLY AV/LANTANA ST,0,34.22672135194,-119.19072354735
10242,J ST/HILL ST,0,34.186424343029,-119.19011272618
10243,J ST/WOOLEY RD,0,34.190150577463,-119.19012613637
10244,HOBSON WY/WOOLEY RD,0,34.190274255265,-119.19012459166
10248,HOBSON WY/9TH ST&7TH ST,0,34.194329789462,-119.18962678343
10249,TELEGRAPH RD/CROCKER AV,0,34.281511331164,-119.19080364187
10250,BARD RD/PARK AV,0,34.160936755241,-119.18892985
10251,PORT HUENEME RD/ANN AV,0,34.147412644538,-119.18818545966
10252,J ST/FIR AV,0,34.182879697761,-119.18868003432
10253,HOBSON WY/7TH ST,0,34.195632298289,-119.18879539097
10254,DORIS AV/H ST,0,34.208305834429,-119.18884681123
10255,5TH ST/HOBSON WY,0,34.197920669518,-119.18859314791
10256,TEAKWOOD ST/K ST,0,34.17036413971,-119.1879332989
10257,TELEPHONE RD/KIMBALL RD,0,34.269000782039,-119.18870857114
10258,J ST/G ST,0,34.181710766877,-119.18738373548
10260,PORT HUENEME RD/J ST,0,34.147403213338,-119.18634759548
10261,TELEGRAPH RD/MARA AV,0,34.281926928999,-119.18822068446
10262,BARD RD/J ST,0,34.160891871696,-119.18622506397
10263,GONZALES RD/H ST,0,34.21924176084,-119.18702426954
10265,TEAKWOOD ST/J ST,0,34.170337634982,-119.18615419871
10266,CHANNEL ISLANDS BLVD/J ST,0,34.175635765543,-119.18616660429
10267,KAMALA ST/J ST,0,34.178716199486,-119.18618058614
10269,5TH ST/F ST,0,34.197882894562,-119.18572190204
10270,F ST/2ND ST,0,34.201875783747,-119.18572567447
10271,4TH ST/F ST,0,34.199227187903,-119.18567153405
10273,5TH ST/F ST,0,34.197889848438,-119.18557317374
10275,F ST/BEVERLY DR,0,34.206352944312,-119.18566686373
10276,DORIS AV/F ST,0,34.208271274695,-119.1856477936
10277,PORT HUENEME RD/PERKINS RD,0,34.147385418413,-119.18423858158
10279,PERKINS RD/CLARA ST,0,34.151062161149,-119.18425432761
10280,PERKINS RD/PLEASANT VALLEY RD,0,34.154601714702,-119.18424829738
10282,TELEGRAPH RD/SAN MATEO AV,0,34.282355095406,-119.18490954537
10283,TELEPHONE RD/STERLING AV,0,34.269635054677,-119.18455679697
10284,5TH ST/D ST,0,34.197858918053,-119.18311874363
10285,4TH ST/D ST,0,34.199202757523,-119.1831146298
10287,KAMALA ST/C ST,0,34.178583718388,-119.18174799187
10288,C ST/HEMLOCK ST,0,34.180977298754,-119.18174548111
10289,C ST/FIR AV,0,34.182719486324,-119.18175359483
10290,C ST/ELM ST,0,34.18356861487,-119.18175568772
10291,C ST/HILL ST,0,34.186723010628,-119.18179370242
10294,C ST/WOOLEY RD,0,34.190070228319,-119.18178484397
10295,C ST/9TH ST,0,34.192680616797,-119.18181185807
10296,C ST/MAYWOOD WY,0,34.176082007725,-119.18156712074
10297,C ST/8TH ST,0,34.193914484563,-119.1818127816
10298,C ST/7TH ST,0,34.19522525494,-119.18181810051
10300,C ST/5TH ST,0,34.197835772709,-119.18183189009
10302,C ST/6TH ST,0,34.196530691509,-119.18180680804
10303,C ST/5TH ST,0,34.197253362445,-119.18181372687
10304,C ST/5TH ST,0,34.197847183399,-119.18178905713
10306,C ST/5TH ST,0,34.197861115612,-119.18176941069
10307,4TH ST/C ST,0,34.199188242842,-119.18178818988
10308,CHANNEL ISLANDS BLVD/C ST,0,34.173448085499,-119.18141745377
10309,C ST/3RD ST,0,34.200586971169,-119.18179144603
10310,C ST/TEAKWOOD ST,0,34.170310628204,-119.1813334124
10311,C ST/1ST ST,0,34.203222573437,-119.1817692084
10313,TELEGRAPH RD/PETIT AV,0,34.282655585088,-119.18284467134
10314,C ST/PALM DR,0,34.205209788911,-119.18173117893
10315,PLEASANT VALLEY RD/C ST,0,34.154581611201,-119.18096559927
10316,DORIS AV/C ST,0,34.208251950254,-119.18172461444
10317,C ST/RODERICK AV,0,34.21016491388,-119.18169214637
10318,C ST/ROBERT AV,0,34.211178806144,-119.18170649433
10319,C ST/DEVONSHIRE DR,0,34.212038990098,-119.18170212825
10320,BARD RD/C ST,0,34.160797755033,-119.18096089681
10321,C ST/GLENWOOD DR,0,34.214259531858,-119.18169055049
10322,C ST/IVYWOOD DR,0,34.216103674371,-119.18167033731
10323,GONZALES RD/C ST,0,34.219109889792,-119.18168641778
10324,C ST/CITRUS GROVE LN,0,34.221072020815,-119.18168441411
10325,UNDERPASS ST/SPUR DR,0,34.236031591045,-119.18148919458
10326,4TH ST/B ST,0,34.199173358642,-119.18049812588
10327,3RD ST/B ST,0,34.200572022461,-119.18050797426
10331,3RD ST/A ST,0,34.200557253551,-119.17920466146
10332,TELEGRAPH RD/CAMBRIA AV,0,34.28371581303,-119.18036345924
10333,ESPLANADE DR/WAGON WHEEL RD,0,34.233919692055,-119.17937813768
10334,ESPLANADE DR/WAGON WHEEL RD,0,34.233933430435,-119.17937833177
10335,PLEASANT VALLEY RD/SAVIERS RD,0,34.154557425823,-119.17809273458
10337,SAVIERS RD/FASHION PARK PL,0,34.15836951442,-119.17803739444
10338,BARD RD/SAVIERS RD,0,34.160738687056,-119.17800137593
10340,SAVIERS RD/BORREGO AV,0,34.163605189081,-119.17797236708
10341,TELEPHONE RD/MONTGOMERY AV,0,34.270330519094,-119.17946905883
10342,SAVIERS RD/YUCCA ST,0,34.1656167776,-119.17797097484
10343,SAVIERS RD/YUCCA ST&THOMAS AV,0,34.167705204494,-119.17798058412
10345,SAVIERS RD/BRYCE CANYON AV,0,34.169466496988,-119.17800211199
10346,CHANNEL ISLANDS BLVD/SAVIERS RD,0,34.173156915747,-119.17802439311
10347,LAUREL ST/SAVIERS RD,0,34.177298468809,-119.17800013491
10348,SAVIERS RD/GUAVA ST,0,34.180958760049,-119.17801207338
10349,SAVIERS RD/ELM ST,0,34.182761589966,-119.17800112446
10350,SAVIERS RD/ASH ST,0,34.186067205697,-119.17803120932
10353,CITRUS GROVE LN/OXNARD BLVD,0,34.220983908123,-119.17775635774
10354,OXNARD BLVD/VINEYARD AV,0,34.226732627313,-119.17777790278
10355,OXNARD TRANS CTR,0,34.19914947232,-119.17730953703
10356,LAUREL ST/SAN MARINO ST,0,34.177285841541,-119.17675673225
10358,CHANNEL ISLANDS BLVD/SAN MARINO ST,0,34.173135292349,-119.17657593576
10359,ESPLANADE DR/ESPLANADE CTR,0,34.232475087642,-119.17731299325
10362,5TH ST/META ST,0,34.197854119465,-119.17656698644
10363,VINEYARD AV/SAINT MARYS DR,0,34.227706652504,-119.17680572697
10364,OXNARD AV/CLYDE RIVER DR,0,34.245573030964,-119.17667375706
10366,5TH ST/OLD AMTRAK,0,34.197831756373,-119.17547527518
10367,VINEYARD AV/ESPLANADE DR,0,34.229943716975,-119.17509366361
10368,3RD ST/BONITA AV,0,34.200839526238,-119.17448240011
10369,3RD ST/GARFIELD AV,0,34.200804063276,-119.17445544236
10370,GARFIELD AV/2ND ST,0,34.201719296827,-119.17444185407
10371,GARFIELD AV/1ST ST,0,34.203126461024,-119.17442526109
10372,GARFIELD AV/COOPER RD,0,34.20475075598,-119.17440510601
10374,ASH ST/OXNARD BLVD,0,34.186605296801,-119.1738457546
10375,PLEASANT VALLEY RD/CLOYNE ST,0,34.154526772695,-119.1733323144
10376,TELEGRAPH RD/LONG CANYON RD,0,34.286976046116,-119.17488717898
10377,TELEPHONE RD/CLINTON AV,0,34.271029563434,-119.17455672785
10378,CHANNEL ISLANDS BLVD/CLOYNE ST,0,34.173064570652,-119.17310665165
10379,RIVER PARK BLVD/AMERICAN RIVER,0,34.240885505377,-119.17405977602
10380,1ST ST/ROOSEVELT AV,0,34.20311503724,-119.17333694293
10381,MYRTLE ST/COLONIA AV,0,34.234350332101,-119.17352449951
10383,GISLER AV/LAUREL ST,0,34.177248694206,-119.1726595225
10384,GISLER AV/IRIS ST,0,34.17947734955,-119.17266104925
10385,5TH ST/MOUNTAIN VIEW AV,0,34.197318472638,-119.17286525288
10386,GISLER AV/GUAVA ST,0,34.180925256579,-119.17241023472
10387,GISLER AV/ELM ST,0,34.182711928581,-119.17208149866
10389,GONZALES RD/ENTRADA DR,0,34.218995310641,-119.17256105659
10390,TELEGRAPH RD/LA JOLLA ST&LONG CANYON DR,0,34.287866645557,-119.17344626693
10391,COLONIA RD/MC KINLEY AV,0,34.206684501734,-119.17222943213
10393,PLEASANT VALLEY RD/SQUIRES DR,0,34.15450338889,-119.17092554934
10394,OXNARD BLVD/DATE ST,0,34.18440902762,-119.17107030605
10395,VENTURA BLVD/FINANCIAL SQ,0,34.232297205902,-119.17157332725
10396,FOREST PARK BLVD/RIVER PARK BLVD,0,34.243378592953,-119.17172886106
10398,BARD RD/SAN JUAN AV,0,34.161756915666,-119.17049496237
10399,1ST ST/BONITA AV,0,34.203090341042,-119.17106436541
10400,VINEYARD AV/OLIVE ST,0,34.23470877744,-119.17141526578
10401,TELEGRAPH RD/LA JOLLA ST,0,34.288752693605,-119.17190593451
10402,3RD ST/WILSON AV,0,34.200759877733,-119.16994025311
10405,TELEPHONE RD/PETIT AV,0,34.272182181878,-119.17046167567
10406,1ST ST/JUANITA AV,0,34.202558016025,-119.16899305444
10407,COLONIA RD/JUANITA AV,0,34.206675094554,-119.16894153636
10408,CHANNEL ISLANDS BLVD/ALBANY DR,0,34.173005187645,-119.16788520744
10409,VINEYARD AV/COLLINS ST,0,34.239102152619,-119.16808199279
10410,TELEPHONE RD/UTICA AV,0,34.273548235855,-119.16815703554
10411,TELEGRAPH RD/SATICOY AV,0,34.290898413984,-119.16826092404
10413,1ST ST/MARQUITA ST,0,34.202547523382,-119.16694890661
10414,COLONIA RD/MARQUITA ST,0,34.206677892844,-119.16694378001
10415,CHANNEL ISLANDS BLVD/STATHAM BLVD,0,34.172978611118,-119.16608291661
10416,BARD RD/TERRACE AV,0,34.162037184111,-119.16566244265
10417,PLEASANT VALLEY RD/TERRACE AV,0,34.155051045837,-119.16543937449
10418,CHANNEL ISLANDS BLVD/CONCORD DR,0,34.172979489334,-119.16542167417
10419,WESTAR DR/PACIFIC AV,0,34.186340335747,-119.16543944251
10420,PACIFIC AV/VOYAGER PL,0,34.187186748766,-119.16543802492
10421,PACIFIC AV/TITAN PL,0,34.189078363555,-119.16533875603
10425,GONZALES RD/SNOW AV,0,34.218900909084,-119.16526538575
10426,3RD ST/CAMPTON ST,0,34.20068748855,-119.16491203504
10427,3RD ST/CAMPTON DR,0,34.200704388611,-119.16486927495
10428,VENTURA BLVD/ALVARADO ST,0,34.227475615934,-119.16518325165
10432,TELEPHONE RD/GARDNER AV,0,34.275592667225,-119.16474621484
10433,BARD RD/ANCHORAGE ST,0,34.161944242926,-119.16304292365
10434,VINEYARD AV/SIMON WY,0,34.24432974498,-119.16400553629
10435,1ST ST/CARMELITA CT,0,34.20252968556,-119.16337992622
10436,TELEPHONE RD/RUBICON AV,0,34.275963679256,-119.16417208201
10437,WOOLEY RD/TELSTAR DR,0,34.190044512211,-119.16260416167
10439,CAMINO DEL SOL/MULTI SERVICE CTR,0,34.20700711164,-119.16243347884
10442,TELEPHONE/CACHUMA,0,34.277139372163,-119.1622187981
10443,VENTURA BLVD/ROYAL DUKE,0,34.226516191988,-119.1615041627
10444,VENTURA BLVD/ROYAL DUKE MHP,0,34.226508298206,-119.16146766057
10445,TELEGRAPH RD/10883 TELEGRAPH RD,0,34.294703968404,-119.16174169062
10446,ROSE AV/EMERSON AV,0,34.182303880783,-119.1599635411
10447,WESTAR DR/ROSE AV,0,34.186294212864,-119.15994620526
10448,TELEGRAPH RD/WELLS RD,0,34.294885520664,-119.16143628638
10449,PLEASANT VALLEY RD/ROSE AV,0,34.157757011069,-119.15952691081
10450,ROSE AV/WOOLEY RD,0,34.190006648641,-119.1599646919
10451,ROSE AV/RAIDERS WY,0,34.171426949184,-119.15969349652
10452,ROSE AV/BILLINGS ST,0,34.159917227546,-119.15950069115
10453,ROSE AV/BARD RD,0,34.161807759234,-119.15951370348
10454,CHANNEL ISLANDS BLVD/ROSE AV,0,34.172952546675,-119.15964854877
10456,ROSE AV/CAMPUS DR,0,34.162970377221,-119.15949347336
10458,ROSE AV/IVES AV,0,34.179116168083,-119.15967459511
10459,ROSE AV/IVES ST,0,34.178819481819,-119.15966386342
10461,ROSE AV/N CAMPUS DR,0,34.166397465321,-119.15946499647
10466,ROSE AV/SANTA LUCIA AV,0,34.202281222467,-119.15977797906
10467,ROSE AV/1ST ST,0,34.202512059498,-119.15977787736
10468,SAN GORGONIO AV/ROSE AV,0,34.205128994547,-119.15969514951
10469,CAMINO DEL SOL/ROSE AV,0,34.206610692859,-119.15964295883
10472,WALNUT DR/BALBOA ST,0,34.236567363796,-119.15962234219
10473,ALVARADO ST/COLLINS ST,0,34.233168512485,-119.1595718211
10474,TELEPHONE RD/SCANDIA AV,0,34.278310838529,-119.16012967255
10475,ROSE AV/SOCORRO WY,0,34.21477075928,-119.15924024851
10476,WELLS RD/200 S WELLS RD,0,34.293561001631,-119.16028546648
10477,SIMON WY/CORTEZ ST,0,34.240751795076,-119.1588499244
10480,ROSE AV/SAINT JOHNS HOSP EXIT RDWY,0,34.216871977143,-119.15820093376
10481,ROSE/ST JOHNS RDWAY,0,34.217405534215,-119.15815540628
10482,GONZALES RD/ROSE AV,0,34.218815507164,-119.15813195855
10484,ROSE AV/LOCKWOOD ST,0,34.222173967237,-119.15809583836
10485,IVES AV/CHURCHILL DR,0,34.178876104971,-119.15748235673
10486,ROSE AV/VENTURA BL,0,34.227693942073,-119.15789780843
10487,ROSE AV/VIA DEL NORTE,0,34.22774397011,-119.15783895037
10489,AUTO CENTER DR/ROSE AV,0,34.228122428202,-119.15763245795
10490,TELEPHONE RD/SATICOY AV,0,34.279441458418,-119.15828489812
10491,WALNUT DR/ALVARADO ST,0,34.235173678943,-119.15765744691
10492,FRONTAGE RD/WELLS CTR,0,34.291810067074,-119.15832087921
10494,IVES ST/ALEXANDER DR,0,34.178898478235,-119.15657999102
10497,BALBOA ST/SALEM AV,0,34.238730704536,-119.15726007801
10499,BARD RD/SIMPSON DR,0,34.161707145216,-119.15595854595
10500,EASTMAN AV/1925 EASTMAN AV,0,34.198370619874,-119.15634694487
10501,SANTA LUCIA AV/DRISKILL ST,0,34.202259761643,-119.15627842037
10502,SAN GORGONIO AV/DRISKILL ST,0,34.205085012531,-119.15625138794
10505,SAN MATEO PL/BEAUFORT DR,0,34.177314397727,-119.15555620769
10506,SAINT JOHNS HOSPITAL/MAIN ENTRANCE,0,34.216916951119,-119.15608443122
10507,ROSE AV/1600 ROSE AV ST JOHNS HOSP,0,34.216930689537,-119.15608462144
10509,VINEYARD AV/4353 E VINEYARD AV,0,34.254933048151,-119.15612452876
10511,SAN MATEO PL/CARNEGIE CT,0,34.17732620778,-119.15460742235
10513,VENTURA BLVD/GUITAR CENTER,0,34.225606580657,-119.15461343903
10514,GIBRALTAR ST/SANTA LUCIA AV,0,34.202260171112,-119.15422120539
10515,SAN GORGONIO AV/GIBRALTAR ST,0,34.205068966986,-119.15419056841
10518,GONZALES RD/WILLIAMS DR,0,34.21877469389,-119.15377464701
10519,CHANNEL ISLANDS BLVD/EDEN ST,0,34.172932317084,-119.15256624195
10521,SAN MATEO PL/FARRAGUT CT,0,34.177384188797,-119.15227387486
10522,VINEYARD AV/CENTRAL AV,0,34.258218695322,-119.15335022625
10523,BARD RD/PLEASANT VALLEY RD,0,34.161599270402,-119.15171238232
10524,OLDS RD/3690 OLDS RD,0,34.166252642287,-119.15161453449
10525,OLDS RD/3491 OLDS RD,0,34.167728872794,-119.15155884342
10528,AUTO CENTER DR,0,34.227809834707,-119.15208979385
10530,SAN MATEO PL/KEPLER DR,0,34.177421582726,-119.15036657255
10531,TELEPHONE RD/WELLS RD,0,34.283637992488,-119.15134112487
10532,TELEPHONE RD/WELLS RD,0,34.283591628086,-119.15130406789
10533,PASEO MERCADO/VENTURA BLVD,0,34.223940803057,-119.15004481719
10534,DARLING RD/JONQUILL AV,0,34.288238096823,-119.15077555038
10535,CHANNEL ISLANDS BLVD/EL DORADO AV,0,34.172933399019,-119.14869792571
10537,EL DORADO AV/MARIN WY,0,34.17684704512,-119.14865254793
10538,LOMBARD ST/EASTMAN AV,0,34.199062146846,-119.14895147253
10539,SAN MATEO PL/EL DORADO AV,0,34.177426900965,-119.14865060168
10540,GONZALES RD/LOMBARD ST,0,34.218752534755,-119.1491728008
10541,STURGIS RD/LOMBARD ST,0,34.201748017848,-119.14884289805
10542,AUTO CENTER DR/PASEO MERCADO,0,34.226991432462,-119.14885611234
10543,BUTLER RD/SILVERADO TOWNHOMES,0,34.166871358231,-119.14781452112
10544,VIOLETA ST/LOS ANGELES AV,0,34.283929337885,-119.14902105913
10545,BUTLER RD/2250 BUTLER RD,0,34.166606508379,-119.1473447345
10546,DARLING RD/POINSETTIA GARDENS DR,0,34.289377476544,-119.1488610238
10547,PLEASANT VALLEY RD/OCEANAIRE MHP,0,34.16431423037,-119.14622891336
10549,BUTLER RD/PLEASANT VALLEY RD,0,34.164698087032,-119.14545067212
10550,NARDO ST/LOS ANGELES AV,0,34.282483683525,-119.14701147557
10552,VIOLETA ST/AMAPOLA AV,0,34.285971937137,-119.14690713903
10553,GONZALES RD/SOLAR DR,0,34.218722796442,-119.14477264822
10554,VIOLETA ST/CAMPANULA AV,0,34.28773601921,-119.14460057775
10555,LOS ANGELES AV/COUNTY DR,0,34.280240156561,-119.14393495816
10556,STURGIS RD/RICE AV,0,34.202174716882,-119.14237945112
10557,RICE AV/CAMINO DEL SOL,0,34.206613763051,-119.14227810411
10558,RICE AV/LATIGO AV,0,34.211530938095,-119.14217997846
10559,CENTRAL AV/ROSE AV,0,34.250754523466,-119.14268033605
10562,SANTA CLARA AV/AUTO CENTER DR,0,34.224628715827,-119.1403675583
10563,NYELAND AV/VENTURA BLVD,0,34.222889722755,-119.13739285669
10566,NYELAND AV/EUCALYPTUS DR,0,34.225989561045,-119.13504644946
10568,FRIEDRICH RD/NYELAND AV,0,34.228831178528,-119.13209753163
