shape_id,shape_pt_lat,shape_pt_lon,shape_pt_sequence
186.1,34.179078540196,-118.31256017346,0
186.1,34.179268628857,-118.31237242466,1
186.1,34.185095577728,-118.31918586202,30
186.1,34.184237007126,-118.32172529029,38
186.1,34.185738188578,-118.32244198529,44
186.1,34.191992992041,-118.32934762578,75
186.1,34.191794988627,-118.33141691046,81
186.1,34.191798654431,-118.33308355931,86
186.1,34.191824030654,-118.33583162406,95
186.1,34.191853618282,-118.338034083,101
186.1,34.191869826607,-118.33911547795,105
186.1,34.1919183187,-118.34238611958,114
186.1,34.191950515994,-118.34459520823,121
186.1,34.195605343735,-118.34454414785,134
186.1,34.195664180692,-118.348942659,148
186.1,34.199327301561,-118.34887528566,161
186.1,34.199291258655,-118.34611700332,169
186.1,34.199268471566,-118.34447327457,174
186.1,34.199207207551,-118.3399025979,188
186.1,34.197849842225,-118.33790953415,196
186.1,34.199652542548,-118.33787714221,203
186.1,34.199247821493,-118.33913882082,207
186.1,34.200974717051,-118.3416328313,217
186.1,34.202868314131,-118.34443189938,227
186.1,34.20656722991,-118.34433801078,241
186.1,34.206747874142,-118.34168290761,249
186.1,34.204907003984,-118.33769334589,263
186.1,34.202749807907,-118.33377214884,277
186.1,34.20066506118,-118.33044342352,290
186.1,34.199039381271,-118.32803272951,299
186.1,34.196635495121,-118.32478903737,312
186.1,34.190206007912,-118.32149696806,338
186.1,34.187988226121,-118.31847275644,350
186.1,34.186249550831,-118.31609860714,359
186.1,34.185095577728,-118.31918586202,370
186.1,34.179268628857,-118.31237242466,399
186.1,34.179078540196,-118.31256017346,400
187.1,34.179078540196,-118.31256017346,0
187.1,34.179268628857,-118.31237242466,1
187.1,34.185095577728,-118.31918586202,30
187.1,34.186249550831,-118.31609860714,40
187.1,34.18716133853,-118.31734204335,45
187.1,34.187988226121,-118.31847275644,50
187.1,34.189970527244,-118.32118192135,61
187.1,34.190206007912,-118.32149696806,62
187.1,34.196635495121,-118.32478903737,87
187.1,34.199039381271,-118.32803272951,101
187.1,34.201231451068,-118.33132868354,113
187.1,34.202561027073,-118.33347374274,121
187.1,34.204907003984,-118.33769334589,137
187.1,34.205848964593,-118.33985686819,144
187.1,34.206747874142,-118.34168290761,151
187.1,34.20656722991,-118.34433801078,159
187.1,34.202868314131,-118.34443189938,172
187.1,34.201943422078,-118.34306220437,177
187.1,34.198371970638,-118.3378984183,198
187.1,34.197849842225,-118.33790953415,200
187.1,34.199207207551,-118.3399025979,207
187.1,34.199268471566,-118.34447327457,221
187.1,34.199327301561,-118.34887528566,235
187.1,34.195664180692,-118.348942659,248
187.1,34.195605343735,-118.34454414785,261
187.1,34.191950515994,-118.34459520823,274
187.1,34.19193443178,-118.34348735691,278
187.1,34.191902102292,-118.34131795049,284
187.1,34.191853618282,-118.338034083,294
187.1,34.191824030654,-118.33583162406,301
187.1,34.191798654431,-118.33308355931,309
187.1,34.191794988627,-118.33141691046,314
187.1,34.191992992041,-118.32934762578,321
187.1,34.184237007126,-118.32172529029,357
187.1,34.185095577728,-118.31918586202,365
187.1,34.179268628857,-118.31237242466,395
187.1,34.179078540196,-118.31256017346,396
2357.1,34.179078540196,-118.31256017346,0
2357.1,34.179230295552,-118.31231938029,1
2357.1,34.178504697683,-118.31131486302,4
2357.1,34.175551047025,-118.31437859363,19
2357.1,34.173512014442,-118.31652649049,28
2357.1,34.170839124069,-118.31935950943,41
2357.1,34.168224057225,-118.32212314685,54
2357.1,34.165807394017,-118.32465597808,66
2357.1,34.16427521184,-118.32627644092,73
2357.1,34.161172141378,-118.32957984236,88
2357.1,34.158227546611,-118.32815348057,100
2357.1,34.15685611345,-118.33226666197,113
2357.1,34.155891934549,-118.33513521495,123
2357.1,34.154979726729,-118.33609341551,127
2357.1,34.154227328722,-118.33689358404,131
2357.1,34.152896251085,-118.33827312814,137
2357.1,34.152142027479,-118.334792957,148
2357.1,34.151309748781,-118.33665376241,154
2357.1,34.152723407872,-118.3371916057,160
2357.1,34.152896251085,-118.33827312814,163
2357.1,34.151926128139,-118.33929712985,168
2357.1,34.149671649332,-118.34168090363,179
2357.1,34.153123591416,-118.34340715543,192
2357.1,34.153469940871,-118.34239715738,196
2357.1,34.154140650299,-118.34037043606,202
2357.1,34.155891934549,-118.33513521495,219
2357.1,34.156512532673,-118.33329989156,225
2357.1,34.15685611345,-118.33226666197,229
2357.1,34.151757351448,-118.32978399298,249
2357.1,34.15413854547,-118.32618067186,263
2357.1,34.156210492749,-118.32718038115,271
2357.1,34.158227546611,-118.32815348057,279
2357.1,34.161172141378,-118.32957984236,290
2357.1,34.16427521184,-118.32627644092,305
2357.1,34.165807394017,-118.32465597808,313
2357.1,34.167350563573,-118.32302888668,320
2357.1,34.170839124069,-118.31935950943,337
2357.1,34.173512014442,-118.31652649049,350
2357.1,34.175551047025,-118.31437859363,360
2357.1,34.178504697683,-118.31131486302,374
2357.1,34.179734096734,-118.31301890038,381
2357.1,34.179078540196,-118.31256017346,384
60.1,34.169479896643,-118.37722135761,0
60.1,34.16948499071,-118.37469895143,7
60.1,34.168113641622,-118.37474900131,12
60.1,34.168118923023,-118.37658709535,18
60.1,34.164915426035,-118.37464540148,31
60.1,34.165249937897,-118.35484535656,91
60.1,34.166525005336,-118.35106230648,103
60.1,34.167869428828,-118.34700834848,116
60.1,34.167869428828,-118.34700834848,117
60.1,34.164431135003,-118.34533128543,130
60.1,34.161006472775,-118.34368416693,143
60.1,34.157573619543,-118.34201070632,157
60.1,34.154140650299,-118.34037043606,170
60.1,34.151926128139,-118.33929712985,179
60.1,34.154227328722,-118.33689358404,190
60.1,34.155891934549,-118.33513521495,198
60.1,34.15685611345,-118.33226666197,207
60.1,34.157546032478,-118.33018696648,214
60.1,34.158227546611,-118.32815348057,221
60.1,34.161172141378,-118.32957984236,232
60.1,34.165085433566,-118.33147625406,248
60.1,34.168513010107,-118.33312296353,261
60.1,34.171962501409,-118.33478642616,275
60.1,34.170582580263,-118.33890675329,288
60.1,34.169235671098,-118.3429642679,301
60.1,34.167869428828,-118.34700834848,314
60.1,34.166525005336,-118.35106230648,328
60.1,34.165249937897,-118.35484535656,340
60.1,34.164915426035,-118.37464540148,400
60.1,34.168118923023,-118.37658709535,413
60.1,34.168113641622,-118.37474900131,418
60.1,34.16948499071,-118.37469895143,423
60.1,34.169479896643,-118.37722135761,431
614.1,34.169479896643,-118.37722135761,0
614.1,34.16948499071,-118.37469895143,7
614.1,34.172167246528,-118.3745952697,17
614.1,34.172523422078,-118.3567673121,71
614.1,34.17340788488,-118.3540832389,80
614.1,34.174987936572,-118.34935222144,95
614.1,34.176711849448,-118.3442149544,112
614.1,34.177723377277,-118.34119720232,122
614.1,34.178770884616,-118.33806049634,132
614.1,34.184524104806,-118.33836152778,153
614.1,34.188214661032,-118.33830703723,166
614.1,34.191853618282,-118.338034083,179
614.1,34.1919183187,-118.34238611958,193
614.1,34.191950515994,-118.34459520823,199
614.1,34.195605343735,-118.34454414785,213
614.1,34.195664180692,-118.348942659,226
614.1,34.193526297142,-118.34895356885,234
614.1,34.19019830891,-118.3490587087,246
614.1,34.188343387023,-118.34909394411,253
614.1,34.184707735201,-118.34916472036,266
614.1,34.181088570533,-118.34923555937,279
614.1,34.174987936572,-118.34935222144,301
614.1,34.173235987804,-118.35460487129,318
614.1,34.172193341762,-118.35781061149,329
614.1,34.172167246528,-118.3745952697,379
614.1,34.16948499071,-118.37469895143,389
614.1,34.169479896643,-118.37722135761,397
