stop_id,stop_name,stop_desc,stop_lat,stop_lon
10002,VENTURA EAST STATION/6175 VENTURA BLVD,0,34.248981338707,-119.20177315454
10003,OXNARD STATION/201 E FOURTH ST,0,34.199426066113,-119.17627824352
10004,CAMARILLO STATION/30 LEWIS RD,0,34.215833988166,-119.03405260145
10005,MOORPARK STATION/300 HIGH ST,0,34.285173483698,-118.87789132804
10006,SIMI VALLEY STATION/5050 LOS ANGELES AV,0,34.269134969576,-118.69395680708
10007,CHATSWORTH STATION/10046 OLD DEPOT PLAZA RD,0,34.253484369758,-118.59953455221
10008,NORTHRIDGE STATION/8775 WILBUR AV,0,34.230581308565,-118.54472878267
10009,NEWHALL STATION/24300 RAILROAD AV,0,34.379184912844,-118.52672917507
10010,SANTA CLARITA STATION/22122 SOLEDAD CANYON RD,0,34.413644243722,-118.52527597437
10011,VIA PRINCESSA STATION/19201 VIA PRINCESSA,0,34.408462990882,-118.46863885735
10012,SYLMAR/SAN FERNANDO STATION/12219 FRANK MODUGNO DR,0,34.29260178634,-118.45035124
10013,VAN NUYS STATION/7720 VAN NUYS BLVD,0,34.211701315135,-118.44881350649
10014,SUN VALLEY STATION/8360 SAN FERNANDO RD,0,34.222371749334,-118.3734939865
10015,BURBANK BOB HOPE AIRPORT STATION/3750 EMPIRE AV,0,34.192439222284,-118.35142585154
10016,BURBANK,0,34.178946438219,-118.31263903048
10017,GLENDALE STATION/400 W CERRITOS AV,0,34.122817054561,-118.25850651539
10018,UNION STATION/800 N ALAMEDA ST,0,34.056579508926,-118.23435634906
10019,CAL STATE LA STATION,0,34.062636155015,-118.16818749602
10020,COMMERCE STATION/6433 26TH ST,0,33.990627929184,-118.1431595877
10021,LANCASTER STATION/44812 SIERRA HWY,0,34.698425299733,-118.13627892553
10022,MONTEBELLO STATION/2000 FLOTILLA ST,0,34.007193466289,-118.12709292392
10023,PALMDALE STATION/39000 CLOCK TOWER PLAZA DR,0,34.590716149726,-118.11923648288
10024,VINCENT ACTON STATION/730 W SIERRA HWY,0,34.498322097445,-118.11778978497
10025,NORWALK SANTA FE SPRINGS STATION/12700 IMPERIAL HWY,0,33.917195789447,-118.06043403782
10026,EL MONTE METROLINK STATION/10925 RAILROAD ST,0,34.076624852838,-118.03505261282
10027,BUENA PARK STATION/8400 LAKEKNOLL DR,0,33.875861007393,-117.98729964582
10028,BALDWIN PARK STATION/3825 DOWNING AV,0,34.085748351241,-117.95821807644
10029,FULLERTON STATION/120 E SANTA FE AV,0,33.868628999078,-117.92214440231
10030,COVINA STATION/600 N CITRUS AV,0,34.092080715893,-117.89019924123
10031,ANAHEIM REGIONAL TRANSPORTATION INTERMODAL CENTER (ARTIC)/2626 E KATELLA AV,0,33.802678433094,-117.87847191062
10032,ORANGE STATION/194 N ATCHINSON ST,0,33.789880902122,-117.85747435091
10033,SANTA ANA STATION/1000 E SANTA ANA BLVD,0,33.752734478949,-117.85593870513
10034,INDUSTRY STATION/600 S BREA CANYON RD,0,34.007437618091,-117.84654878164
10035,ANAHEIM CANYON STATION/1039 PACIFICENTER DR,0,33.853826101607,-117.8407435154
10036,TUSTIN STATION/2975 EDINGER AV,0,33.708285351402,-117.80620194796
10037,POMONA NORTH STATION/205 SANTA FE ST,0,34.093586043899,-117.75104863541
10038,POMONA DOWNTOWN STATION/101 W 1ST ST,0,34.058878831834,-117.75024398918
10039,IRVINE STATION/15215 BARRANCA PKWY,0,33.657105048338,-117.73279753881
10040,CLAREMONT STATION/200 W 1ST ST,0,34.09390044496,-117.71547177074
10041,MONTCLAIR STATION/5091 RICHTON ST,0,34.093905897083,-117.69626516084
10042,LAGUNA NIGUEL MISSION VIEJO STATION/28200 FORBES RD,0,33.557279403281,-117.67455920917
10043,SAN JUAN CAPISTRANO STATION/26701 VERDUGO ST,0,33.501293757285,-117.66403455099
10044,UPLAND STATION/300 E A ST,0,34.09440646305,-117.64689726563
10045,SAN CLEMENTE STA/1850AVENIDA ESTACION,0,33.432579101181,-117.6335404497
10046,CORONA WEST STATION/155 S AUTO CENTER DR,0,33.88551761848,-117.61570943482
10047,ONTARIO STATION/3330 FRANCIS ST,0,34.039888592847,-117.57993588033
10048,CORONA NORTH MAIN STATION/250 E BLAINE ST,0,33.882072369657,-117.56342334392
10049,RANCHO CUCAMONGA STATION/11208 AZUSA CT,0,34.091889696793,-117.56067983491
10050,JURUPA VALLEY/PEDLEY STATION/6001 PEDLEY RD,0,33.976449320146,-117.47555195331
10051,RIVERSIDE LA SIERRA STATION/10901 INDIANA AV,0,33.900496453512,-117.46888947167
10052,FONTANA STATION/16777 ORANGE WAY,0,34.095105402006,-117.43696507861
10053,OCEANSIDE STATION/235 S TREMONT AV,0,33.193150638074,-117.38057523546
10054,RIALTO STATION/261 S PALM AV,0,34.096702266537,-117.37287101101
10055,RIVERSIDE DOWNTOWN STATION/4066 VINE ST,0,33.975697808896,-117.36962460243
10056,RIVERSIDE HUNTER PARK STATION (RHPS)/1101 MARLBOROUGH AV,0,33.997577461027,-117.33447521129
10057,SAN BERNARDINO STATION/1204 W 3RD ST,0,34.104530386339,-117.30973357409
10058,MORENO VALLEY MARCH FIELD STATION (MVMF)/14160 MERIDIAN PKWY,0,33.912153219745,-117.28683988966
10059,PERRIS DOWNTOWN STATION (PDS)/121 S C ST,0,33.785173623317,-117.22931181853
10060,PERRIS SOUTH STATION (PSS)/1304 CASE RD,0,33.75932633206,-117.19764728495
