from_stop_id,to_stop_id,transfer_type
10002,10002,0
10004,10004,0
10005,10005,0
10006,10006,0
10008,10008,0
10009,10009,0
10010,10010,0
10011,10011,0
10012,10012,0
10013,10013,0
10015,10015,0
10016,10016,0
10017,10017,0
10019,10019,0
10021,10021,0
10022,10022,0
10025,10025,0
10026,10026,0
10027,10027,0
10028,10028,0
10028,10032,0
10029,10029,0
10030,10030,0
10031,10031,0
10032,10028,0
10032,10032,0
10033,10033,0
10034,10034,0
10035,10035,0
10036,10036,0
10037,10037,0
10037,10040,0
10038,10038,0
10040,10037,0
10042,10042,0
10043,10043,0
10044,10044,0
10045,10045,0
10045,10046,0
10046,10045,0
10046,10046,0
10047,10047,0
10049,10049,0
10051,10051,0
10056,10056,0
10057,10057,0
10058,10058,0
