service_id,monday,tuesday,wednesday,thursday,friday,saturday,sunday,start_date,end_date
DEC16-D01CAR-3_Sunday-99,0,0,0,0,0,0,1,20161211,20170618
DEC16-D01CAR-1_Weekday-99,1,1,1,1,1,0,0,20161212,20170623
DEC16-D01CAR-1_Weekday-99-1111100,1,1,1,1,1,0,0,20161212,20170623
DEC16-D01CAR-2_Saturday-99,0,0,0,0,0,1,0,20161217,20170624
DEC16-D02CAR-3_Sunday-99,0,0,0,0,0,0,1,20161211,20170618
DEC16-D02CAR-1_Weekday-99,1,1,1,1,1,0,0,20161212,20170623
DEC16-D02CAR-1_Weekday-99-1111100,1,1,1,1,1,0,0,20161212,20170623
DEC16-D02CAR-2_Saturday-99,0,0,0,0,0,1,0,20161217,20170624
DEC16-D03CAR-3_Sunday-99,0,0,0,0,0,0,1,20161211,20170618
DEC16-D03CAR-1_Weekday-99,1,1,1,1,1,0,0,20161212,20170623
DEC16-D03CAR-1_Weekday-99-0100000,0,1,0,0,0,0,0,20161212,20170623
DEC16-D03CAR-1_Weekday-99-1011100,1,0,1,1,1,0,0,20161212,20170623
DEC16-D03CAR-1_Weekday-99-1111100,1,1,1,1,1,0,0,20161212,20170623
DEC16-D03CAR-2_Saturday-99,0,0,0,0,0,1,0,20161217,20170624
DEC16-D05CAR-3_Sunday-99,0,0,0,0,0,0,1,20161211,20170618
DEC16-D05CAR-1_Weekday-99,1,1,1,1,1,0,0,20161212,20170623
DEC16-D05CAR-1_Weekday-99-1111100,1,1,1,1,1,0,0,20161212,20170623
DEC16-D05CAR-2_Saturday-99,0,0,0,0,0,1,0,20161217,20170624
DEC16-D07CAR-3_Sunday-99,0,0,0,0,0,0,1,20161211,20170618
DEC16-D07CAR-1_Weekday-99,1,1,1,1,1,0,0,20161212,20170623
DEC16-D07CAR-1_Weekday-99-0101000,0,1,0,1,0,0,0,20161212,20170623
DEC16-D07CAR-1_Weekday-99-1010100,1,0,1,0,1,0,0,20161212,20170623
DEC16-D07CAR-1_Weekday-99-1111100,1,1,1,1,1,0,0,20161212,20170623
DEC16-D07CAR-2_Saturday-99,0,0,0,0,0,1,0,20161217,20170624
DEC16-D08CAR-3_Sunday-99,0,0,0,0,0,0,1,20161211,20170618
DEC16-D08CAR-1_Weekday-99,1,1,1,1,1,0,0,20161212,20170623
DEC16-D08CAR-1_Weekday-99-1111100,1,1,1,1,1,0,0,20161212,20170623
DEC16-D08CAR-1_Weekday-99-0000100,0,0,0,0,1,0,0,20161212,20170623
DEC16-D08CAR-1_Weekday-99-1111000,1,1,1,1,0,0,0,20161212,20170623
DEC16-D08CAR-2_Saturday-99,0,0,0,0,0,1,0,20161217,20170624
DEC16-D09CAR-3_Sunday-99-0000001,0,0,0,0,0,0,1,20161211,20170618
DEC16-D09CAR-3_Sunday-99,0,0,0,0,0,0,1,20161211,20170618
DEC16-D09CAR-1_Weekday-99,1,1,1,1,1,0,0,20161212,20170623
DEC16-D09CAR-1_Weekday-99-0111100,0,1,1,1,1,0,0,20161212,20170623
DEC16-D09CAR-1_Weekday-99-1000000,1,0,0,0,0,0,0,20161212,20170623
DEC16-D09CAR-1_Weekday-99-1111100,1,1,1,1,1,0,0,20161212,20170623
DEC16-D09CAR-1_Weekday-99-0000100,0,0,0,0,1,0,0,20161212,20170623
DEC16-D09CAR-2_Saturday-99,0,0,0,0,0,1,0,20161217,20170624
DEC16-D09CAR-2_Saturday-99-0000010,0,0,0,0,0,1,0,20161217,20170624
DEC16-D10CAR-1_Weekday-99-1111100,1,1,1,1,1,0,0,20161212,20170623
DEC16-D10CAR-1_Weekday-99,1,1,1,1,1,0,0,20161212,20170623
DEC16-D13CAR-3_Sunday-99,0,0,0,0,0,0,1,20161211,20170618
DEC16-D13CAR-1_Weekday-99,1,1,1,1,1,0,0,20161212,20170623
DEC16-D13CAR-1_Weekday-99-1111100,1,1,1,1,1,0,0,20161212,20170623
DEC16-D13CAR-2_Saturday-99,0,0,0,0,0,1,0,20161217,20170624
DEC16-D15CAR-3_Sunday-99,0,0,0,0,0,0,1,20161211,20170618
DEC16-D15CAR-1_Weekday-99,1,1,1,1,1,0,0,20161212,20170623
DEC16-D15CAR-1_Weekday-99-1111100,1,1,1,1,1,0,0,20161212,20170623
DEC16-D15CAR-2_Saturday-99,0,0,0,0,0,1,0,20161217,20170624
DEC16-D18CAR-3_Sunday-99,0,0,0,0,0,0,1,20161211,20170618
DEC16-D18CAR-1_Weekday-99,1,1,1,1,1,0,0,20161212,20170623
DEC16-D18CAR-1_Weekday-99-1111100,1,1,1,1,1,0,0,20161212,20170623
DEC16-D18CAR-2_Saturday-99,0,0,0,0,0,1,0,20161217,20170624
DEC16-D95-3_Sunday-99,0,0,0,0,0,0,1,20161211,20170618
DEC16-D95-1_Weekday-99,1,1,1,1,1,0,0,20161212,20170623
DEC16-D95-2_Saturday-99,0,0,0,0,0,1,0,20161217,20170624
DEC16-D97-3_Sunday-99,0,0,0,0,0,0,1,20161211,20170618
DEC16-D97-1_Weekday-99,1,1,1,1,1,0,0,20161212,20170623
DEC16-D97-2_Saturday-99,0,0,0,0,0,1,0,20161217,20170624
DEC16-D98-3_Sunday-99,0,0,0,0,0,0,1,20161211,20170618
DEC16-D98-1_Weekday-99,1,1,1,1,1,0,0,20161212,20170623
DEC16-D98-2_Saturday-99,0,0,0,0,0,1,0,20161217,20170624
