shape_id,shape_pt_lat,shape_pt_lon,shape_pt_sequence
1148.1,33.912766655629,-118.10417253075,0
1148.1,33.912439664228,-118.10417212429,1
1148.1,33.912439664228,-118.10417212429,2
1148.1,33.912440178195,-118.10357558967,3
1148.1,33.912440178195,-118.10357558967,4
1148.1,33.914380163962,-118.10355491641,10
1148.1,33.917089519239,-118.1035615604,19
1148.1,33.917089519239,-118.1035615604,20
1148.1,33.917090381085,-118.0992702245,32
1148.1,33.917099419309,-118.09487013135,46
1148.1,33.917091748124,-118.09055241832,59
1148.1,33.917092187013,-118.08620505099,72
1148.1,33.917103485071,-118.08182143884,85
1148.1,33.917120433827,-118.07694673311,100
1148.1,33.917124529893,-118.07480436395,107
1148.1,33.917117612464,-118.07263561741,113
1148.1,33.917122659408,-118.06871343159,125
1148.1,33.917174754562,-118.0639244443,140
1148.1,33.917187363686,-118.0607965874,149
1148.1,33.916761450197,-118.0607962784,151
1148.2,33.912766655629,-118.10417253075,0
1148.2,33.912439664228,-118.10417212429,1
1148.2,33.912439664228,-118.10417212429,2
1148.2,33.912440178195,-118.10357558967,3
1148.2,33.912440178195,-118.10357558967,4
1148.2,33.914380163962,-118.10355491641,10
1148.2,33.917089519239,-118.1035615604,19
1148.2,33.917089519239,-118.1035615604,20
1148.2,33.917090381085,-118.0992702245,32
1148.2,33.917099419309,-118.09487013135,46
1148.2,33.917091748124,-118.09055241832,59
1148.2,33.917092187013,-118.08620505099,72
1148.2,33.917103485071,-118.08182143884,85
1148.2,33.917120433827,-118.07694673311,100
1148.2,33.917124529893,-118.07480436395,107
1148.2,33.917117612464,-118.07263561741,113
1148.2,33.917122659408,-118.06871343159,125
1148.2,33.917174754562,-118.0639244443,140
1148.2,33.917187363686,-118.0607965874,149
1148.2,33.916761450197,-118.0607962784,151
1148.2,33.917187363686,-118.0607965874,152
1148.2,33.917113097027,-118.05524284513,169
1148.2,33.916988923939,-118.05014722068,185
1148.2,33.917023263375,-118.04674911287,195
1148.2,33.91708255678,-118.03375978329,234
1148.2,33.9171139459,-118.02931354975,248
1148.2,33.917148119421,-118.02387523027,264
1148.2,33.917179214386,-118.01898733101,279
1148.2,33.917204855501,-118.01187135789,301
1148.2,33.916664075866,-118.00317000154,327
1148.2,33.91729061795,-117.99893471158,340
1148.2,33.917317967795,-117.99433354408,354
1148.2,33.917336817048,-117.98881609613,371
1148.2,33.917355707785,-117.98557615852,381
1148.2,33.917382516993,-117.98078052106,395
1148.2,33.917375202447,-117.97157488593,423
1148.2,33.917374335124,-117.96810752854,434
1148.2,33.917374335124,-117.96810752854,435
1148.3,33.912766655629,-118.10417253075,0
1148.3,33.912439664228,-118.10417212429,1
1148.3,33.912439664228,-118.10417212429,2
1148.3,33.912440178195,-118.10357558967,3
1148.3,33.912440178195,-118.10357558967,4
1148.3,33.914380163962,-118.10355491641,10
1148.3,33.917089519239,-118.1035615604,19
1148.3,33.917089519239,-118.1035615604,20
1148.3,33.917090381085,-118.0992702245,32
1148.3,33.917099419309,-118.09487013135,46
1148.3,33.917091748124,-118.09055241832,59
1148.3,33.917092187013,-118.08620505099,72
1148.3,33.917103485071,-118.08182143884,85
1148.3,33.917120433827,-118.07694673311,100
1148.3,33.917124529893,-118.07480436395,107
1148.3,33.917117612464,-118.07263561741,113
1148.3,33.917122659408,-118.06871343159,125
1148.3,33.917174754562,-118.0639244443,140
1148.3,33.917187363686,-118.0607965874,149
1148.3,33.916761450197,-118.0607962784,151
1148.3,33.917187363686,-118.0607965874,152
1148.3,33.917113097027,-118.05524284513,169
1148.3,33.916988923939,-118.05014722068,185
1148.3,33.917023263375,-118.04674911287,195
1148.3,33.91708255678,-118.03375978329,234
1148.3,33.9171139459,-118.02931354975,248
1148.3,33.917148119421,-118.02387523027,264
1148.3,33.917179214386,-118.01898733101,279
1148.3,33.917204855501,-118.01187135789,301
1148.3,33.916664075866,-118.00317000154,327
1148.3,33.91729061795,-117.99893471158,340
1148.3,33.917317967795,-117.99433354408,354
1148.3,33.917336817048,-117.98881609613,371
1148.3,33.917355707785,-117.98557615852,381
1148.3,33.917382516993,-117.98078052106,395
1148.3,33.917375202447,-117.97157488593,423
1148.3,33.917374335124,-117.96810752854,434
1148.3,33.917374335124,-117.96810752854,435
1148.3,33.920028644848,-117.96775383866,443
1148.3,33.924636767362,-117.96779162035,460
1148.3,33.924636767362,-117.96779162035,461
1148.3,33.924621501021,-117.96250773348,476
1148.3,33.924612175275,-117.95917522671,486
1148.3,33.921540099427,-117.95917342727,498
1148.3,33.91736340031,-117.95918205404,513
1148.3,33.91736340031,-117.95918205404,514
1148.4,33.916761450197,-118.0607962784,151
1148.4,33.917187363686,-118.0607965874,152
1148.4,33.917113097027,-118.05524284513,169
1148.4,33.916988923939,-118.05014722068,185
1148.4,33.917023263375,-118.04674911287,195
1148.4,33.91708255678,-118.03375978329,234
1148.4,33.9171139459,-118.02931354975,248
1148.4,33.917148119421,-118.02387523027,264
1148.4,33.917179214386,-118.01898733101,279
1148.4,33.917204855501,-118.01187135789,301
1148.4,33.916664075866,-118.00317000154,327
1148.4,33.91729061795,-117.99893471158,340
1148.4,33.917317967795,-117.99433354408,354
1148.4,33.917336817048,-117.98881609613,371
1148.4,33.917355707785,-117.98557615852,381
1148.4,33.917382516993,-117.98078052106,395
1148.4,33.917375202447,-117.97157488593,423
1148.4,33.917374335124,-117.96810752854,434
1148.4,33.917374335124,-117.96810752854,435
1148.4,33.920028644848,-117.96775383866,443
1148.4,33.924636767362,-117.96779162035,460
1148.4,33.924636767362,-117.96779162035,461
1148.4,33.924621501021,-117.96250773348,476
1148.4,33.924612175275,-117.95917522671,486
1148.4,33.921540099427,-117.95917342727,498
1148.4,33.91736340031,-117.95918205404,513
1148.4,33.91736340031,-117.95918205404,514
1149.1,33.916761450197,-118.0607962784,332
1149.1,33.917187363686,-118.0607965874,334
1149.1,33.917174754562,-118.0639244443,343
1149.1,33.917167806586,-118.06660735027,351
1149.1,33.917122659408,-118.06871343159,358
1149.1,33.917117612464,-118.07263561741,370
1149.1,33.917120433827,-118.07694673311,383
1149.1,33.917103485071,-118.08182143884,398
1149.1,33.917092187013,-118.08620505099,411
1149.1,33.917092123349,-118.0900514332,423
1149.1,33.917102226763,-118.09479432749,437
1149.1,33.917090381085,-118.0992702245,451
1149.1,33.917089519239,-118.1035615604,464
1149.1,33.917089519239,-118.1035615604,465
1149.1,33.913346961103,-118.10357671038,477
1149.1,33.913316735005,-118.10357667303,478
1149.1,33.913316221032,-118.10417321389,479
1149.1,33.913316221032,-118.10417321389,480
1149.1,33.912766655629,-118.10417253075,481
1149.2,33.91736340031,-117.95918205404,0
1149.2,33.917427556763,-117.96211213974,8
1149.2,33.917379247841,-117.96597503564,20
1149.2,33.917374335124,-117.96810752854,27
1149.2,33.917375202447,-117.97157488593,37
1149.2,33.917382516993,-117.98078052106,65
1149.2,33.917355707785,-117.98557615852,80
1149.2,33.917336817048,-117.98881609613,89
1149.2,33.917317967795,-117.99433354408,106
1149.2,33.91729061795,-117.99893471158,120
1149.2,33.916664075866,-118.00317000154,133
1149.2,33.917204855501,-118.01187135789,161
1149.2,33.917154307726,-118.02007499172,207
1149.2,33.917148119421,-118.02387523027,219
1149.2,33.9171139459,-118.02931354975,235
1149.2,33.91708255678,-118.03375978329,249
1149.2,33.917023263375,-118.04674911287,288
1149.2,33.916988923939,-118.05014722068,298
1149.2,33.917113097027,-118.05524284513,314
1149.2,33.917187363686,-118.0607965874,331
1149.2,33.916761450197,-118.0607962784,332
1149.3,33.91736340031,-117.95918205404,0
1149.3,33.917427556763,-117.96211213974,8
1149.3,33.917379247841,-117.96597503564,20
1149.3,33.917374335124,-117.96810752854,27
1149.3,33.917375202447,-117.97157488593,37
1149.3,33.917382516993,-117.98078052106,65
1149.3,33.917355707785,-117.98557615852,80
1149.3,33.917336817048,-117.98881609613,89
1149.3,33.917317967795,-117.99433354408,106
1149.3,33.91729061795,-117.99893471158,120
1149.3,33.916664075866,-118.00317000154,133
1149.3,33.917204855501,-118.01187135789,161
1149.3,33.917154307726,-118.02007499172,207
1149.3,33.917148119421,-118.02387523027,219
1149.3,33.9171139459,-118.02931354975,235
1149.3,33.91708255678,-118.03375978329,249
1149.3,33.917023263375,-118.04674911287,288
1149.3,33.916988923939,-118.05014722068,298
1149.3,33.917113097027,-118.05524284513,314
1149.3,33.917187363686,-118.0607965874,331
1149.3,33.916761450197,-118.0607962784,332
1149.3,33.917187363686,-118.0607965874,334
1149.3,33.917174754562,-118.0639244443,343
1149.3,33.917167806586,-118.06660735027,351
1149.3,33.917122659408,-118.06871343159,358
1149.3,33.917117612464,-118.07263561741,370
1149.3,33.917120433827,-118.07694673311,383
1149.3,33.917103485071,-118.08182143884,398
1149.3,33.917092187013,-118.08620505099,411
1149.3,33.917092123349,-118.0900514332,423
1149.3,33.917102226763,-118.09479432749,437
1149.3,33.917090381085,-118.0992702245,451
1149.3,33.917089519239,-118.1035615604,464
1149.3,33.917089519239,-118.1035615604,465
1149.3,33.913346961103,-118.10357671038,477
1149.3,33.913316735005,-118.10357667303,478
1149.3,33.913316221032,-118.10417321389,479
1149.3,33.913316221032,-118.10417321389,480
1149.3,33.912766655629,-118.10417253075,481
2050.1,33.912766655629,-118.10417253075,0
2050.1,33.913316221032,-118.10417321389,2
2050.1,33.913346961103,-118.10357671038,3
2050.1,33.913346961103,-118.10357671038,4
2050.1,33.912440178195,-118.10357558967,7
2050.1,33.914380163962,-118.10355491641,14
2050.1,33.917089519239,-118.1035615604,24
2050.1,33.917089519239,-118.1035615604,25
2050.1,33.917088628703,-118.10459319408,27
2050.1,33.902068313731,-118.10537522448,81
2050.1,33.902077801758,-118.10394175155,86
2050.1,33.902092094193,-118.10004005361,98
2050.1,33.902112128276,-118.09567041874,111
2050.1,33.902139492098,-118.09229269617,121
2050.1,33.902166809621,-118.08503961581,143
2050.1,33.902179492035,-118.08260764499,150
2050.1,33.902214320162,-118.07985604358,159
2050.1,33.902227631186,-118.07627398626,170
2050.1,33.902251633889,-118.07301158839,180
2050.1,33.902248409911,-118.06915929427,191
2050.1,33.902344661694,-118.06404494872,207
2050.1,33.902348030531,-118.06286520633,210
2050.1,33.902375302274,-118.0577870493,226
2050.1,33.902390191782,-118.05533529796,233
2050.1,33.902419606429,-118.05094257637,247
2050.1,33.902437149574,-118.04837878121,254
2050.1,33.902446080064,-118.04663553006,260
2050.1,33.902484874257,-118.03786983552,286
2050.1,33.902536759024,-118.02915027309,313
2050.1,33.902353839786,-118.02374908711,329
2050.1,33.900620761522,-118.0192669765,344
2050.1,33.898719879254,-118.01494978337,359
2050.1,33.898481248255,-118.01094933847,371
2050.1,33.89873433083,-118.00719280447,383
2050.1,33.898866329608,-118.00518271973,389
2050.1,33.899124730607,-118.00119877894,401
2050.1,33.898863644838,-117.99658544013,415
2050.1,33.898863644838,-117.99658544013,416
2050.1,33.893598861978,-117.99989716213,437
2050.1,33.893598861978,-117.99989716213,438
2050.1,33.893598861978,-117.99989716213,439
2050.1,33.893598861978,-117.99989716213,440
2051.1,33.893598861978,-117.99989716213,0
2051.1,33.894681492561,-118.00169956678,6
2051.1,33.894681492561,-118.00169956678,7
2051.1,33.892040784577,-118.00385442436,18
2051.1,33.892040784577,-118.00385442436,19
2051.1,33.890980169687,-118.00201580497,25
2051.1,33.890980169687,-118.00201580497,26
2051.1,33.893598861978,-117.99989716213,36
2051.1,33.896011440699,-117.99839787629,46
2051.1,33.898863644838,-117.99658544013,58
2051.1,33.898863644838,-117.99658544013,59
2051.1,33.899124730607,-118.00119877894,72
2051.1,33.898866329608,-118.00518271973,84
2051.1,33.89873433083,-118.00719280447,90
2051.1,33.898481248255,-118.01094933847,102
2051.1,33.898719879254,-118.01494978337,114
2051.1,33.900620761522,-118.0192669765,129
2051.1,33.90209025042,-118.02270108594,140
2051.1,33.902499243844,-118.02489262599,147
2051.1,33.902536759024,-118.02915027309,160
2051.1,33.902484874257,-118.03786983552,187
2051.1,33.902446080064,-118.04663553006,213
2051.1,33.902419606429,-118.05094257637,226
2051.1,33.902390191782,-118.05533529796,240
2051.1,33.902375302274,-118.0577870493,247
2051.1,33.902357568931,-118.06033106833,255
2051.1,33.902344661694,-118.06404494872,266
2051.1,33.902248409911,-118.06915929427,282
2051.1,33.902251633889,-118.07301158839,293
2051.1,33.902227631186,-118.07627398626,303
2051.1,33.902214320162,-118.07985604358,314
2051.1,33.902179492035,-118.08260764499,322
2051.1,33.902166809621,-118.08503961581,330
2051.1,33.902139492098,-118.09229269617,352
2051.1,33.902112128276,-118.09567041874,362
2051.1,33.902092094193,-118.10004005361,375
2051.1,33.902077801758,-118.10394175155,387
2051.1,33.902068313731,-118.10537522448,392
2051.1,33.9170910299,-118.10499200798,446
2051.1,33.917089519239,-118.1035615604,451
2051.1,33.917089519239,-118.1035615604,452
2051.1,33.913346961103,-118.10357671038,464
2051.1,33.913346961103,-118.10357671038,465
2051.1,33.913316221032,-118.10417321389,466
2051.1,33.913316221032,-118.10417321389,467
2051.1,33.912766655629,-118.10417253075,468
3447.1,33.912766655629,-118.10417253075,0
3447.1,33.912439664228,-118.10417212429,1
3447.1,33.913346961103,-118.10357671038,4
3447.1,33.913597033191,-118.10355394871,5
3447.1,33.914251866828,-118.09927674965,19
3447.1,33.914697009456,-118.09928386871,20
3447.1,33.917090381085,-118.0992702245,29
3447.1,33.917099419309,-118.09487013135,42
3447.1,33.917091748124,-118.09055241832,55
3447.1,33.917092123349,-118.0900514332,57
3447.1,33.912704214617,-118.0818138479,87
3447.1,33.911093261601,-118.07877691598,97
3447.1,33.911087800588,-118.07439689772,116
3447.1,33.912781254642,-118.07310315659,123
3447.1,33.914191189096,-118.07261001006,129
3447.1,33.914208433589,-118.07134112524,133
3447.1,33.913701590463,-118.06875017644,141
3447.1,33.91469586889,-118.06456854248,154
3447.1,33.917185742382,-118.0639310446,163
3447.1,33.924269645893,-118.06393974558,189
3447.1,33.931735476227,-118.06399818751,216
3447.1,33.935401078244,-118.06401417423,229
3447.1,33.938992493359,-118.06402351202,242
3447.1,33.941855738563,-118.06402240324,253
3447.1,33.946579788396,-118.06303687852,270
3447.1,33.949642390674,-118.06007496669,285
3447.1,33.952647244461,-118.05705344655,299
3447.1,33.95888765815,-118.05074279084,329
3447.1,33.95888765815,-118.05074279084,330
3447.1,33.96132050665,-118.0482808851,340
3447.1,33.962884645282,-118.04671205369,348
3447.1,33.963714814288,-118.04587487773,352
3447.1,33.963714814288,-118.04587487773,353
3447.1,33.965113129262,-118.04674957291,357
3447.1,33.967365821396,-118.04811617544,366
3447.1,33.967365821396,-118.04811617544,367
3447.1,33.968026792479,-118.04422496121,379
3447.1,33.968192496281,-118.04189008774,386
3447.1,33.968368284609,-118.04210124603,387
3447.1,33.971825070936,-118.04209638762,399
3447.1,33.973668878379,-118.04208082354,406
3447.1,33.973674776763,-118.04090997141,409
3447.1,33.973683404018,-118.03976220771,413
3447.1,33.973686527838,-118.03860454668,416
3447.1,33.973689652827,-118.03740730737,420
3447.1,33.973657395463,-118.03501940876,427
3447.1,33.973473946147,-118.03268092572,434
3447.1,33.975433153917,-118.03269488332,441
3447.1,33.977254975195,-118.03268899797,448
3447.1,33.97907679492,-118.03268970915,455
3447.1,33.980912353202,-118.03269372419,461
3447.1,33.982709442801,-118.03269442585,468
3447.1,33.982709117978,-118.03387200418,472
3447.1,33.982711539083,-118.03501659826,475
3447.1,33.982719436117,-118.03619088164,479
3447.1,33.982724567749,-118.03738495524,482
3447.1,33.982724567749,-118.03738495524,483
3447.1,33.984518912766,-118.03737586054,489
3447.1,33.986307761293,-118.03737006168,495
3447.1,33.988137828727,-118.03736098221,502
3447.1,33.988137828727,-118.03736098221,503
3447.1,33.988152759618,-118.04208810282,516
3447.1,33.988170571561,-118.04598723946,528
3447.1,33.988175248143,-118.04808854872,534
3447.1,33.991784832828,-118.05073633718,555
3447.1,33.997287178248,-118.05438849149,578
3447.1,33.998690847216,-118.0554451375,584
3447.1,34.001550999804,-118.05621576443,595
3447.1,34.005549230796,-118.05597429085,610
3447.1,34.008781077936,-118.05515485977,622
3447.1,34.009289613102,-118.05475264525,624
3447.1,34.011685760034,-118.04826043996,645
3447.1,34.013615502423,-118.04634109387,654
3447.1,34.014684849854,-118.04519665553,660
3447.1,34.015303552465,-118.04401565272,664
3447.1,34.017115436116,-118.04103350034,675
3447.1,34.020026443344,-118.03787021804,689
3447.1,34.02523636368,-118.03788577633,708
3447.1,34.027165431491,-118.03764242803,715
3447.1,34.03011398461,-118.03729391107,726
3447.1,34.032938620278,-118.03779684874,737
3447.1,34.036244052847,-118.03853768717,749
3447.1,34.037521862116,-118.03835673715,753
3447.1,34.039445658378,-118.03740369482,761
3447.1,34.040622136351,-118.03610039599,767
3447.1,34.04317028604,-118.03299202632,780
3447.1,34.045712861146,-118.02988016434,793
3447.1,34.046569999653,-118.03064631557,797
3447.1,34.051538123724,-118.03063493033,815
3447.1,34.05599515626,-118.03059034238,831
3447.1,34.058547918999,-118.03057146662,841
3447.1,34.062840071575,-118.03056643177,856
3447.1,34.065557747304,-118.03038582547,866
3447.1,34.067418270445,-118.02948178636,874
3447.1,34.068894200098,-118.02809549276,880
3447.1,34.071204395378,-118.03116385344,893
3447.1,34.072577972442,-118.03249840674,899
3447.1,34.072068622478,-118.03601160382,910
3447.1,34.071996103379,-118.03945231925,921
3447.1,34.07113783878,-118.04221240842,930
3447.1,34.07113783878,-118.04221240842,931
3447.1,34.07113703807,-118.04444457779,936
3447.1,34.072296633757,-118.04444519392,941
3447.2,33.941855738563,-118.06402240324,253
3447.2,33.946579788396,-118.06303687852,270
3447.2,33.949642390674,-118.06007496669,285
3447.2,33.952647244461,-118.05705344655,299
3447.2,33.95888765815,-118.05074279084,329
3447.2,33.95888765815,-118.05074279084,330
3447.2,33.96132050665,-118.0482808851,340
3447.2,33.962884645282,-118.04671205369,348
3447.2,33.963714814288,-118.04587487773,352
3447.2,33.963714814288,-118.04587487773,353
3447.2,33.965113129262,-118.04674957291,357
3447.2,33.967365821396,-118.04811617544,366
3447.2,33.967365821396,-118.04811617544,367
3447.2,33.968026792479,-118.04422496121,379
3447.2,33.968192496281,-118.04189008774,386
3447.2,33.968368284609,-118.04210124603,387
3447.2,33.971825070936,-118.04209638762,399
3447.2,33.973668878379,-118.04208082354,406
3447.2,33.973674776763,-118.04090997141,409
3447.2,33.973683404018,-118.03976220771,413
3447.2,33.973686527838,-118.03860454668,416
3447.2,33.973689652827,-118.03740730737,420
3447.2,33.973657395463,-118.03501940876,427
3447.2,33.973473946147,-118.03268092572,434
3447.2,33.975433153917,-118.03269488332,441
3447.2,33.977254975195,-118.03268899797,448
3447.2,33.97907679492,-118.03268970915,455
3447.2,33.980912353202,-118.03269372419,461
3447.2,33.982709442801,-118.03269442585,468
3447.2,33.982709117978,-118.03387200418,472
3447.2,33.982711539083,-118.03501659826,475
3447.2,33.982719436117,-118.03619088164,479
3447.2,33.982724567749,-118.03738495524,482
3447.2,33.982724567749,-118.03738495524,483
3447.2,33.984518912766,-118.03737586054,489
3447.2,33.986307761293,-118.03737006168,495
3447.2,33.988137828727,-118.03736098221,502
3447.2,33.988137828727,-118.03736098221,503
3447.2,33.988152759618,-118.04208810282,516
3447.2,33.988170571561,-118.04598723946,528
3447.2,33.988175248143,-118.04808854872,534
3447.2,33.991784832828,-118.05073633718,555
3447.2,33.997287178248,-118.05438849149,578
3447.2,33.998690847216,-118.0554451375,584
3447.2,34.001550999804,-118.05621576443,595
3447.2,34.005549230796,-118.05597429085,610
3447.2,34.008781077936,-118.05515485977,622
3447.2,34.009289613102,-118.05475264525,624
3447.2,34.011685760034,-118.04826043996,645
3447.2,34.013615502423,-118.04634109387,654
3447.2,34.014684849854,-118.04519665553,660
3447.2,34.015303552465,-118.04401565272,664
3447.2,34.017115436116,-118.04103350034,675
3447.2,34.020026443344,-118.03787021804,689
3447.2,34.02523636368,-118.03788577633,708
3447.2,34.027165431491,-118.03764242803,715
3447.2,34.03011398461,-118.03729391107,726
3447.2,34.032938620278,-118.03779684874,737
3447.2,34.036244052847,-118.03853768717,749
3447.2,34.037521862116,-118.03835673715,753
3447.2,34.039445658378,-118.03740369482,761
3447.2,34.040622136351,-118.03610039599,767
3447.2,34.04317028604,-118.03299202632,780
3447.2,34.045712861146,-118.02988016434,793
3447.2,34.046569999653,-118.03064631557,797
3447.2,34.051538123724,-118.03063493033,815
3447.2,34.05599515626,-118.03059034238,831
3447.2,34.058547918999,-118.03057146662,841
3447.2,34.062840071575,-118.03056643177,856
3447.2,34.065557747304,-118.03038582547,866
3447.2,34.067418270445,-118.02948178636,874
3447.2,34.068894200098,-118.02809549276,880
3447.2,34.071204395378,-118.03116385344,893
3447.2,34.072577972442,-118.03249840674,899
3447.2,34.072068622478,-118.03601160382,910
3447.2,34.071996103379,-118.03945231925,921
3447.2,34.07113783878,-118.04221240842,930
3447.2,34.07113783878,-118.04221240842,931
3447.2,34.07113703807,-118.04444457779,936
3447.2,34.072296633757,-118.04444519392,941
3447.3,34.020026443344,-118.03787021804,689
3447.3,34.02523636368,-118.03788577633,708
3447.3,34.027165431491,-118.03764242803,715
3447.3,34.03011398461,-118.03729391107,726
3447.3,34.032938620278,-118.03779684874,737
3447.3,34.036244052847,-118.03853768717,749
3447.3,34.037521862116,-118.03835673715,753
3447.3,34.039445658378,-118.03740369482,761
3447.3,34.040622136351,-118.03610039599,767
3447.3,34.04317028604,-118.03299202632,780
3447.3,34.045712861146,-118.02988016434,793
3447.3,34.046569999653,-118.03064631557,797
3447.3,34.051538123724,-118.03063493033,815
3447.3,34.05599515626,-118.03059034238,831
3447.3,34.058547918999,-118.03057146662,841
3447.3,34.062840071575,-118.03056643177,856
3447.3,34.065557747304,-118.03038582547,866
3447.3,34.067418270445,-118.02948178636,874
3447.3,34.068894200098,-118.02809549276,880
3447.3,34.071204395378,-118.03116385344,893
3447.3,34.072577972442,-118.03249840674,899
3447.3,34.072068622478,-118.03601160382,910
3447.3,34.071996103379,-118.03945231925,921
3447.3,34.07113783878,-118.04221240842,930
3447.3,34.07113783878,-118.04221240842,931
3447.3,34.07113703807,-118.04444457779,936
3447.3,34.072296633757,-118.04444519392,941
3448.1,34.072296633757,-118.04444519392,0
3448.1,34.07113703807,-118.04444457779,4
3448.1,34.07113783878,-118.04221240842,10
3448.1,34.071964940301,-118.042222732,13
3448.1,34.071996103379,-118.03945231925,22
3448.1,34.072068622478,-118.03601160382,32
3448.1,34.072462474937,-118.03282196556,42
3448.1,34.072577972442,-118.03249840674,43
3448.1,34.071665881442,-118.03175509179,47
3448.1,34.071204395378,-118.03116385344,50
3448.1,34.068894200098,-118.02809549276,62
3448.1,34.067418270445,-118.02948178636,69
3448.1,34.065557747304,-118.03038582547,76
3448.1,34.062840071575,-118.03056643177,87
3448.1,34.058547918999,-118.03057146662,103
3448.1,34.055354905149,-118.03059340968,115
3448.1,34.051538123724,-118.03063493033,128
3448.1,34.046569999653,-118.03064631557,146
3448.1,34.045712861146,-118.02988016434,150
3448.1,34.04317028604,-118.03299202632,164
3448.1,34.040622136351,-118.03610039599,177
3448.1,34.037521862116,-118.03835673715,190
3448.1,34.036244052847,-118.03853768717,195
3448.1,34.032479768193,-118.03767122246,209
3448.1,34.03011398461,-118.03729391107,217
3448.1,34.027165431491,-118.03764242803,228
3448.1,34.02523636368,-118.03788577633,235
3448.1,34.021650610748,-118.03726703941,248
3448.1,34.020026443344,-118.03787021804,255
3448.2,34.072296633757,-118.04444519392,0
3448.2,34.07113703807,-118.04444457779,4
3448.2,34.07113783878,-118.04221240842,10
3448.2,34.071964940301,-118.042222732,13
3448.2,34.071996103379,-118.03945231925,22
3448.2,34.072068622478,-118.03601160382,32
3448.2,34.072462474937,-118.03282196556,42
3448.2,34.072577972442,-118.03249840674,43
3448.2,34.071665881442,-118.03175509179,47
3448.2,34.071204395378,-118.03116385344,50
3448.2,34.068894200098,-118.02809549276,62
3448.2,34.067418270445,-118.02948178636,69
3448.2,34.065557747304,-118.03038582547,76
3448.2,34.062840071575,-118.03056643177,87
3448.2,34.058547918999,-118.03057146662,103
3448.2,34.055354905149,-118.03059340968,115
3448.2,34.051538123724,-118.03063493033,128
3448.2,34.046569999653,-118.03064631557,146
3448.2,34.045712861146,-118.02988016434,150
3448.2,34.04317028604,-118.03299202632,164
3448.2,34.040622136351,-118.03610039599,177
3448.2,34.037521862116,-118.03835673715,190
3448.2,34.036244052847,-118.03853768717,195
3448.2,34.032479768193,-118.03767122246,209
3448.2,34.03011398461,-118.03729391107,217
3448.2,34.027165431491,-118.03764242803,228
3448.2,34.02523636368,-118.03788577633,235
3448.2,34.021650610748,-118.03726703941,248
3448.2,34.020026443344,-118.03787021804,255
3448.2,34.017450762101,-118.04077297198,267
3448.2,34.015303552465,-118.04401565272,280
3448.2,34.014684849854,-118.04519665553,284
3448.2,34.013615502423,-118.04634109387,289
3448.2,34.011685760034,-118.04826043996,298
3448.2,34.010198123099,-118.05082008938,308
3448.2,34.009289613102,-118.05475264525,320
3448.2,34.008781077936,-118.05515485977,323
3448.2,34.005354093814,-118.0560599456,335
3448.2,34.001550999804,-118.05621576443,349
3448.2,33.998690847216,-118.0554451375,360
3448.2,33.991784832828,-118.05073633718,389
3448.2,33.988170571561,-118.04598723946,408
3448.2,33.988152759618,-118.04208810282,420
3448.2,33.988137828727,-118.03736098221,434
3448.2,33.986307761293,-118.03737006168,441
3448.2,33.982724567749,-118.03738495524,454
3448.2,33.982719436117,-118.03619088164,458
3448.2,33.982711539083,-118.03501659826,461
3448.2,33.982709117978,-118.03387200418,465
3448.2,33.982709442801,-118.03269442585,468
3448.2,33.97907679492,-118.03268970915,482
3448.2,33.977254975195,-118.03268899797,488
3448.2,33.975433153917,-118.03269488332,495
3448.2,33.973473946147,-118.03268092572,502
3448.2,33.973657395463,-118.03501940876,509
3448.2,33.973689652827,-118.03740730737,516
3448.2,33.973668878379,-118.04208082354,530
3448.2,33.971825070936,-118.04209638762,537
3448.2,33.971280998353,-118.04209611413,539
3448.2,33.968368284609,-118.04210124603,550
3448.2,33.968026792479,-118.04422496121,556
3448.2,33.967365821396,-118.04811617544,568
3448.2,33.963714814288,-118.04587487773,583
3448.2,33.95888765815,-118.05074279084,606
3448.2,33.955022493597,-118.05464133163,625
3448.2,33.949642390674,-118.06007496669,650
3448.2,33.946579788396,-118.06303687852,664
3448.2,33.941855738563,-118.06402240324,682
3448.2,33.935401078244,-118.06401417423,705
3448.2,33.931735476227,-118.06399818751,719
3448.2,33.924269645893,-118.06393974558,746
3448.2,33.917174754562,-118.0639244443,772
3448.2,33.91469586889,-118.06456854248,781
3448.2,33.91469586889,-118.06456854248,782
3448.2,33.913701590463,-118.06875017644,794
3448.2,33.914208433589,-118.07134112524,802
3448.2,33.914191189096,-118.07261001006,806
3448.2,33.911087800588,-118.07439689772,819
3448.2,33.909408076184,-118.07568400767,826
3448.2,33.911093261601,-118.07877691598,837
3448.2,33.912704214617,-118.0818138479,848
3448.2,33.917092123349,-118.0900514332,878
3448.2,33.917099419309,-118.09487013135,892
3448.2,33.917090381085,-118.0992702245,906
3448.2,33.914567864275,-118.09928041985,915
3448.2,33.914580755361,-118.10355516428,928
3448.2,33.913346961103,-118.10357671038,932
3448.2,33.912766655629,-118.10417253075,935
3448.3,33.973689652827,-118.03740730737,516
3448.3,33.973668878379,-118.04208082354,530
3448.3,33.971825070936,-118.04209638762,537
3448.3,33.971280998353,-118.04209611413,539
3448.3,33.968368284609,-118.04210124603,550
3448.3,33.968026792479,-118.04422496121,556
3448.3,33.967365821396,-118.04811617544,568
3448.3,33.963714814288,-118.04587487773,583
3448.3,33.95888765815,-118.05074279084,606
3448.3,33.955022493597,-118.05464133163,625
3448.3,33.949642390674,-118.06007496669,650
3448.3,33.946579788396,-118.06303687852,664
3448.3,33.941855738563,-118.06402240324,682
3448.3,33.935401078244,-118.06401417423,705
3448.3,33.931735476227,-118.06399818751,719
3448.3,33.924269645893,-118.06393974558,746
3448.3,33.917174754562,-118.0639244443,772
3448.3,33.91469586889,-118.06456854248,781
3448.3,33.91469586889,-118.06456854248,782
3448.3,33.913701590463,-118.06875017644,794
3448.3,33.914208433589,-118.07134112524,802
3448.3,33.914191189096,-118.07261001006,806
3448.3,33.911087800588,-118.07439689772,819
3448.3,33.909408076184,-118.07568400767,826
3448.3,33.911093261601,-118.07877691598,837
3448.3,33.912704214617,-118.0818138479,848
3448.3,33.917092123349,-118.0900514332,878
3448.3,33.917099419309,-118.09487013135,892
3448.3,33.917090381085,-118.0992702245,906
3448.3,33.914567864275,-118.09928041985,915
3448.3,33.914580755361,-118.10355516428,928
3448.3,33.913346961103,-118.10357671038,932
3448.3,33.912766655629,-118.10417253075,935
3452.1,33.912766655629,-118.10417253075,0
3452.1,33.912439664228,-118.10417212429,1
3452.1,33.912439664228,-118.10417212429,2
3452.1,33.912440178195,-118.10357558967,3
3452.1,33.912440178195,-118.10357558967,4
3452.1,33.914380163962,-118.10355491641,10
3452.1,33.917089519239,-118.1035615604,19
3452.1,33.917089519239,-118.1035615604,20
3452.1,33.917090381085,-118.0992702245,32
3452.1,33.917099419309,-118.09487013135,46
3452.1,33.917091748124,-118.09055241832,59
3452.1,33.917092187013,-118.08620505099,72
3452.1,33.917103485071,-118.08182143884,85
3452.1,33.917120433827,-118.07694673311,100
3452.1,33.917124529893,-118.07480436395,107
3452.1,33.917117612464,-118.07263561741,113
3452.1,33.917122659408,-118.06871343159,125
3452.1,33.917174754562,-118.0639244443,140
3452.1,33.917187363686,-118.0607965874,149
3452.1,33.916596610366,-118.06073683194,151
3465.1,33.916761450197,-118.0607962784,0
3465.1,33.917187363686,-118.0607965874,1
3465.1,33.917174754562,-118.0639244443,11
3465.1,33.917167806586,-118.06660735027,19
3465.1,33.917122659408,-118.06871343159,25
3465.1,33.917117612464,-118.07263561741,37
3465.1,33.917120433827,-118.07694673311,50
3465.1,33.917103485071,-118.08182143884,65
3465.1,33.917092187013,-118.08620505099,78
3465.1,33.917092123349,-118.0900514332,90
3465.1,33.917102226763,-118.09479432749,104
3465.1,33.917090381085,-118.0992702245,118
3465.1,33.917089519239,-118.1035615604,131
3465.1,33.917089519239,-118.1035615604,132
3465.1,33.913346961103,-118.10357671038,144
3465.1,33.913316735005,-118.10357667303,145
3465.1,33.913316221032,-118.10417321389,146
3465.1,33.913316221032,-118.10417321389,147
3465.1,33.912766655629,-118.10417253075,148
394.1,33.902179492035,-118.08260764499,0
394.1,33.905397156978,-118.08266683987,11
394.1,33.909989054142,-118.08226270521,28
394.1,33.907406711987,-118.07717509636,46
394.1,33.908608070143,-118.0762995668,51
394.1,33.911087800588,-118.07439689772,62
394.1,33.914191189096,-118.07261001006,74
394.1,33.917117612464,-118.07263561741,85
394.1,33.917117612464,-118.07263561741,86
394.2,33.902179492035,-118.08260764499,0
394.2,33.905397156978,-118.08266683987,11
394.2,33.909989054142,-118.08226270521,28
394.2,33.907406711987,-118.07717509636,46
394.2,33.908608070143,-118.0762995668,51
394.2,33.911087800588,-118.07439689772,62
394.2,33.914191189096,-118.07261001006,74
394.2,33.917117612464,-118.07263561741,85
394.2,33.917117612464,-118.07263561741,86
394.2,33.917120433827,-118.07694673311,98
394.2,33.917103485071,-118.08182143884,113
394.2,33.917092187013,-118.08620505099,126
394.2,33.917092123349,-118.0900514332,138
394.2,33.917099419309,-118.09487013135,153
394.2,33.917090381085,-118.0992702245,166
394.2,33.917089519239,-118.1035615604,179
394.2,33.917089519239,-118.1035615604,180
394.2,33.913346961103,-118.10357671038,192
394.2,33.913346961103,-118.10357671038,193
394.2,33.913316221032,-118.10417321389,194
394.2,33.913316221032,-118.10417321389,195
394.2,33.912766655629,-118.10417253075,196
394.2,33.912439664228,-118.10417212429,198
394.2,33.912439664228,-118.10417212429,199
394.2,33.914232632036,-118.09927672686,214
394.2,33.912644387886,-118.0992748454,220
394.2,33.909827862804,-118.09927480475,230
394.2,33.906521937317,-118.09962351185,242
394.2,33.902092094193,-118.10004005361,258
394.2,33.89846498032,-118.10001924843,271
394.2,33.894799406374,-118.09998851393,285
394.2,33.891169558118,-118.09995452978,298
394.2,33.887536971503,-118.09991066092,311
394.2,33.883967580553,-118.09987346045,324
394.2,33.880277297751,-118.09982294115,337
394.2,33.872946188708,-118.09973185736,364
394.2,33.865620548033,-118.09968032321,391
394.2,33.865620548033,-118.09968032321,392
394.2,33.86564650631,-118.09475262656,406
394.2,33.865663132283,-118.0910074401,418
394.2,33.865722900358,-118.08439657098,438
394.2,33.865740888099,-118.08222588342,444
394.2,33.869376211945,-118.08228215372,457
394.2,33.873019800836,-118.082308789,471
394.2,33.880367416664,-118.08238848198,497
394.2,33.883662036447,-118.0824147823,509
394.2,33.887618868616,-118.08246150473,524
394.2,33.890374913153,-118.08249387003,534
394.2,33.894895053821,-118.08253785954,550
394.2,33.898508419026,-118.08257436994,563
394.2,33.900332965205,-118.08258934862,570
394.2,33.902179492035,-118.08260764499,577
394.2,33.905397156978,-118.08266683987,589
394.2,33.903968299037,-118.08264895336,594
394.2,33.909989054142,-118.08226270521,616
394.2,33.907406711987,-118.07717509636,634
394.2,33.908608070143,-118.0762995668,639
394.2,33.911087800588,-118.07439689772,650
394.2,33.914191189096,-118.07261001006,662
394.2,33.917117612464,-118.07263561741,673
394.2,33.917117612464,-118.07263561741,674
394.3,33.902179492035,-118.08260764499,0
394.3,33.905397156978,-118.08266683987,11
394.3,33.909989054142,-118.08226270521,28
394.3,33.907406711987,-118.07717509636,46
394.3,33.908608070143,-118.0762995668,51
394.3,33.911087800588,-118.07439689772,62
394.3,33.914191189096,-118.07261001006,74
394.3,33.917117612464,-118.07263561741,85
394.3,33.917117612464,-118.07263561741,86
394.3,33.917120433827,-118.07694673311,98
394.3,33.917103485071,-118.08182143884,113
394.3,33.917092187013,-118.08620505099,126
394.3,33.917092123349,-118.0900514332,138
394.3,33.917099419309,-118.09487013135,153
394.3,33.917090381085,-118.0992702245,166
394.3,33.917089519239,-118.1035615604,179
394.3,33.917089519239,-118.1035615604,180
394.3,33.913346961103,-118.10357671038,192
394.3,33.913346961103,-118.10357671038,193
394.3,33.913316221032,-118.10417321389,194
394.3,33.913316221032,-118.10417321389,195
394.3,33.912766655629,-118.10417253075,196
394.3,33.912439664228,-118.10417212429,198
394.3,33.912439664228,-118.10417212429,199
394.3,33.914232632036,-118.09927672686,214
394.3,33.912644387886,-118.0992748454,220
394.3,33.909827862804,-118.09927480475,230
394.3,33.906521937317,-118.09962351185,242
394.3,33.902092094193,-118.10004005361,258
394.3,33.89846498032,-118.10001924843,271
394.3,33.894799406374,-118.09998851393,285
394.3,33.891169558118,-118.09995452978,298
394.3,33.887536971503,-118.09991066092,311
394.3,33.883967580553,-118.09987346045,324
394.3,33.880277297751,-118.09982294115,337
394.3,33.872946188708,-118.09973185736,364
394.3,33.865620548033,-118.09968032321,391
394.3,33.865620548033,-118.09968032321,392
394.3,33.86564650631,-118.09475262656,406
394.3,33.865663132283,-118.0910074401,418
394.3,33.865722900358,-118.08439657098,438
394.3,33.865740888099,-118.08222588342,444
394.3,33.869376211945,-118.08228215372,457
394.3,33.873019800836,-118.082308789,471
394.3,33.880367416664,-118.08238848198,497
394.3,33.883662036447,-118.0824147823,509
394.3,33.887618868616,-118.08246150473,524
394.3,33.890374913153,-118.08249387003,534
394.3,33.894895053821,-118.08253785954,550
394.3,33.898508419026,-118.08257436994,563
394.3,33.900332965205,-118.08258934862,570
394.3,33.902179492035,-118.08260764499,577
394.3,33.905397156978,-118.08266683987,589
394.3,33.903968299037,-118.08264895336,594
394.3,33.909989054142,-118.08226270521,616
394.3,33.907406711987,-118.07717509636,634
394.3,33.908608070143,-118.0762995668,639
394.3,33.911087800588,-118.07439689772,650
394.3,33.914191189096,-118.07261001006,662
394.3,33.917117612464,-118.07263561741,673
394.3,33.917117612464,-118.07263561741,674
394.3,33.917120433827,-118.07694673311,686
394.3,33.917103485071,-118.08182143884,701
394.3,33.917092187013,-118.08620505099,714
394.3,33.917092123349,-118.0900514332,726
394.3,33.917099419309,-118.09487013135,740
394.3,33.917090381085,-118.0992702245,754
394.3,33.917089519239,-118.1035615604,767
394.3,33.913346961103,-118.10357671038,780
394.3,33.913346961103,-118.10357671038,781
394.3,33.913316221032,-118.10417321389,782
394.3,33.913316221032,-118.10417321389,783
394.3,33.912766655629,-118.10417253075,784
394.3,33.912439664228,-118.10417212429,785
394.3,33.912439664228,-118.10417212429,786
394.3,33.914232632036,-118.09927672686,801
394.3,33.912644387886,-118.0992748454,807
394.3,33.909827862804,-118.09927480475,817
394.3,33.906521937317,-118.09962351185,830
394.3,33.902092094193,-118.10004005361,872
394.3,33.89846498032,-118.10001924843,885
394.3,33.894799406374,-118.09998851393,899
394.3,33.891169558118,-118.09995452978,912
394.3,33.887536971503,-118.09991066092,925
394.3,33.883967580553,-118.09987346045,938
394.3,33.880277297751,-118.09982294115,952
394.3,33.872946188708,-118.09973185736,978
394.3,33.865620548033,-118.09968032321,1005
394.3,33.865620548033,-118.09968032321,1006
394.3,33.86564650631,-118.09475262656,1020
394.3,33.865663132283,-118.0910074401,1032
394.3,33.865722900358,-118.08439657098,1052
394.3,33.865740888099,-118.08222588342,1058
394.3,33.869376211945,-118.08228215372,1072
394.3,33.873019800836,-118.082308789,1085
394.3,33.880367416664,-118.08238848198,1112
394.3,33.883662036447,-118.0824147823,1124
394.3,33.887618868616,-118.08246150473,1138
394.3,33.890374913153,-118.08249387003,1148
394.3,33.894895053821,-118.08253785954,1164
394.3,33.898508419026,-118.08257436994,1178
394.3,33.900332965205,-118.08258934862,1184
394.3,33.902179492035,-118.08260764499,1191
444.1,33.882075319791,-118.12528890268,0
444.1,33.882063000368,-118.12915013391,11
444.1,33.882041244532,-118.13397666147,26
444.1,33.884775316454,-118.13398762029,36
444.1,33.889298201414,-118.13401791356,52
444.1,33.891471719879,-118.13402797841,60
444.1,33.894277241333,-118.13403575932,70
444.1,33.896546927274,-118.13405256932,79
444.1,33.901627618101,-118.13409035338,97
444.1,33.904081424466,-118.13409427915,106
444.1,33.903224047384,-118.12911024208,122
444.1,33.901980490206,-118.12536149704,134
444.1,33.901991921945,-118.12225728047,143
444.1,33.902019433682,-118.11667826641,160
444.1,33.896625491898,-118.11663451138,180
444.1,33.893448376565,-118.11728250635,191
444.1,33.889364989364,-118.11740529321,206
444.1,33.888366196037,-118.11305142545,220
444.1,33.887600546962,-118.10590726965,242
444.1,33.887498977124,-118.10261564174,252
444.1,33.887536971503,-118.09991066092,260
444.1,33.887562470401,-118.09557473891,273
444.1,33.887585087936,-118.09120915812,287
444.1,33.887599273013,-118.08688639878,300
444.1,33.887618868616,-118.08246150473,313
444.1,33.890374913153,-118.08249387003,323
444.1,33.894895053821,-118.08253785954,340
444.1,33.898508419026,-118.08257436994,353
444.1,33.900332965205,-118.08258934862,359
444.1,33.902179492035,-118.08260764499,366
444.2,33.882075319791,-118.12528890268,0
444.2,33.882063000368,-118.12915013391,11
444.2,33.882041244532,-118.13397666147,26
444.2,33.884775316454,-118.13398762029,36
444.2,33.889298201414,-118.13401791356,52
444.2,33.891471719879,-118.13402797841,60
444.2,33.894277241333,-118.13403575932,70
444.2,33.896546927274,-118.13405256932,79
444.2,33.901627618101,-118.13409035338,97
444.2,33.904081424466,-118.13409427915,106
444.2,33.903224047384,-118.12911024208,122
444.2,33.901980490206,-118.12536149704,134
444.2,33.901991921945,-118.12225728047,143
444.2,33.902019433682,-118.11667826641,160
444.2,33.896625491898,-118.11663451138,180
444.2,33.893448376565,-118.11728250635,191
444.2,33.889364989364,-118.11740529321,206
444.2,33.888366196037,-118.11305142545,220
444.2,33.887600546962,-118.10590726965,242
444.2,33.887498977124,-118.10261564174,252
444.2,33.887536971503,-118.09991066092,260
444.2,33.887562470401,-118.09557473891,273
444.2,33.887585087936,-118.09120915812,287
444.2,33.887599273013,-118.08688639878,300
444.2,33.887618868616,-118.08246150473,313
444.2,33.890374913153,-118.08249387003,323
444.2,33.894895053821,-118.08253785954,340
444.2,33.898508419026,-118.08257436994,353
444.2,33.900332965205,-118.08258934862,359
444.2,33.902179492035,-118.08260764499,366
444.2,33.903968299037,-118.08264895336,373
444.2,33.905397156978,-118.08266683987,378
444.2,33.909989054142,-118.08226270521,395
444.2,33.907406711987,-118.07717509636,413
444.2,33.909408076184,-118.07568400767,421
444.2,33.911087800588,-118.07439689772,428
444.2,33.914191189096,-118.07261001006,441
444.2,33.917117612464,-118.07263561741,452
444.3,33.882075319791,-118.12528890268,0
444.3,33.882063000368,-118.12915013391,11
444.3,33.882041244532,-118.13397666147,26
444.3,33.884775316454,-118.13398762029,36
444.3,33.889298201414,-118.13401791356,52
444.3,33.891471719879,-118.13402797841,60
444.3,33.894277241333,-118.13403575932,70
444.3,33.896546927274,-118.13405256932,79
444.3,33.901627618101,-118.13409035338,97
444.3,33.904081424466,-118.13409427915,106
444.3,33.903224047384,-118.12911024208,122
444.3,33.901980490206,-118.12536149704,134
444.3,33.901991921945,-118.12225728047,143
444.3,33.902019433682,-118.11667826641,160
444.3,33.896625491898,-118.11663451138,180
444.3,33.893448376565,-118.11728250635,191
444.3,33.889364989364,-118.11740529321,206
444.3,33.888366196037,-118.11305142545,220
444.3,33.887600546962,-118.10590726965,242
444.3,33.887498977124,-118.10261564174,252
444.3,33.887536971503,-118.09991066092,260
444.3,33.887562470401,-118.09557473891,273
444.3,33.887585087936,-118.09120915812,287
444.3,33.887599273013,-118.08688639878,300
444.3,33.887618868616,-118.08246150473,313
444.3,33.890374913153,-118.08249387003,323
444.3,33.894895053821,-118.08253785954,340
444.3,33.898508419026,-118.08257436994,353
444.3,33.900332965205,-118.08258934862,359
444.3,33.902179492035,-118.08260764499,366
444.3,33.903968299037,-118.08264895336,373
444.3,33.905397156978,-118.08266683987,378
444.3,33.909989054142,-118.08226270521,395
444.3,33.907406711987,-118.07717509636,413
444.3,33.909408076184,-118.07568400767,421
444.3,33.911087800588,-118.07439689772,428
444.3,33.914191189096,-118.07261001006,441
444.3,33.917117612464,-118.07263561741,452
444.3,33.920772215398,-118.07265526574,465
444.3,33.923728872553,-118.07267101425,476
444.3,33.925880417976,-118.07268276915,484
444.3,33.928872794272,-118.07270514341,494
444.3,33.931692057895,-118.07272736901,505
444.3,33.93533019829,-118.07271404372,518
444.3,33.935288608881,-118.08186886838,546
444.3,33.935281300863,-118.08449630946,554
444.3,33.935287122186,-118.0878852953,564
444.3,33.935307097048,-118.09059847895,572
444.3,33.93930243653,-118.09061598685,587
444.3,33.942959793684,-118.09063313077,600
444.3,33.946133565138,-118.09060689059,612
444.3,33.948742066101,-118.08953152672,622
444.3,33.952645708532,-118.08719457608,637
444.3,33.955941346553,-118.08582955007,650
444.3,33.957799300967,-118.0852444884,657
444.3,33.959618884817,-118.08451426624,664
444.3,33.961754648882,-118.08352051146,672
444.3,33.967028611169,-118.0822758583,692
444.3,33.966373761056,-118.07946540706,701
444.3,33.965548925826,-118.07594910136,712
444.3,33.964730555395,-118.07062565884,728
444.3,33.967373731332,-118.07104672563,738
444.3,33.968884700208,-118.07162845459,744
444.3,33.972521399929,-118.07401941739,759
444.3,33.976507430585,-118.07577433559,774
444.3,33.979753680889,-118.07408848031,787
444.3,33.982505935127,-118.07133004439,800
444.3,33.984581742739,-118.06929656818,810
444.3,33.986008668676,-118.06789911316,817
444.3,33.989923701765,-118.06405585943,835
444.3,33.992288057025,-118.06173852971,846
444.3,33.995270933978,-118.05880788773,860
444.3,33.998690847216,-118.0554451375,876
444.3,33.999517985311,-118.05536650445,879
444.3,34.001550999804,-118.05621576443,887
444.3,34.005549230796,-118.05597429085,902
444.3,34.011685760034,-118.04826043996,934
444.3,34.013615502423,-118.04634109387,943
444.3,34.01724179563,-118.04115565859,964
444.3,34.020004455366,-118.03788670813,978
444.3,34.023627012027,-118.0349380123,994
444.3,34.024462855814,-118.03317606259,1000
444.3,34.028833721108,-118.02589390734,1027
444.3,34.031078718772,-118.02588140019,1035
444.4,33.902179492035,-118.08260764499,366
444.4,33.903968299037,-118.08264895336,373
444.4,33.905397156978,-118.08266683987,378
444.4,33.909989054142,-118.08226270521,395
444.4,33.907406711987,-118.07717509636,413
444.4,33.909408076184,-118.07568400767,421
444.4,33.911087800588,-118.07439689772,428
444.4,33.914191189096,-118.07261001006,441
444.4,33.917117612464,-118.07263561741,452
444.4,33.920772215398,-118.07265526574,465
444.4,33.923728872553,-118.07267101425,476
444.4,33.925880417976,-118.07268276915,484
444.4,33.928872794272,-118.07270514341,494
444.4,33.931692057895,-118.07272736901,505
444.4,33.93533019829,-118.07271404372,518
444.4,33.935288608881,-118.08186886838,546
444.4,33.935281300863,-118.08449630946,554
444.4,33.935287122186,-118.0878852953,564
444.4,33.935307097048,-118.09059847895,572
444.4,33.93930243653,-118.09061598685,587
444.4,33.942959793684,-118.09063313077,600
444.4,33.946133565138,-118.09060689059,612
444.4,33.948742066101,-118.08953152672,622
444.4,33.952645708532,-118.08719457608,637
444.4,33.955941346553,-118.08582955007,650
444.4,33.957799300967,-118.0852444884,657
444.4,33.959618884817,-118.08451426624,664
444.4,33.961754648882,-118.08352051146,672
444.4,33.967028611169,-118.0822758583,692
444.4,33.966373761056,-118.07946540706,701
444.4,33.965548925826,-118.07594910136,712
444.4,33.964730555395,-118.07062565884,728
444.4,33.967373731332,-118.07104672563,738
444.4,33.968884700208,-118.07162845459,744
444.4,33.972521399929,-118.07401941739,759
444.4,33.976507430585,-118.07577433559,774
444.4,33.979753680889,-118.07408848031,787
444.4,33.982505935127,-118.07133004439,800
444.4,33.984581742739,-118.06929656818,810
444.4,33.986008668676,-118.06789911316,817
444.4,33.989923701765,-118.06405585943,835
444.4,33.992288057025,-118.06173852971,846
444.4,33.995270933978,-118.05880788773,860
444.4,33.998690847216,-118.0554451375,876
444.4,33.999517985311,-118.05536650445,879
444.4,34.001550999804,-118.05621576443,887
444.4,34.005549230796,-118.05597429085,902
444.4,34.011685760034,-118.04826043996,934
444.4,34.013615502423,-118.04634109387,943
444.4,34.01724179563,-118.04115565859,964
444.4,34.020004455366,-118.03788670813,978
444.4,34.023627012027,-118.0349380123,994
444.4,34.024462855814,-118.03317606259,1000
444.4,34.028833721108,-118.02589390734,1027
444.4,34.031078718772,-118.02588140019,1035
445.1,33.917117612464,-118.07263561741,748
445.1,33.914191189096,-118.07261001006,758
445.1,33.911087800588,-118.07439689772,771
445.1,33.909408076184,-118.07568400767,778
445.1,33.907406711987,-118.07717509636,787
445.1,33.909989054142,-118.08226270521,805
445.1,33.905397156978,-118.08266683987,821
445.1,33.902179492035,-118.08260764499,833
445.1,33.900332965205,-118.08258934862,840
445.1,33.898508419026,-118.08257436994,846
445.1,33.894895053821,-118.08253785954,860
445.1,33.892463251115,-118.08250581018,868
445.1,33.890374913153,-118.08249387003,876
445.1,33.887618868616,-118.08246150473,886
445.1,33.887599273013,-118.08688639878,900
445.1,33.887585087936,-118.09120915812,913
445.1,33.887558323762,-118.09385814525,921
445.1,33.887562470401,-118.09557473891,926
445.1,33.887536971503,-118.09991066092,939
445.1,33.887592384531,-118.10581500499,957
445.1,33.888366196037,-118.11305142545,979
445.1,33.889364989364,-118.11740529321,993
445.1,33.889364989364,-118.11740529321,994
445.1,33.881932217785,-118.11731251977,1020
445.1,33.882089403907,-118.12227767532,1035
445.1,33.882075319791,-118.12528890268,1044
445.2,34.031078718772,-118.02588140019,105
445.2,34.028833721108,-118.02589390734,114
445.2,34.024361129844,-118.03337733329,142
445.2,34.023627012027,-118.0349380123,147
445.2,34.020004455366,-118.03788670813,163
445.2,34.010198123099,-118.05082008938,216
445.2,34.015303552465,-118.04401565272,244
445.2,34.013615502423,-118.04634109387,253
445.2,34.011685760034,-118.04826043996,262
445.2,34.008781077936,-118.05515485977,286
445.2,34.007044154569,-118.05577072155,292
445.2,34.001550999804,-118.05621576443,312
445.2,33.999517985311,-118.05536650445,320
445.2,33.998690847216,-118.0554451375,323
445.2,33.995996705616,-118.0581056971,336
445.2,33.992288057025,-118.06173852971,353
445.2,33.989923701765,-118.06405585943,364
445.2,33.986008668676,-118.06789911316,383
445.2,33.983286770602,-118.07056874161,395
445.2,33.980729762549,-118.07310970076,407
445.2,33.976507430585,-118.07577433559,425
445.2,33.972521399929,-118.07401941739,440
445.2,33.968884700208,-118.07162845459,455
445.2,33.964730555395,-118.07062565884,471
445.2,33.965548925826,-118.07594910136,487
445.2,33.966373761056,-118.07946540706,498
445.2,33.967028611169,-118.0822758583,507
445.2,33.967028611169,-118.0822758583,508
445.2,33.961754648882,-118.08352051146,527
445.2,33.959618884817,-118.08451426624,535
445.2,33.957730774897,-118.08500369704,542
445.2,33.955941346553,-118.08582955007,549
445.2,33.952645708532,-118.08719457608,562
445.2,33.948742066101,-118.08953152672,578
445.2,33.945825800177,-118.09061644898,589
445.2,33.942959793684,-118.09063313077,599
445.2,33.93930243653,-118.09061598685,612
445.2,33.935307097048,-118.09059847895,627
445.2,33.935308363025,-118.0888973965,632
445.2,33.935281300863,-118.08449630946,646
445.2,33.935288608881,-118.08186886838,653
445.2,33.935310677029,-118.07758321391,666
445.2,33.935306213936,-118.07596124636,671
445.2,33.93533019829,-118.07271404372,681
445.2,33.930974877676,-118.07272015348,697
445.2,33.928872794272,-118.07270514341,705
445.2,33.925880417976,-118.07268276915,716
445.2,33.923728872553,-118.07267101425,723
445.2,33.920772215398,-118.07265526574,734
445.2,33.919087801897,-118.07264391721,740
445.2,33.917117612464,-118.07263561741,748
445.3,34.031078718772,-118.02588140019,105
445.3,34.028833721108,-118.02589390734,114
445.3,34.024361129844,-118.03337733329,142
445.3,34.023627012027,-118.0349380123,147
445.3,34.020004455366,-118.03788670813,163
445.3,34.010198123099,-118.05082008938,216
445.3,34.015303552465,-118.04401565272,244
445.3,34.013615502423,-118.04634109387,253
445.3,34.011685760034,-118.04826043996,262
445.3,34.008781077936,-118.05515485977,286
445.3,34.007044154569,-118.05577072155,292
445.3,34.001550999804,-118.05621576443,312
445.3,33.999517985311,-118.05536650445,320
445.3,33.998690847216,-118.0554451375,323
445.3,33.995996705616,-118.0581056971,336
445.3,33.992288057025,-118.06173852971,353
445.3,33.989923701765,-118.06405585943,364
445.3,33.986008668676,-118.06789911316,383
445.3,33.983286770602,-118.07056874161,395
445.3,33.980729762549,-118.07310970076,407
445.3,33.976507430585,-118.07577433559,425
445.3,33.972521399929,-118.07401941739,440
445.3,33.968884700208,-118.07162845459,455
445.3,33.964730555395,-118.07062565884,471
445.3,33.965548925826,-118.07594910136,487
445.3,33.966373761056,-118.07946540706,498
445.3,33.967028611169,-118.0822758583,507
445.3,33.967028611169,-118.0822758583,508
445.3,33.961754648882,-118.08352051146,527
445.3,33.959618884817,-118.08451426624,535
445.3,33.957730774897,-118.08500369704,542
445.3,33.955941346553,-118.08582955007,549
445.3,33.952645708532,-118.08719457608,562
445.3,33.948742066101,-118.08953152672,578
445.3,33.945825800177,-118.09061644898,589
445.3,33.942959793684,-118.09063313077,599
445.3,33.93930243653,-118.09061598685,612
445.3,33.935307097048,-118.09059847895,627
445.3,33.935308363025,-118.0888973965,632
445.3,33.935281300863,-118.08449630946,646
445.3,33.935288608881,-118.08186886838,653
445.3,33.935310677029,-118.07758321391,666
445.3,33.935306213936,-118.07596124636,671
445.3,33.93533019829,-118.07271404372,681
445.3,33.930974877676,-118.07272015348,697
445.3,33.928872794272,-118.07270514341,705
445.3,33.925880417976,-118.07268276915,716
445.3,33.923728872553,-118.07267101425,723
445.3,33.920772215398,-118.07265526574,734
445.3,33.919087801897,-118.07264391721,740
445.3,33.917117612464,-118.07263561741,748
445.3,33.914191189096,-118.07261001006,758
445.3,33.911087800588,-118.07439689772,771
445.3,33.909408076184,-118.07568400767,778
445.3,33.907406711987,-118.07717509636,787
445.3,33.909989054142,-118.08226270521,805
445.3,33.905397156978,-118.08266683987,821
445.3,33.902179492035,-118.08260764499,833
445.3,33.900332965205,-118.08258934862,840
445.3,33.898508419026,-118.08257436994,846
445.3,33.894895053821,-118.08253785954,860
445.3,33.892463251115,-118.08250581018,868
445.3,33.890374913153,-118.08249387003,876
445.3,33.887618868616,-118.08246150473,886
445.3,33.887599273013,-118.08688639878,900
445.3,33.887585087936,-118.09120915812,913
445.3,33.887558323762,-118.09385814525,921
445.3,33.887562470401,-118.09557473891,926
445.3,33.887536971503,-118.09991066092,939
445.3,33.887592384531,-118.10581500499,957
445.3,33.888366196037,-118.11305142545,979
445.3,33.889364989364,-118.11740529321,993
445.3,33.889364989364,-118.11740529321,994
445.3,33.881932217785,-118.11731251977,1020
445.3,33.882089403907,-118.12227767532,1035
445.3,33.882075319791,-118.12528890268,1044
446.1,33.905397156978,-118.08266683987,0
446.1,33.902179492035,-118.08260764499,11
446.1,33.900332965205,-118.08258934862,18
446.1,33.898508419026,-118.08257436994,25
446.1,33.894895053821,-118.08253785954,38
446.1,33.892119768824,-118.08251206205,48
446.1,33.890374913153,-118.08249387003,54
446.1,33.887618868616,-118.08246150473,64
446.1,33.883662036447,-118.0824147823,79
446.1,33.880367416664,-118.08238848198,91
446.1,33.873019800836,-118.082308789,117
446.1,33.870401111349,-118.08233586545,127
446.1,33.869376211945,-118.08228215372,131
446.1,33.865740888099,-118.08222588342,144
446.1,33.865722900358,-118.08439657098,150
446.1,33.865663132283,-118.0910074401,170
446.1,33.86564650631,-118.09475262656,182
446.1,33.865620548033,-118.09968032321,197
446.1,33.872946188708,-118.09973185736,224
446.1,33.878329113676,-118.0997975605,244
446.1,33.880277297751,-118.09982294115,251
446.1,33.883967580553,-118.09987346045,264
446.1,33.887536971503,-118.09991066092,277
446.1,33.891169558118,-118.09995452978,290
446.1,33.894799406374,-118.09998851393,304
446.1,33.89846498032,-118.10001924843,317
446.1,33.902092094193,-118.10004005361,330
446.1,33.906521937317,-118.09962351185,346
446.1,33.909827862804,-118.09927480475,359
446.1,33.9126965966,-118.09927490725,369
446.1,33.914697009456,-118.09928386871,376
446.1,33.913908391116,-118.09927304692,379
446.1,33.913908391116,-118.09927304692,380
446.1,33.913316221032,-118.10417321389,419
446.1,33.913316221032,-118.10417321389,420
446.1,33.912766655629,-118.10417253075,421
446.1,33.912439664228,-118.10417212429,423
446.1,33.912439664228,-118.10417212429,424
446.1,33.912440178195,-118.10357558967,425
446.1,33.912440178195,-118.10357558967,426
446.1,33.914380163962,-118.10355491641,431
446.1,33.917089519239,-118.1035615604,441
446.1,33.917090381085,-118.0992702245,454
446.1,33.917099419309,-118.09487013135,468
446.1,33.917091748124,-118.09055241832,481
446.1,33.917092187013,-118.08620505099,494
446.1,33.917103485071,-118.08182143884,507
446.1,33.917120433827,-118.07694673311,522
446.1,33.917124529893,-118.07480436395,529
446.1,33.917117612464,-118.07263561741,535
446.2,33.905397156978,-118.08266683987,0
446.2,33.902179492035,-118.08260764499,11
446.2,33.900332965205,-118.08258934862,18
446.2,33.898508419026,-118.08257436994,25
446.2,33.894895053821,-118.08253785954,38
446.2,33.892119768824,-118.08251206205,48
446.2,33.890374913153,-118.08249387003,54
446.2,33.887618868616,-118.08246150473,64
446.2,33.883662036447,-118.0824147823,79
446.2,33.880367416664,-118.08238848198,91
446.2,33.873019800836,-118.082308789,117
446.2,33.870401111349,-118.08233586545,127
446.2,33.869376211945,-118.08228215372,131
446.2,33.865740888099,-118.08222588342,144
446.2,33.865722900358,-118.08439657098,150
446.2,33.865663132283,-118.0910074401,170
446.2,33.86564650631,-118.09475262656,182
446.2,33.865620548033,-118.09968032321,197
446.2,33.872946188708,-118.09973185736,224
446.2,33.878329113676,-118.0997975605,244
446.2,33.880277297751,-118.09982294115,251
446.2,33.883967580553,-118.09987346045,264
446.2,33.887536971503,-118.09991066092,277
446.2,33.891169558118,-118.09995452978,290
446.2,33.894799406374,-118.09998851393,304
446.2,33.89846498032,-118.10001924843,317
446.2,33.902092094193,-118.10004005361,330
446.2,33.906521937317,-118.09962351185,346
446.2,33.909827862804,-118.09927480475,359
446.2,33.9126965966,-118.09927490725,369
446.2,33.914697009456,-118.09928386871,376
446.2,33.913908391116,-118.09927304692,379
446.2,33.913908391116,-118.09927304692,380
446.2,33.913316221032,-118.10417321389,419
446.2,33.913316221032,-118.10417321389,420
446.2,33.912766655629,-118.10417253075,421
446.2,33.912439664228,-118.10417212429,423
446.2,33.912439664228,-118.10417212429,424
446.2,33.912440178195,-118.10357558967,425
446.2,33.912440178195,-118.10357558967,426
446.2,33.914380163962,-118.10355491641,431
446.2,33.917089519239,-118.1035615604,441
446.2,33.917090381085,-118.0992702245,454
446.2,33.917099419309,-118.09487013135,468
446.2,33.917091748124,-118.09055241832,481
446.2,33.917092187013,-118.08620505099,494
446.2,33.917103485071,-118.08182143884,507
446.2,33.917120433827,-118.07694673311,522
446.2,33.917124529893,-118.07480436395,529
446.2,33.917117612464,-118.07263561741,535
446.2,33.914191189096,-118.07261001006,546
446.2,33.912258938988,-118.0734784184,553
446.2,33.911087800588,-118.07439689772,559
446.2,33.909408076184,-118.07568400767,566
446.2,33.907406711987,-118.07717509636,574
446.2,33.909989054142,-118.08226270521,592
446.2,33.905397156978,-118.08266683987,609
446.2,33.902179492035,-118.08260764499,621
446.2,33.900332965205,-118.08258934862,628
446.2,33.898508419026,-118.08257436994,634
446.2,33.894895053821,-118.08253785954,648
446.2,33.892119768824,-118.08251206205,658
446.2,33.890374913153,-118.08249387003,664
446.2,33.887618868616,-118.08246150473,674
446.2,33.883662036447,-118.0824147823,688
446.2,33.880367416664,-118.08238848198,700
446.2,33.873019800836,-118.082308789,727
446.2,33.870401111349,-118.08233586545,737
446.2,33.865740888099,-118.08222588342,754
446.2,33.865722900358,-118.08439657098,760
446.2,33.865663132283,-118.0910074401,780
446.2,33.86564650631,-118.09475262656,792
446.2,33.865620548033,-118.09968032321,807
446.2,33.872946188708,-118.09973185736,834
446.2,33.878329113676,-118.0997975605,854
446.2,33.880277297751,-118.09982294115,861
446.2,33.883967580553,-118.09987346045,874
446.2,33.887536971503,-118.09991066092,887
446.2,33.891169558118,-118.09995452978,900
446.2,33.894799406374,-118.09998851393,913
446.2,33.89846498032,-118.10001924843,927
446.2,33.902092094193,-118.10004005361,940
446.2,33.906521937317,-118.09962351185,956
446.2,33.909827862804,-118.09927480475,968
446.2,33.9126965966,-118.09927490725,979
446.2,33.914697009456,-118.09928386871,986
446.2,33.913908391116,-118.09927304692,989
446.2,33.913908391116,-118.09927304692,990
446.2,33.913316221032,-118.10417321389,1029
446.2,33.913316221032,-118.10417321389,1030
446.2,33.912766655629,-118.10417253075,1031
446.2,33.912439664228,-118.10417212429,1032
446.2,33.912439664228,-118.10417212429,1033
446.2,33.912440178195,-118.10357558967,1034
446.2,33.912440178195,-118.10357558967,1035
446.2,33.914380163962,-118.10355491641,1041
446.2,33.917089519239,-118.1035615604,1051
446.2,33.917090381085,-118.0992702245,1064
446.2,33.917099419309,-118.09487013135,1078
446.2,33.917091748124,-118.09055241832,1091
446.2,33.917092187013,-118.08620505099,1104
446.2,33.917103485071,-118.08182143884,1117
446.2,33.917120433827,-118.07694673311,1132
446.2,33.917124529893,-118.07480436395,1138
446.2,33.917117612464,-118.07263561741,1145
446.3,33.905397156978,-118.08266683987,0
446.3,33.902179492035,-118.08260764499,11
446.3,33.900332965205,-118.08258934862,18
446.3,33.898508419026,-118.08257436994,25
446.3,33.894895053821,-118.08253785954,38
446.3,33.892119768824,-118.08251206205,48
446.3,33.890374913153,-118.08249387003,54
446.3,33.887618868616,-118.08246150473,64
446.3,33.883662036447,-118.0824147823,79
446.3,33.880367416664,-118.08238848198,91
446.3,33.873019800836,-118.082308789,117
446.3,33.870401111349,-118.08233586545,127
446.3,33.869376211945,-118.08228215372,131
446.3,33.865740888099,-118.08222588342,144
446.3,33.865722900358,-118.08439657098,150
446.3,33.865663132283,-118.0910074401,170
446.3,33.86564650631,-118.09475262656,182
446.3,33.865620548033,-118.09968032321,197
446.3,33.872946188708,-118.09973185736,224
446.3,33.878329113676,-118.0997975605,244
446.3,33.880277297751,-118.09982294115,251
446.3,33.883967580553,-118.09987346045,264
446.3,33.887536971503,-118.09991066092,277
446.3,33.891169558118,-118.09995452978,290
446.3,33.894799406374,-118.09998851393,304
446.3,33.89846498032,-118.10001924843,317
446.3,33.902092094193,-118.10004005361,330
446.3,33.906521937317,-118.09962351185,346
446.3,33.909827862804,-118.09927480475,359
446.3,33.9126965966,-118.09927490725,369
446.3,33.914697009456,-118.09928386871,376
446.3,33.913908391116,-118.09927304692,379
446.3,33.913908391116,-118.09927304692,380
446.3,33.913316221032,-118.10417321389,419
446.3,33.913316221032,-118.10417321389,420
446.3,33.912766655629,-118.10417253075,421
446.3,33.912439664228,-118.10417212429,423
446.3,33.912439664228,-118.10417212429,424
446.3,33.912440178195,-118.10357558967,425
446.3,33.912440178195,-118.10357558967,426
446.3,33.914380163962,-118.10355491641,431
446.3,33.917089519239,-118.1035615604,441
446.3,33.917090381085,-118.0992702245,454
446.3,33.917099419309,-118.09487013135,468
446.3,33.917091748124,-118.09055241832,481
446.3,33.917092187013,-118.08620505099,494
446.3,33.917103485071,-118.08182143884,507
446.3,33.917120433827,-118.07694673311,522
446.3,33.917124529893,-118.07480436395,529
446.3,33.917117612464,-118.07263561741,535
446.3,33.914191189096,-118.07261001006,546
446.3,33.912258938988,-118.0734784184,553
446.3,33.911087800588,-118.07439689772,559
446.3,33.909408076184,-118.07568400767,566
446.3,33.907406711987,-118.07717509636,574
446.3,33.909989054142,-118.08226270521,592
446.3,33.905397156978,-118.08266683987,609
446.3,33.902179492035,-118.08260764499,621
446.3,33.900332965205,-118.08258934862,628
446.3,33.898508419026,-118.08257436994,634
446.3,33.894895053821,-118.08253785954,648
446.3,33.892119768824,-118.08251206205,658
446.3,33.890374913153,-118.08249387003,664
446.3,33.887618868616,-118.08246150473,674
446.3,33.883662036447,-118.0824147823,688
446.3,33.880367416664,-118.08238848198,700
446.3,33.873019800836,-118.082308789,727
446.3,33.870401111349,-118.08233586545,737
446.3,33.865740888099,-118.08222588342,754
446.3,33.865722900358,-118.08439657098,760
446.3,33.865663132283,-118.0910074401,780
446.3,33.86564650631,-118.09475262656,792
446.3,33.865620548033,-118.09968032321,807
446.3,33.872946188708,-118.09973185736,834
446.3,33.878329113676,-118.0997975605,854
446.3,33.880277297751,-118.09982294115,861
446.3,33.883967580553,-118.09987346045,874
446.3,33.887536971503,-118.09991066092,887
446.3,33.891169558118,-118.09995452978,900
446.3,33.894799406374,-118.09998851393,913
446.3,33.89846498032,-118.10001924843,927
446.3,33.902092094193,-118.10004005361,940
446.3,33.906521937317,-118.09962351185,956
446.3,33.909827862804,-118.09927480475,968
446.3,33.9126965966,-118.09927490725,979
446.3,33.914697009456,-118.09928386871,986
446.3,33.913908391116,-118.09927304692,989
446.3,33.913908391116,-118.09927304692,990
446.3,33.913316221032,-118.10417321389,1029
446.3,33.913316221032,-118.10417321389,1030
446.3,33.912766655629,-118.10417253075,1031
446.3,33.912439664228,-118.10417212429,1032
446.3,33.912439664228,-118.10417212429,1033
446.3,33.912440178195,-118.10357558967,1034
446.3,33.912440178195,-118.10357558967,1035
446.3,33.914380163962,-118.10355491641,1041
446.3,33.917089519239,-118.1035615604,1051
446.3,33.917090381085,-118.0992702245,1064
446.3,33.917099419309,-118.09487013135,1078
446.3,33.917091748124,-118.09055241832,1091
446.3,33.917092187013,-118.08620505099,1104
446.3,33.917103485071,-118.08182143884,1117
446.3,33.917120433827,-118.07694673311,1132
446.3,33.917124529893,-118.07480436395,1138
446.3,33.917117612464,-118.07263561741,1145
446.3,33.914191189096,-118.07261001006,1156
446.3,33.912258938988,-118.0734784184,1163
446.3,33.911087800588,-118.07439689772,1168
446.3,33.909408076184,-118.07568400767,1176
446.3,33.907406711987,-118.07717509636,1184
446.3,33.909989054142,-118.08226270521,1202
446.3,33.905397156978,-118.08266683987,1219
446.4,33.917117612464,-118.07263561741,535
446.4,33.914191189096,-118.07261001006,546
446.4,33.912258938988,-118.0734784184,553
446.4,33.911087800588,-118.07439689772,559
446.4,33.909408076184,-118.07568400767,566
446.4,33.907406711987,-118.07717509636,574
446.4,33.909989054142,-118.08226270521,592
446.4,33.905397156978,-118.08266683987,609
446.4,33.902179492035,-118.08260764499,621
446.4,33.900332965205,-118.08258934862,628
446.4,33.898508419026,-118.08257436994,634
446.4,33.894895053821,-118.08253785954,648
446.4,33.892119768824,-118.08251206205,658
446.4,33.890374913153,-118.08249387003,664
446.4,33.887618868616,-118.08246150473,674
446.4,33.883662036447,-118.0824147823,688
446.4,33.880367416664,-118.08238848198,700
446.4,33.873019800836,-118.082308789,727
446.4,33.870401111349,-118.08233586545,737
446.4,33.865740888099,-118.08222588342,754
446.4,33.865722900358,-118.08439657098,760
446.4,33.865663132283,-118.0910074401,780
446.4,33.86564650631,-118.09475262656,792
446.4,33.865620548033,-118.09968032321,807
446.4,33.872946188708,-118.09973185736,834
446.4,33.878329113676,-118.0997975605,854
446.4,33.880277297751,-118.09982294115,861
446.4,33.883967580553,-118.09987346045,874
446.4,33.887536971503,-118.09991066092,887
446.4,33.891169558118,-118.09995452978,900
446.4,33.894799406374,-118.09998851393,913
446.4,33.89846498032,-118.10001924843,927
446.4,33.902092094193,-118.10004005361,940
446.4,33.906521937317,-118.09962351185,956
446.4,33.909827862804,-118.09927480475,968
446.4,33.9126965966,-118.09927490725,979
446.4,33.914697009456,-118.09928386871,986
446.4,33.913908391116,-118.09927304692,989
446.4,33.913908391116,-118.09927304692,990
446.4,33.913316221032,-118.10417321389,1029
446.4,33.913316221032,-118.10417321389,1030
446.4,33.912766655629,-118.10417253075,1031
446.4,33.912439664228,-118.10417212429,1032
446.4,33.912439664228,-118.10417212429,1033
446.4,33.912440178195,-118.10357558967,1034
446.4,33.912440178195,-118.10357558967,1035
446.4,33.914380163962,-118.10355491641,1041
446.4,33.917089519239,-118.1035615604,1051
446.4,33.917090381085,-118.0992702245,1064
446.4,33.917099419309,-118.09487013135,1078
446.4,33.917091748124,-118.09055241832,1091
446.4,33.917092187013,-118.08620505099,1104
446.4,33.917103485071,-118.08182143884,1117
446.4,33.917120433827,-118.07694673311,1132
446.4,33.917124529893,-118.07480436395,1138
446.4,33.917117612464,-118.07263561741,1145
446.4,33.914191189096,-118.07261001006,1156
446.4,33.912258938988,-118.0734784184,1163
446.4,33.911087800588,-118.07439689772,1168
446.4,33.909408076184,-118.07568400767,1176
446.4,33.907406711987,-118.07717509636,1184
446.4,33.909989054142,-118.08226270521,1202
446.4,33.905397156978,-118.08266683987,1219
448.1,33.880387362292,-118.0727454588,0
448.1,33.884745350815,-118.07283819693,15
448.1,33.887674489958,-118.07290334322,26
448.1,33.887676512021,-118.06948004735,36
448.1,33.887761929995,-118.06409640895,53
448.1,33.89504367855,-118.06406573109,79
448.1,33.902344661694,-118.06404494872,106
448.1,33.902375302274,-118.0577870493,125
448.1,33.902390191782,-118.05533529796,132
448.1,33.905170983869,-118.05535361136,142
448.1,33.909644432053,-118.05538622696,159
448.1,33.909629108099,-118.0587346106,169
448.1,33.909616313137,-118.06232687399,180
448.1,33.909601394568,-118.06456791318,187
448.1,33.911063229837,-118.06458551804,192
448.1,33.91372586611,-118.06460404919,202
448.1,33.91469586889,-118.06456854248,205
448.1,33.914290997225,-118.06630184587,211
448.1,33.913701590463,-118.06875017644,218
448.1,33.914191189096,-118.07261001006,230
448.1,33.917117612464,-118.07263561741,241
448.2,33.880387362292,-118.0727454588,0
448.2,33.884745350815,-118.07283819693,15
448.2,33.887674489958,-118.07290334322,26
448.2,33.887676512021,-118.06948004735,36
448.2,33.887761929995,-118.06409640895,53
448.2,33.89504367855,-118.06406573109,79
448.2,33.902344661694,-118.06404494872,106
448.2,33.902375302274,-118.0577870493,125
448.2,33.902390191782,-118.05533529796,132
448.2,33.905170983869,-118.05535361136,142
448.2,33.909644432053,-118.05538622696,159
448.2,33.909629108099,-118.0587346106,169
448.2,33.909616313137,-118.06232687399,180
448.2,33.909601394568,-118.06456791318,187
448.2,33.911063229837,-118.06458551804,192
448.2,33.91372586611,-118.06460404919,202
448.2,33.91469586889,-118.06456854248,205
448.2,33.914290997225,-118.06630184587,211
448.2,33.913701590463,-118.06875017644,218
448.2,33.914191189096,-118.07261001006,230
448.2,33.917117612464,-118.07263561741,241
448.2,33.920772215398,-118.07265526574,254
448.2,33.923728872553,-118.07267101425,265
448.2,33.925880417976,-118.07268276915,273
448.2,33.928872794272,-118.07270514341,284
448.2,33.931692057895,-118.07272736901,294
448.2,33.931685858838,-118.07388444604,297
448.2,33.931681633404,-118.0762579446,305
448.2,33.931682501015,-118.07917537538,313
448.2,33.931680707083,-118.0818620465,322
448.2,33.933469550361,-118.0818572011,328
448.2,33.935288608881,-118.08186886838,335
448.2,33.935281300863,-118.08449630946,343
448.2,33.935302396654,-118.08953364822,358
448.2,33.935307097048,-118.09059847895,361
448.2,33.93930243653,-118.09061598685,376
448.2,33.942959793684,-118.09063313077,389
448.2,33.946133565138,-118.09060689059,401
448.2,33.948742066101,-118.08953152672,411
448.2,33.948742066101,-118.08953152672,412
448.2,33.94722245455,-118.08583050832,423
448.2,33.945186987686,-118.08086964067,440
448.2,33.941905758698,-118.07272964184,467
448.2,33.941855738563,-118.06402240324,494
448.2,33.941862818501,-118.05526246233,520
448.2,33.941872767853,-118.05140505901,532
448.2,33.941706274599,-118.04869488457,540
448.2,33.940286501681,-118.04652142267,549
449.1,33.917117612464,-118.07263561741,307
449.1,33.914191189096,-118.07261001006,318
449.1,33.914208433589,-118.07134112524,322
449.1,33.913701590463,-118.06875017644,330
449.1,33.914290997225,-118.06630184587,338
449.1,33.91469586889,-118.06456854248,343
449.1,33.914138040331,-118.06460436693,346
449.1,33.911189628134,-118.06458891117,356
449.1,33.909601394568,-118.06456791318,362
449.1,33.909609929813,-118.06402083978,364
449.1,33.909616313137,-118.06232687399,369
449.1,33.909629108099,-118.0587346106,380
449.1,33.909644432053,-118.05538622696,390
449.1,33.907088962114,-118.0553647648,399
449.1,33.905170983869,-118.05535361136,406
449.1,33.903288727696,-118.05534248201,413
449.1,33.902390191782,-118.05533529796,416
449.1,33.902375302274,-118.0577870493,424
449.1,33.902357568931,-118.06033106833,431
449.1,33.902344661694,-118.06404494872,443
449.1,33.89504367855,-118.06406573109,469
449.1,33.887761929995,-118.06409640895,496
449.1,33.887676512021,-118.06948004735,512
449.1,33.887674489958,-118.07290334322,523
449.1,33.884745350815,-118.07283819693,533
449.1,33.880387362292,-118.0727454588,549
449.2,33.940286501681,-118.04652142267,0
449.2,33.941706274599,-118.04869488457,8
449.2,33.941872767853,-118.05140505901,16
449.2,33.941862818501,-118.05526246233,28
449.2,33.941855738563,-118.06402240324,54
449.2,33.941905758698,-118.07272964184,81
449.2,33.945186987686,-118.08086964067,108
449.2,33.94722245455,-118.08583050832,125
449.2,33.948742066101,-118.08953152672,138
449.2,33.945825800177,-118.09061644898,149
449.2,33.942959793684,-118.09063313077,159
449.2,33.93930243653,-118.09061598685,172
449.2,33.935307097048,-118.09059847895,187
449.2,33.935308363025,-118.0888973965,192
449.2,33.935281300863,-118.08449630946,205
449.2,33.935288608881,-118.08186886838,213
449.2,33.931680707083,-118.0818620465,227
449.2,33.93168160823,-118.08052365575,231
449.2,33.931683739109,-118.07726668503,240
449.2,33.931692057895,-118.07272736901,254
449.2,33.930974877676,-118.07272015348,257
449.2,33.928872794272,-118.07270514341,264
449.2,33.925880417976,-118.07268276915,275
449.2,33.923728872553,-118.07267101425,283
449.2,33.920772215398,-118.07265526574,294
449.2,33.919087801897,-118.07264391721,300
449.2,33.917117612464,-118.07263561741,307
449.3,33.940286501681,-118.04652142267,0
449.3,33.941706274599,-118.04869488457,8
449.3,33.941872767853,-118.05140505901,16
449.3,33.941862818501,-118.05526246233,28
449.3,33.941855738563,-118.06402240324,54
449.3,33.941905758698,-118.07272964184,81
449.3,33.945186987686,-118.08086964067,108
449.3,33.94722245455,-118.08583050832,125
449.3,33.948742066101,-118.08953152672,138
449.3,33.945825800177,-118.09061644898,149
449.3,33.942959793684,-118.09063313077,159
449.3,33.93930243653,-118.09061598685,172
449.3,33.935307097048,-118.09059847895,187
449.3,33.935308363025,-118.0888973965,192
449.3,33.935281300863,-118.08449630946,205
449.3,33.935288608881,-118.08186886838,213
449.3,33.931680707083,-118.0818620465,227
449.3,33.93168160823,-118.08052365575,231
449.3,33.931683739109,-118.07726668503,240
449.3,33.931692057895,-118.07272736901,254
449.3,33.930974877676,-118.07272015348,257
449.3,33.928872794272,-118.07270514341,264
449.3,33.925880417976,-118.07268276915,275
449.3,33.923728872553,-118.07267101425,283
449.3,33.920772215398,-118.07265526574,294
449.3,33.919087801897,-118.07264391721,300
449.3,33.917117612464,-118.07263561741,307
449.3,33.914191189096,-118.07261001006,318
449.3,33.914208433589,-118.07134112524,322
449.3,33.913701590463,-118.06875017644,330
449.3,33.914290997225,-118.06630184587,338
449.3,33.91469586889,-118.06456854248,343
449.3,33.914138040331,-118.06460436693,346
449.3,33.911189628134,-118.06458891117,356
449.3,33.909601394568,-118.06456791318,362
449.3,33.909609929813,-118.06402083978,364
449.3,33.909616313137,-118.06232687399,369
449.3,33.909629108099,-118.0587346106,380
449.3,33.909644432053,-118.05538622696,390
449.3,33.907088962114,-118.0553647648,399
449.3,33.905170983869,-118.05535361136,406
449.3,33.903288727696,-118.05534248201,413
449.3,33.902390191782,-118.05533529796,416
449.3,33.902375302274,-118.0577870493,424
449.3,33.902357568931,-118.06033106833,431
449.3,33.902344661694,-118.06404494872,443
449.3,33.89504367855,-118.06406573109,469
449.3,33.887761929995,-118.06409640895,496
449.3,33.887676512021,-118.06948004735,512
449.3,33.887674489958,-118.07290334322,523
449.3,33.884745350815,-118.07283819693,533
449.3,33.880387362292,-118.0727454588,549
