shape_id,shape_pt_lat,shape_pt_lon,shape_pt_sequence
3270.1,33.979465983803,-118.06295608549,0
3270.1,33.982806285688,-118.05966665061,15
3270.1,33.982800986706,-118.05926752312,16
3270.1,33.982732279513,-118.05340596829,34
3270.1,33.980590226859,-118.05046567794,46
3270.1,33.976782855803,-118.05417397764,64
3270.1,33.972277052193,-118.05864332521,85
3270.1,33.972271282673,-118.05920400299,87
3270.1,33.969382899339,-118.06001657073,98
3270.1,33.968593201984,-118.05653663222,109
3270.1,33.967743068996,-118.05278958717,120
3270.1,33.967365821396,-118.04811617544,135
3270.1,33.968026792479,-118.04422496121,147
3270.1,33.968192496281,-118.04189008774,154
3270.1,33.966212528265,-118.03819875911,167
3270.1,33.963243682959,-118.0328682047,187
3270.1,33.961176724647,-118.03494164129,196
3270.1,33.958202655302,-118.03794449056,210
3270.1,33.955489649096,-118.04067356448,223
3270.1,33.953411564172,-118.04275320567,233
3270.1,33.948821308257,-118.04645032679,253
3270.1,33.944100499299,-118.04651694663,270
3270.1,33.940286501681,-118.04652142267,284
3270.1,33.936282900911,-118.04653568315,299
3270.1,33.931724240529,-118.04654633735,316
3270.1,33.931727861828,-118.04422558069,323
3270.1,33.931731390269,-118.04204327817,329
3270.1,33.931735008252,-118.03946868817,337
3270.1,33.935353907793,-118.03946050296,350
3270.1,33.936867215514,-118.0416865114,359
3270.1,33.938913326387,-118.04455575847,370
3270.1,33.942256938925,-118.03799661331,394
3270.1,33.945657928485,-118.03132816261,417
3270.1,33.942864273147,-118.0276740749,432
3270.1,33.941750806295,-118.03014969881,441
3270.1,33.940586134425,-118.02846127682,448
3270.1,33.938179802642,-118.0249790535,461
3270.1,33.933493218962,-118.01815039477,488
3270.1,33.935315230305,-118.01678596684,496
3270.1,33.935214150296,-118.01181127296,511
3270.1,33.935247538712,-118.00628935481,528
3270.1,33.935244951935,-118.00084325537,544
3270.1,33.936956852689,-118.0008168987,551
3270.1,33.947033165028,-118.00078072848,587
3270.1,33.946315973131,-117.99851561003,595
3270.1,33.94540919108,-117.99887500675,598
3270.1,33.944889829343,-117.99749684691,603
3271.1,33.944516100119,-117.99654401494,0
3271.1,33.943826330459,-117.99479333218,5
3271.1,33.944746835424,-117.994348174,9
3271.1,33.947033165028,-118.00078072848,30
3271.1,33.935244951935,-118.00084325537,73
3271.1,33.93525032716,-118.0054552974,87
3271.1,33.935214150296,-118.01181127296,106
3271.1,33.935315230305,-118.01678596684,121
3271.1,33.933493218962,-118.01815039477,129
3271.1,33.936333785276,-118.02228838516,146
3271.1,33.939382985423,-118.02670035915,163
3271.1,33.941750806295,-118.03014969881,176
3271.1,33.942864273147,-118.0276740749,185
3271.1,33.945657928485,-118.03132816261,200
3271.1,33.943145026596,-118.03625291297,218
3271.1,33.941110361253,-118.04024787687,232
3271.1,33.938913326387,-118.04455575847,247
3271.1,33.936867215514,-118.0416865114,259
3271.1,33.935353907793,-118.03946050296,267
3271.1,33.931735008252,-118.03946868817,280
3271.1,33.931731390269,-118.04204327817,288
3271.1,33.931727861828,-118.04422558069,295
3271.1,33.931724240529,-118.04654633735,302
3271.1,33.940286501681,-118.04652142267,333
3271.1,33.944100499299,-118.04651694663,347
3271.1,33.950426319578,-118.04573241236,370
3271.1,33.953411564172,-118.04275320567,384
3271.1,33.955489649096,-118.04067356448,394
3271.1,33.958202655302,-118.03794449056,407
3271.1,33.961176724647,-118.03494164129,421
3271.1,33.963243682959,-118.0328682047,431
3271.1,33.965764882415,-118.03739387422,447
3271.1,33.968192496281,-118.04189008774,464
3271.1,33.968026792479,-118.04422496121,471
3271.1,33.967365821396,-118.04811617544,483
3271.1,33.967649822106,-118.05237728511,496
3271.1,33.968593201984,-118.05653663222,509
3271.1,33.969382899339,-118.06001657073,520
3271.1,33.972271282673,-118.05920400299,531
3271.1,33.972277052193,-118.05864332521,532
3271.1,33.977324417995,-118.0536432973,556
3271.1,33.980590226859,-118.05046567794,571
3271.1,33.982732279513,-118.05340596829,583
3271.1,33.982748152922,-118.0547748729,587
3271.1,33.982806285688,-118.05966665061,602
3271.1,33.979465983803,-118.06295608549,618
3272.1,33.944516100119,-117.99654401494,0
3272.1,33.943826330459,-117.99479333218,5
3272.1,33.944746835424,-117.994348174,9
3272.1,33.941311280551,-117.9853247659,39
3272.1,33.932089563729,-117.98544505676,73
3272.1,33.929633003242,-117.98546196574,82
3272.1,33.924675920093,-117.98550897336,100
3272.1,33.920826213454,-117.98554589622,114
3272.1,33.917355707785,-117.98557615852,126
3272.1,33.917336817048,-117.98881609613,136
3272.1,33.917317967795,-117.99433354408,153
3272.1,33.919126041013,-117.99435979011,159
3272.1,33.924542017797,-117.99441546179,179
3272.1,33.931213694,-117.99324145897,204
3272.1,33.930304316714,-117.99713467031,216
3272.1,33.929411302256,-118.00083990022,228
3272.1,33.928127902651,-118.00630530236,245
3272.1,33.927459993894,-118.00919286693,254
3272.1,33.926833251207,-118.01190238908,262
3272.1,33.925898522672,-118.01593693063,275
3272.1,33.924226665948,-118.02318174119,298
3272.1,33.926775844456,-118.0270655316,313
3272.1,33.928135566629,-118.02902073047,321
3272.1,33.922848710405,-118.02913756205,340
3272.1,33.9171139459,-118.02931354975,361
3272.1,33.91708255678,-118.03375978329,374
3272.1,33.918774736403,-118.03544473251,382
3272.1,33.920840356616,-118.03790449965,393
3272.1,33.918839606699,-118.0466776136,421
3272.1,33.921947464841,-118.04651783358,432
3272.1,33.924566146212,-118.04652258359,441
3272.1,33.924542860334,-118.04978585774,451
3272.1,33.924516635119,-118.05328316192,462
3272.1,33.928105285336,-118.05332500068,475
3272.1,33.930070221618,-118.05278892708,482
3272.1,33.927752529124,-118.04929660484,496
3272.1,33.929915245982,-118.04887263381,504
3272.1,33.931723318392,-118.048876985,510
3272.1,33.935748897915,-118.04886944338,525
3272.1,33.936282900911,-118.04653568315,532
3272.1,33.940286501681,-118.04652142267,547
3272.1,33.936867215514,-118.0416865114,566
3272.1,33.937816158608,-118.03887154055,575
3272.1,33.941750806295,-118.03014969881,605
3272.1,33.94367803421,-118.0258642895,620
3272.1,33.94615764175,-118.02033252164,639
3272.1,33.950640617307,-118.01053410496,673
3272.1,33.948838319397,-118.00653107119,687
3272.1,33.94848940124,-118.00537372977,691
3272.1,33.946315973131,-117.99851561003,713
3272.1,33.94540919108,-117.99887500675,716
3272.1,33.944516100119,-117.99654401494,724
3430.1,33.944746835424,-117.994348174,0
3430.1,33.946315973131,-117.99851561003,13
3430.1,33.948838319397,-118.00653107119,39
3430.1,33.950640617307,-118.01053410496,53
3430.1,33.94615764175,-118.02033252164,87
3430.1,33.94367803421,-118.0258642895,106
3430.1,33.942864273147,-118.0276740749,112
3430.1,33.941750806295,-118.03014969881,121
3430.1,33.937816158608,-118.03887154055,151
3430.1,33.936867215514,-118.0416865114,160
3430.1,33.938913326387,-118.04455575847,172
3430.1,33.940286501681,-118.04652142267,179
3430.1,33.936282900911,-118.04653568315,194
3430.1,33.935748897915,-118.04886944338,201
3430.1,33.929915245982,-118.04887263381,223
3430.1,33.927752529124,-118.04929660484,231
3430.1,33.928760406679,-118.05068828517,236
3430.1,33.930070221618,-118.05278892708,244
3430.1,33.928105285336,-118.05332500068,251
3430.1,33.924516635119,-118.05328316192,264
3430.1,33.924542860334,-118.04978585774,275
3430.1,33.924566146212,-118.04652258359,285
3430.1,33.918839606699,-118.0466776136,306
3430.1,33.920840356616,-118.03790449965,333
3430.1,33.91708255678,-118.03375978329,352
3430.1,33.9171139459,-118.02931354975,365
3430.1,33.922848710405,-118.02913756205,386
3430.1,33.928135566629,-118.02902073047,406
3430.1,33.926775844456,-118.0270655316,413
3430.1,33.924226665948,-118.02318174119,428
3430.1,33.925898522672,-118.01593693063,451
3430.1,33.926833251207,-118.01190238908,464
3430.1,33.927459993894,-118.00919286693,472
3430.1,33.928367013009,-118.00528673286,485
3430.1,33.930304316714,-117.99713467031,510
3430.1,33.931213694,-117.99324145897,523
3430.1,33.924542017797,-117.99441546179,547
3430.1,33.917317967795,-117.99433354408,573
3430.1,33.917336817048,-117.98881609613,590
3430.1,33.917355707785,-117.98557615852,600
3430.1,33.920826213454,-117.98554589622,613
3430.1,33.924675920093,-117.98550897336,627
3430.1,33.927912862235,-117.98547874611,638
3430.1,33.932089563729,-117.98544505676,654
3430.1,33.941311280551,-117.9853247659,687
3430.1,33.944746835424,-117.994348174,717
