stop_id,stop_name,stop_desc,stop_lat,stop_lon
10002,RIVES AV/IMPERIAL HWY,0,33.926262542727,-118.15638982732
10003,RIVES AV/QUILL DR,0,33.929048878454,-118.15423256962
10004,OLD RIVER SCHOOL RD/STEWART AND GRAY RD,0,33.940194297734,-118.1540816509
10005,IMPERIAL HWY/PARAMOUNT BLVD,0,33.924053382863,-118.15201489817
10006,GARDENDALE ST/DOWNEY AV,0,33.914870456683,-118.15175105026
10007,OLD RIVER SCHOOL RD/ARNETT ST,0,33.945684006149,-118.15009897837
10008,DOWNEY AV/COMOLETTE AV,0,33.918060976272,-118.14932108545
10009,BROOKSHIRE AV/GARDENDALE ST,0,33.913500082196,-118.14891086905
10010,PRICHARD ST/BARLIN AV,0,33.906966498267,-118.14829617272
10011,STEWART AND GRAY RD/RIVES AV,0,33.937008834272,-118.14807571955
10012,BROOKSHIRE AV/PURITAN ST,0,33.914930645336,-118.14753573543
10013,OLD RIVER SCHOOL RD/PELLET ST,0,33.949226328406,-118.14758294917
10015,IMPERIAL HWY/DOWNEY AV,0,33.92143839641,-118.14681215617
10016,GOLDEN AV/BLODGETT AV,0,33.90815591048,-118.14637364211
10019,BROOKSHIRE AV/BORSON ST,0,33.917887296391,-118.14528648306
10022,IMPERIAL HWY/BROOKSHIRE AV,0,33.919798731792,-118.14387578475
10023,GARDENDALE ST/LAKEWOOD BLVD,0,33.910509908989,-118.14253167083
10024,GARDENDALE ST/VULTEE AV,0,33.909865678976,-118.14124855753
10025,RIVES AV/3RD ST,0,33.946436968431,-118.14094424153
10026,RIVES AV/5TH ST,0,33.94869477532,-118.13936868024
10027,BROOKSHIRE AV/ALAMEDA ST,0,33.926300786979,-118.13860294571
10028,FLORENCE AV/WILEY BURKE AV,0,33.957215405377,-118.13734168157
10030,RIVES AV/FARM ST,0,33.952432202622,-118.13664799029
10034,BROOKSHIRE AV/STEWART AND GRAY RD,0,33.930703743421,-118.13536977499
10035,5TH ST/PARAMOUNT BLVD,0,33.946393997565,-118.13527643352
10036,WILEY BURKE AV/LUBEC ST,0,33.960394451355,-118.13509129282
10038,RIVES AV/BAYSINGER ST,0,33.954778036508,-118.13493714735
10039,TREASURE ISLAND PARK,0,33.966209678314,-118.1343817323
10040,5TH ST/PARROT AV,0,33.945787794948,-118.13431929906
10043,COLUMBIA WY/12400 COLUMBIA WY,0,33.919697281535,-118.13415222842
10046,DOWNEY DEPOT,0,33.939432760506,-118.13367611734
10047,LA REINA AV/3RD ST,0,33.942776967873,-118.13359573234
10049,PARAMOUNT BLVD/FARM ST,0,33.950246871327,-118.13243711707
10050,BROOKSHIRE AV/11500 BROOKSHIRE  AV,0,33.935227667418,-118.1320012918
10052,7TH ST/WESTERN AV,0,33.947379074005,-118.13157202691
10053,FIRESTONE BLVD/DOLAN AV,0,33.939187952021,-118.13140421205
10054,5TH ST/NEW ST,0,33.944134413606,-118.13107897157
10055,FOSTER RD/PREMIERE AV,0,33.909743041165,-118.13060004069
10056,BROOKSHIRE AV/11500 BROOKSHIRE  AV,0,33.937240791238,-118.13043191309
10057,DOWNEY AV/5TH ST,0,33.943799907046,-118.1304058582
10058,DOWNEY AV/6TH ST,0,33.945077977242,-118.13010451821
10059,PARAMOUNT BLVD/FLORENCE AV,0,33.95356062098,-118.13004515097
10060,CIVIC CENTER DR/3RD ST,0,33.940780586409,-118.12989343719
10063,SUVA ST/RIVES AV,0,33.961802151816,-118.12934234243
10064,BROOKSHIRE AV/11040 BROOKSHIRE AV,0,33.939583874205,-118.12863878115
10065,FIRESTONE BLVD/PATTON RD,0,33.9373179216,-118.12768583665
10068,BROOKSHIRE AV/6TH ST,0,33.942999425895,-118.12604600713
10069,FLORENCE AV/DOWNEY AV,0,33.951410856499,-118.12576190626
10070,BELLFLOWER BLVD/STEWART AND GRAY RD,0,33.927823749727,-118.12544960795
10071,BELLFLOWER BLVD/IMPERIAL HWY,0,33.917038525755,-118.12543016651
10073,BELLFLOWER BLVD/FOSTER RD,0,33.909751334609,-118.1253764165
10074,PARAMOUNT BLVD/SUVA ST,0,33.959885728715,-118.12525030602
10076,FIRESTONE BLVD/LAKEWOOD BLVD,0,33.935576901193,-118.1239908951
10077,PARAMOUNT BLVD/GALLATIN RD,0,33.9621603429,-118.12316294534
10078,STEWART AND GRAY RD/COLDBROOK AV,0,33.927812752132,-118.12278611617
10079,WASHBURN RD/IZETTA AV,0,33.924304419859,-118.1221448005
10080,BROOKSHIRE AV/FLORENCE AV,0,33.949856811324,-118.121885307
10081,IMPERIAL HWY/DUNROBIN AV,0,33.917051246656,-118.12104985871
10082,FIRESTONE BLVD/STONEWOOD CENTER DR,0,33.934060404049,-118.12098212786
10083,BROOKSHIRE AV/GAINFORD ST,0,33.952306997534,-118.12002917012
10084,LAKEWOOD BLVD/CHEROKEE DR,0,33.943187474517,-118.11947210147
10085,BROOKSHIRE AV/SUVA ST,0,33.954119605965,-118.11822478385
10086,WOODRUFF AV/FIRESTONE BLVD,0,33.932489020441,-118.11782504697
10087,PARAMOUNT BLVD/VISTA DEL ROSA ST,0,33.965842370179,-118.11774005446
10088,LAKEWOOD BLVD/FLORENCE AV,0,33.947495562796,-118.1172032089
10089,WOODRUFF AV/WASHBURN RD,0,33.924315279995,-118.11672908979
10091,WOODRUFF AV/FIRESTONE BLVD,0,33.931956996009,-118.11673973612
10092,IMPERIAL HWY/WOODRUFF AV,0,33.91706102869,-118.11670250528
10094,TELEGRAPH RD/PARAMOUNT BLVD,0,33.967045033698,-118.11582235332
10096,CECILIA ST/CORD AV,0,33.935693870276,-118.11405814056
10097,TELEGRAPH RD/BIRCHBARK AV,0,33.964749848504,-118.1137085657
10098,LAKEWOOD BLVD/GALLATIN RD,0,33.954327344923,-118.11364825329
10100,HALEDON AV/DINSDALE ST,0,33.94674960401,-118.11279720604
10101,PANGBORN AV/CECILIA ST,0,33.934094346734,-118.11142195806
10103,FLORENCE AV/WOODRUFF AV,0,33.944053412309,-118.11043620723
10104,GALLATIN RD/CLANCEY AV,0,33.952217317662,-118.11035134762
10105,TELEGRAPH RD/LAKEWOOD BLVD,0,33.961013363395,-118.11012220547
10106,FARM ST/PANGBORN AV,0,33.937721142524,-118.1087926625
10107,DOWNEY & SANFORD BRIDGE RD/FLORENCE AV,0,33.94281087353,-118.10797173273
10108,LEMORAN AV/GALLATIN RD,0,33.950620332076,-118.10785650219
10110,TELEGRAPH RD/SERAPIS AV,0,33.958463914102,-118.10645193793
10112,CEDARTREE RD/LINDSEY AV,0,33.956606736336,-118.10604068606
10113,LESTERFORD AV/VIA AMORITA,0,33.937342145843,-118.10546904168
10114,FLORENCE AV/MATTOCK AV,0,33.941049825174,-118.10449452994
10118,TELEGRAPH RD/PASSONS BLVD,0,33.955829291431,-118.10263999771
10119,CECILIA ST/LEIBACHER AV,0,33.931992254265,-118.102109722
10120,LITTLE LAKE RD/WILDERNESS PARK,0,33.937585921193,-118.09993408167
10123,STUDEBAKER RD/BENFIELD AV,0,33.934481936981,-118.09863479909
