from_stop_id,to_stop_id,transfer_type
10002,10002,0
10007,10007,0
10008,10008,0
10009,10009,0
10013,10013,0
10016,10016,0
10019,10019,0
10021,10021,0
10038,10038,0
10040,10043,0
10043,10040,0
10049,10049,0
10052,10052,0
10061,10061,0
10061,10066,0
10066,10061,0
10066,10066,0
10077,10077,0
10079,10079,0
10080,10080,0
10085,10085,0
10089,10089,0
10093,10093,0
10096,10096,0
10100,10100,0
10103,10103,0
10117,10117,0
10118,10118,0
10120,10120,0
10121,10121,0
10124,10124,0
10126,10126,0
10128,10128,0
10130,10130,0
10146,10146,0
10147,10147,0
