shape_id,shape_pt_lat,shape_pt_lon,shape_pt_sequence
1388.1,34.271705911261,-118.79638462783,0
1388.1,34.271703435639,-118.79089320531,16
1388.1,34.27169969974,-118.78767247729,26
1388.1,34.271696502488,-118.78477945166,35
1388.1,34.271688878324,-118.77915227449,52
1388.1,34.271676605212,-118.77033416081,78
1388.1,34.271667912488,-118.76476987381,95
1388.1,34.271697495933,-118.76138395601,105
1388.1,34.275357711961,-118.76139087289,119
1388.1,34.278904914699,-118.76145303493,131
1388.1,34.283628585189,-118.76145972952,149
1388.1,34.283614034707,-118.7646410164,158
1388.1,34.284882732164,-118.77084343188,178
1388.1,34.283314354203,-118.77589734939,194
1388.1,34.28328696323,-118.77887987409,203
1388.1,34.279016826642,-118.77885325449,218
1388.1,34.278969307318,-118.77168259466,240
1388.1,34.278945997309,-118.76800127338,251
1388.1,34.278904914699,-118.76145303493,271
1388.1,34.278983596287,-118.75503168283,290
1388.1,34.278990604704,-118.75081105714,303
1388.1,34.279003424338,-118.74383627867,324
1388.1,34.279042032589,-118.73616986782,347
1388.2,34.271705911261,-118.79638462783,0
1388.2,34.271703435639,-118.79089320531,16
1388.2,34.27169969974,-118.78767247729,26
1388.2,34.271696502488,-118.78477945166,35
1388.2,34.271688878324,-118.77915227449,52
1388.2,34.271676605212,-118.77033416081,78
1388.2,34.271667912488,-118.76476987381,95
1388.2,34.271697495933,-118.76138395601,105
1388.2,34.275357711961,-118.76139087289,119
1388.2,34.278904914699,-118.76145303493,131
1388.2,34.283628585189,-118.76145972952,149
1388.2,34.283614034707,-118.7646410164,158
1388.2,34.284882732164,-118.77084343188,178
1388.2,34.283314354203,-118.77589734939,194
1388.2,34.28328696323,-118.77887987409,203
1388.2,34.279016826642,-118.77885325449,218
1388.2,34.278969307318,-118.77168259466,240
1388.2,34.278945997309,-118.76800127338,251
1388.2,34.278904914699,-118.76145303493,271
1388.2,34.278983596287,-118.75503168283,290
1388.2,34.278990604704,-118.75081105714,303
1388.2,34.279003424338,-118.74383627867,324
1388.2,34.279042032589,-118.73616986782,347
1388.2,34.27904762878,-118.73479612509,352
1388.2,34.279061416252,-118.73070135309,364
1388.2,34.279074281876,-118.72398478282,384
1388.2,34.279100319481,-118.71776487797,403
1388.2,34.282141930436,-118.71782414855,414
1388.2,34.285851647339,-118.71782295999,428
1388.2,34.286618320819,-118.71782293504,430
1388.2,34.290327841105,-118.71785485252,444
1388.2,34.294050864506,-118.71792662026,457
1388.2,34.293945466163,-118.70923121533,484
1388.2,34.289691919429,-118.70918843375,499
1388.2,34.286625148116,-118.70920209282,510
1388.2,34.282766895351,-118.70922888599,524
1388.2,34.279103968365,-118.70921761297,538
1388.2,34.279138370599,-118.70189874597,560
1388.2,34.279040270902,-118.69699862694,575
1388.2,34.279009667527,-118.69371452245,584
1388.2,34.278987066586,-118.69142027588,591
1388.2,34.278972761099,-118.68280337312,617
1388.2,34.278975320289,-118.67843707299,631
1388.2,34.274473791661,-118.67851301812,647
1388.2,34.271712603878,-118.67842767566,657
1388.2,34.271712603878,-118.67842767566,658
1388.2,34.27171284883,-118.68278368859,670
1388.2,34.271721725177,-118.68704378274,683
1388.2,34.271703720431,-118.69453425645,706
1388.2,34.269134969576,-118.69395680708,715
1388.2,34.271703720431,-118.69453425645,725
1388.2,34.272397296139,-118.70054449567,743
1388.2,34.271620733054,-118.70932282395,770
1388.2,34.271609549196,-118.71449632414,785
1388.2,34.271600960523,-118.71873310502,798
1388.2,34.27159578779,-118.73061611919,834
1388.2,34.271608888374,-118.73661734886,852
1388.2,34.271622457962,-118.74383668552,874
1388.2,34.267663854294,-118.74766073569,893
1388.2,34.263972225744,-118.74784610557,906
1388.2,34.260564845665,-118.74783543007,918
1388.2,34.260601362764,-118.75258505385,933
1388.2,34.260641214693,-118.75633189962,944
1388.2,34.263544130332,-118.76141879048,963
1388.2,34.264296954428,-118.76274625497,968
1388.2,34.264298138188,-118.76907453615,987
1388.2,34.264299730009,-118.77313894371,999
1388.2,34.264301670178,-118.77926534147,1017
1388.2,34.264301410595,-118.78568298145,1037
1388.2,34.264302172479,-118.78810243073,1044
1388.2,34.264375275329,-118.79415669833,1062
1388.2,34.264411722983,-118.79697366534,1071
1388.2,34.267652725396,-118.79679609411,1083
1388.2,34.271705911261,-118.79638462783,1098
1390.1,34.271705911261,-118.79638462783,0
1390.1,34.267652725396,-118.79679609411,14
1390.1,34.264411722983,-118.79697366534,26
1390.1,34.264346853624,-118.79178332014,42
1390.1,34.264302172479,-118.78810243073,53
1390.1,34.264301410595,-118.78568298145,60
1390.1,34.264301670178,-118.77926534147,80
1390.1,34.264299730009,-118.77313894371,98
1390.1,34.264298138188,-118.76907453615,110
1390.1,34.263544130332,-118.76141879048,134
1390.1,34.260641214693,-118.75633189962,152
1390.1,34.260601362764,-118.75258505385,164
1390.1,34.260564845665,-118.74783543007,178
1390.1,34.263972225744,-118.74784610557,190
1390.1,34.268713297411,-118.74592249243,209
1390.1,34.271622457962,-118.74383668552,221
1390.1,34.271616078853,-118.74039417748,231
1390.1,34.271606286471,-118.73523703616,247
1390.1,34.27159578779,-118.73061611919,261
1390.1,34.271598292298,-118.72287394632,284
1390.1,34.271603767985,-118.71733298103,301
1390.1,34.271609549196,-118.71449632414,310
1390.1,34.271620733054,-118.70932282395,325
1390.1,34.271766344179,-118.70273044887,345
1390.1,34.271703720431,-118.69453425645,370
1390.1,34.269134969576,-118.69395680708,379
1390.1,34.271703720431,-118.69453425645,389
1390.1,34.271715975538,-118.69143284946,398
1390.1,34.271729994597,-118.68897360475,406
1390.1,34.271721725177,-118.68704378274,412
1390.1,34.27171284883,-118.68278368859,424
1390.1,34.271712603878,-118.67842767566,438
1390.2,34.271705911261,-118.79638462783,0
1390.2,34.267652725396,-118.79679609411,14
1390.2,34.264411722983,-118.79697366534,26
1390.2,34.264346853624,-118.79178332014,42
1390.2,34.264302172479,-118.78810243073,53
1390.2,34.264301410595,-118.78568298145,60
1390.2,34.264301670178,-118.77926534147,80
1390.2,34.264299730009,-118.77313894371,98
1390.2,34.264298138188,-118.76907453615,110
1390.2,34.263544130332,-118.76141879048,134
1390.2,34.260641214693,-118.75633189962,152
1390.2,34.260601362764,-118.75258505385,164
1390.2,34.260564845665,-118.74783543007,178
1390.2,34.263972225744,-118.74784610557,190
1390.2,34.268713297411,-118.74592249243,209
1390.2,34.271622457962,-118.74383668552,221
1390.2,34.271616078853,-118.74039417748,231
1390.2,34.271606286471,-118.73523703616,247
1390.2,34.27159578779,-118.73061611919,261
1390.2,34.271598292298,-118.72287394632,284
1390.2,34.271603767985,-118.71733298103,301
1390.2,34.271609549196,-118.71449632414,310
1390.2,34.271620733054,-118.70932282395,325
1390.2,34.271766344179,-118.70273044887,345
1390.2,34.271703720431,-118.69453425645,370
1390.2,34.269134969576,-118.69395680708,379
1390.2,34.271703720431,-118.69453425645,389
1390.2,34.271715975538,-118.69143284946,398
1390.2,34.271729994597,-118.68897360475,406
1390.2,34.271721725177,-118.68704378274,412
1390.2,34.27171284883,-118.68278368859,424
1390.2,34.271712603878,-118.67842767566,438
1390.2,34.278975320289,-118.67843707299,464
1390.2,34.278972761099,-118.68280337312,477
1390.2,34.278987066586,-118.69142027588,503
1390.2,34.279015364193,-118.69463815229,513
1390.2,34.279037118258,-118.69659142966,519
1390.2,34.279109436088,-118.70072664334,531
1390.2,34.279141929291,-118.70317987687,539
1390.2,34.279103968365,-118.70921761297,557
1390.2,34.282766895351,-118.70922888599,570
1390.2,34.286625148116,-118.70920209282,584
1390.2,34.289691919429,-118.70918843375,596
1390.2,34.293945466163,-118.70923121533,611
1390.2,34.294042138637,-118.71522151298,629
1390.2,34.294050864506,-118.71792662026,637
1390.2,34.290327841105,-118.71785485252,651
1390.2,34.286618320819,-118.71782293504,664
1390.2,34.283922578889,-118.71782622634,674
1390.2,34.279100319481,-118.71776487797,692
1390.2,34.279074281876,-118.72398478282,710
1390.2,34.279061416252,-118.73070135309,731
1390.2,34.279042032589,-118.73616986782,747
1390.2,34.279003424338,-118.74383627867,770
1390.2,34.278998804362,-118.74904340723,786
1390.2,34.278983596287,-118.75503168283,804
1390.2,34.278904914699,-118.76145303493,824
1390.2,34.283628585189,-118.76145972952,841
1390.2,34.283614034707,-118.7646410164,850
1390.2,34.284882732164,-118.77084343188,870
1392.1,34.286618320819,-118.71782293504,0
1392.1,34.286625148116,-118.70920209282,26
1392.1,34.282766895351,-118.70922888599,40
1392.1,34.279103968365,-118.70921761297,53
1392.1,34.275292640768,-118.70920838981,67
1392.1,34.27308027777,-118.70925578851,75
1392.1,34.271620733054,-118.70932282395,80
1392.1,34.271766344179,-118.70273044887,100
1392.1,34.271703720431,-118.69453425645,125
1392.1,34.269134969576,-118.69395680708,134
1392.1,34.271703720431,-118.69453425645,144
1392.1,34.271715975538,-118.69143284946,153
1392.1,34.271729994597,-118.68897360475,161
1392.1,34.271721725177,-118.68704378274,166
1392.1,34.27171284883,-118.68278368859,179
1392.1,34.271712603878,-118.67842767566,193
1392.1,34.271712603878,-118.67842767566,194
1392.1,34.271727746652,-118.67374740462,207
1392.1,34.271722611807,-118.66573376433,231
1392.1,34.271805938651,-118.66206359617,242
1392.1,34.276205245444,-118.66208526154,258
1392.1,34.279109746584,-118.6620950675,269
1392.1,34.276466682869,-118.61674065401,406
1392.1,34.277309505888,-118.60491275433,442
1392.1,34.257202706806,-118.60607425418,515
1392.1,34.257213474082,-118.60171248052,528
1392.1,34.253484369758,-118.59953455221,543
1393.1,34.253484369758,-118.59953455221,0
1393.1,34.249970015808,-118.59893351548,12
1393.1,34.249969985961,-118.6017099002,21
1393.1,34.249959218784,-118.60607129534,34
1393.1,34.277854184812,-118.60479422323,136
1393.1,34.279431312031,-118.66208437781,309
1393.1,34.276205245444,-118.66208526154,320
1393.1,34.271805938651,-118.66206359617,336
1393.1,34.271722611807,-118.66573376433,348
1393.1,34.271726902104,-118.66944103932,359
1393.1,34.271739977306,-118.67253602942,368
1393.1,34.271712603878,-118.67842767566,386
1393.2,34.253484369758,-118.59953455221,0
1393.2,34.249970015808,-118.59893351548,12
1393.2,34.249969985961,-118.6017099002,21
1393.2,34.249959218784,-118.60607129534,34
1393.2,34.277854184812,-118.60479422323,136
1393.2,34.279431312031,-118.66208437781,309
1393.2,34.276205245444,-118.66208526154,320
1393.2,34.271805938651,-118.66206359617,336
1393.2,34.271722611807,-118.66573376433,348
1393.2,34.271726902104,-118.66944103932,359
1393.2,34.271739977306,-118.67253602942,368
1393.2,34.271712603878,-118.67842767566,386
1393.2,34.271712603878,-118.67842767566,387
1393.2,34.27171284883,-118.68278368859,399
1393.2,34.271721725177,-118.68704378274,412
1393.2,34.271703720431,-118.69453425645,435
1393.2,34.269134969576,-118.69395680708,444
1393.2,34.271703720431,-118.69453425645,454
1393.2,34.272397296139,-118.70054449567,472
1393.2,34.271620733054,-118.70932282395,499
1393.2,34.271609549196,-118.71449632414,514
1393.2,34.271603767985,-118.71733298103,523
1393.2,34.275354606018,-118.71781210207,537
1393.2,34.282141930436,-118.71782414855,561
1393.2,34.285851647339,-118.71782295999,575
1393.2,34.286618320819,-118.71782293504,578
1394.1,34.257851571594,-118.81728773412,96
1394.1,34.253756770833,-118.81530173341,112
1394.1,34.251686169543,-118.82241300253,135
1394.1,34.250620694863,-118.82149577321,139
1394.1,34.251040063133,-118.81759498217,151
1394.1,34.252742374186,-118.81168135757,170
1394.1,34.248385844814,-118.81142389848,186
1394.1,34.245967738692,-118.81058967483,195
1394.1,34.241662106332,-118.8101177106,211
1394.1,34.237296055134,-118.80510897456,233
1394.1,34.233813459288,-118.80359645946,246
1394.1,34.231304317145,-118.80156406855,257
1394.1,34.228533933503,-118.80038616248,268
1394.1,34.229745157603,-118.79631520466,281
1394.1,34.231846213425,-118.79313924822,293
1394.1,34.235368959338,-118.79021811531,309
1394.1,34.245938272524,-118.78207204196,355
1394.1,34.247838921946,-118.78136515381,362
1394.1,34.253732691723,-118.78060292059,383
1394.1,34.256975082686,-118.77935247871,396
1394.1,34.264301670178,-118.77926534147,422
1394.1,34.264299730009,-118.77313894371,441
1394.1,34.264298138188,-118.76907453615,453
1394.1,34.263544130332,-118.76141879048,477
1394.1,34.263544130332,-118.76141879048,478
1394.1,34.268295404951,-118.76140587422,494
1394.1,34.271697495933,-118.76138395601,506
1394.1,34.275357711961,-118.76139087289,520
1394.1,34.278904914699,-118.76145303493,532
1394.1,34.283628585189,-118.76145972952,550
1394.1,34.283614034707,-118.7646410164,559
1394.1,34.284882732164,-118.77084343188,579
1394.1,34.283314354203,-118.77589734939,595
1394.1,34.283628585189,-118.76145972952,638
1394.1,34.284771684274,-118.76146685164,643
1394.1,34.284946117265,-118.75994557565,647
1394.1,34.286530182805,-118.74559843288,691
1394.1,34.286551516587,-118.7439168172,696
1394.1,34.286585940247,-118.73919283661,710
1394.1,34.286582059237,-118.73077715221,736
1394.1,34.286585037464,-118.72662894657,748
1394.1,34.286585037464,-118.72662894657,749
1394.1,34.29033031643,-118.7266549455,762
1394.1,34.29032700218,-118.71984793848,782
1394.1,34.290327841105,-118.71785485252,789
1394.1,34.286618320819,-118.71782293504,802
1394.2,34.252742374186,-118.81168135757,170
1394.2,34.248385844814,-118.81142389848,186
1394.2,34.245967738692,-118.81058967483,195
1394.2,34.241662106332,-118.8101177106,211
1394.2,34.237296055134,-118.80510897456,233
1394.2,34.233813459288,-118.80359645946,246
1394.2,34.231304317145,-118.80156406855,257
1394.2,34.228533933503,-118.80038616248,268
1394.2,34.229745157603,-118.79631520466,281
1394.2,34.231846213425,-118.79313924822,293
1394.2,34.235368959338,-118.79021811531,309
1394.2,34.245938272524,-118.78207204196,355
1394.2,34.247838921946,-118.78136515381,362
1394.2,34.253732691723,-118.78060292059,383
1394.2,34.256975082686,-118.77935247871,396
1394.2,34.264301670178,-118.77926534147,422
1394.3,34.252742374186,-118.81168135757,170
1394.3,34.248385844814,-118.81142389848,186
1394.3,34.245967738692,-118.81058967483,195
1394.3,34.241662106332,-118.8101177106,211
1394.3,34.237296055134,-118.80510897456,233
1394.3,34.233813459288,-118.80359645946,246
1394.3,34.231304317145,-118.80156406855,257
1394.3,34.228533933503,-118.80038616248,268
1394.3,34.229745157603,-118.79631520466,281
1394.3,34.231846213425,-118.79313924822,293
1394.3,34.235368959338,-118.79021811531,309
1394.3,34.245938272524,-118.78207204196,355
1394.3,34.247838921946,-118.78136515381,362
1394.3,34.253732691723,-118.78060292059,383
1394.3,34.256975082686,-118.77935247871,396
1394.3,34.264301670178,-118.77926534147,422
1394.3,34.264299730009,-118.77313894371,441
1394.3,34.264298138188,-118.76907453615,453
1394.3,34.263544130332,-118.76141879048,477
1394.3,34.263544130332,-118.76141879048,478
1394.3,34.268295404951,-118.76140587422,494
1394.3,34.271697495933,-118.76138395601,506
1394.3,34.275357711961,-118.76139087289,520
1394.3,34.278904914699,-118.76145303493,532
1394.3,34.283628585189,-118.76145972952,550
1394.3,34.283614034707,-118.7646410164,559
1394.3,34.284882732164,-118.77084343188,579
1394.3,34.283314354203,-118.77589734939,595
1394.3,34.283628585189,-118.76145972952,638
1394.3,34.284771684274,-118.76146685164,643
1394.3,34.284946117265,-118.75994557565,647
1394.3,34.286530182805,-118.74559843288,691
1394.3,34.286551516587,-118.7439168172,696
1394.3,34.286585940247,-118.73919283661,710
1394.3,34.286582059237,-118.73077715221,736
1394.3,34.286585037464,-118.72662894657,748
1394.3,34.286585037464,-118.72662894657,749
1394.3,34.29033031643,-118.7266549455,762
1394.3,34.29032700218,-118.71984793848,782
1394.3,34.290327841105,-118.71785485252,789
1394.3,34.286618320819,-118.71782293504,802
1395.1,34.286618320819,-118.71782293504,0
1395.1,34.286609141967,-118.72213992897,13
1395.1,34.286582059237,-118.73077715221,39
1395.1,34.286585940247,-118.73919283661,64
1395.1,34.288273143094,-118.73919785336,70
1395.1,34.290295596275,-118.73920253,78
1395.1,34.290283215546,-118.74391698482,92
1395.1,34.290283215546,-118.74391698482,93
1395.1,34.289816071331,-118.7439161301,94
1395.1,34.289816071331,-118.7439161301,95
1395.1,34.286551516587,-118.7439168172,105
1395.1,34.286506586487,-118.75384834143,135
1395.1,34.284771684274,-118.76146685164,159
1395.1,34.283628585189,-118.76145972952,163
1395.1,34.283614034707,-118.7646410164,173
1395.1,34.284882732164,-118.77084343188,192
1395.1,34.283314354203,-118.77589734939,209
1395.1,34.283628585189,-118.76145972952,252
1395.1,34.278904914699,-118.76145303493,269
1395.1,34.275357711961,-118.76139087289,282
1395.1,34.271697495933,-118.76138395601,296
1395.1,34.268295404951,-118.76140587422,308
1395.1,34.263544130332,-118.76141879048,325
1395.1,34.263544130332,-118.76141879048,326
1395.1,34.264298138188,-118.76907453615,349
1395.1,34.264299730009,-118.77313894371,361
1395.1,34.264301670178,-118.77926534147,379
1395.1,34.264301410595,-118.78568298145,399
1395.1,34.264302172479,-118.78810243073,406
1395.1,34.264375275329,-118.79415669833,424
1395.1,34.264411722983,-118.79697366534,433
1395.1,34.255600179146,-118.80262476357,469
1395.1,34.255207846815,-118.80748913926,484
1395.1,34.254392544236,-118.81188273113,498
1395.1,34.253756770833,-118.81530173341,508
1395.1,34.257851571594,-118.81728773412,524
1395.1,34.253756770833,-118.81530173341,540
1395.1,34.251686169543,-118.82241300253,563
1395.1,34.250620694863,-118.82149577321,568
1395.1,34.251040063133,-118.81759498217,580
1395.1,34.252742374186,-118.81168135757,599
1396.1,34.271705911261,-118.79638462783,0
1396.1,34.264411722983,-118.79697366534,26
1396.1,34.257027201633,-118.79709178988,53
1396.1,34.255684711079,-118.79898520105,61
1396.1,34.254392544236,-118.81188273113,100
1396.1,34.252742374186,-118.81168135757,106
1396.1,34.248385844814,-118.81142389848,122
1396.1,34.245967738692,-118.81058967483,131
1396.1,34.241662106332,-118.8101177106,147
1396.1,34.237296055134,-118.80510897456,169
1396.1,34.233813459288,-118.80359645946,182
1396.1,34.231304317145,-118.80156406855,193
1396.1,34.228533933503,-118.80038616248,204
1396.1,34.229745157603,-118.79631520466,217
1396.1,34.231846213425,-118.79313924822,229
1396.1,34.23655837743,-118.78522004693,258
1396.1,34.245938272524,-118.78207204196,294
1396.1,34.247838921946,-118.78136515381,301
1396.1,34.253732691723,-118.78060292059,323
1396.1,34.256975082686,-118.77935247871,335
1396.1,34.264301670178,-118.77926534147,362
1396.1,34.264299730009,-118.77313894371,380
1396.1,34.264298138188,-118.76907453615,393
1396.1,34.263544130332,-118.76141879048,416
1396.1,34.263544130332,-118.76141879048,417
1396.1,34.268295404951,-118.76140587422,433
1396.1,34.271697495933,-118.76138395601,446
1396.1,34.275357711961,-118.76139087289,459
1396.1,34.278904914699,-118.76145303493,472
1396.1,34.278983596287,-118.75503168283,491
1396.1,34.278990604704,-118.75081105714,504
1396.1,34.279003424338,-118.74383627867,525
1396.1,34.279003424338,-118.74383627867,526
1396.1,34.282212840861,-118.74386489113,537
1396.1,34.286551516587,-118.7439168172,552
1396.1,34.286585940247,-118.73919283661,567
1396.1,34.286582059237,-118.73077715221,592
1396.1,34.286585037464,-118.72662894657,605
1396.1,34.286585037464,-118.72662894657,606
1396.1,34.29033031643,-118.7266549455,618
1396.1,34.29032700218,-118.71984793848,639
1396.1,34.290327841105,-118.71785485252,645
1396.1,34.286618320819,-118.71782293504,658
1397.1,34.286618320819,-118.71782293504,0
1397.1,34.286609141967,-118.72213992897,13
1397.1,34.286582059237,-118.73077715221,39
1397.1,34.286585940247,-118.73919283661,64
1397.1,34.288273143094,-118.73919785336,70
1397.1,34.290295596275,-118.73920253,78
1397.1,34.290283215546,-118.74391698482,92
1397.1,34.290283215546,-118.74391698482,93
1397.1,34.289816071331,-118.7439161301,94
1397.1,34.286551516587,-118.7439168172,105
1397.1,34.279003424338,-118.74383627867,133
1397.1,34.279003424338,-118.74383627867,134
1397.1,34.278998804362,-118.74904340723,149
1397.1,34.278983596287,-118.75503168283,167
1397.1,34.278904914699,-118.76145303493,186
1397.1,34.278904914699,-118.76145303493,187
1397.1,34.275357711961,-118.76139087289,199
1397.1,34.271697495933,-118.76138395601,212
1397.1,34.268295404951,-118.76140587422,225
1397.1,34.263544130332,-118.76141879048,242
1397.1,34.263544130332,-118.76141879048,243
1397.1,34.264298138188,-118.76907453615,265
1397.1,34.264299730009,-118.77313894371,278
1397.1,34.264301670178,-118.77926534147,296
1397.1,34.264301410595,-118.78568298145,315
1397.1,34.264302172479,-118.78810243073,323
1397.1,34.264375275329,-118.79415669833,341
1397.1,34.264411722983,-118.79697366534,350
1397.1,34.271705911261,-118.79638462783,376
