stop_id,stop_name,stop_desc,stop_lat,stop_lon
10003,CSU DOMINGUEZ HILLS,0,33.866902541717,-118.25663053185
10006,CENTRAL AV/139TH ST,0,33.905794253566,-118.25454820917
10007,CENTRAL AV/PIRU ST,0,33.908671247082,-118.25454376478
10008,CENTRAL AV/131ST ST,0,33.912922248505,-118.25449735212
10009,CENTRAL AV/EL SEGUNDO BLVD,0,33.916359910553,-118.25444187326
10011,CENTRAL AV/ROSECRANS AV,0,33.902803894455,-118.25358345995
10012,CENTRAL AV/BRAZIL ST,0,33.898615680777,-118.25251960745
10014,CENTRAL AV/COMPTON BLVD,0,33.895822524005,-118.25185546192
10015,CENTRAL AV/156TH ST,0,33.89124959013,-118.25079722329
10016,CENTRAL AV/ALONDRA BLVD,0,33.888357586603,-118.25009336055
10017,COMPTON BLVD/NESTOR AV,0,33.895834016296,-118.24896896217
10018,CENTRAL AV/CALDWELL ST,0,33.883284817769,-118.24889874738
10019,EL SEGUNDO BLVD/SLATER AV,0,33.916275165906,-118.24896706904
10020,CENTRAL AV/GREENLEAF BLVD,0,33.880405348947,-118.24877489034
10021,CENTRAL AV/ALBERTONI ST,0,33.872785690865,-118.24874239937
10022,CENTRAL AV/WALNUT ST,0,33.875538996296,-118.24875056791
10024,CENTRAL AV/ARTESIA BLVD,0,33.873972765008,-118.24873603831
10025,VICTORIA ST/CENTRAL AV,0,33.867490704339,-118.24870692754
10026,CALDWELL ST/HILLFORD AV,0,33.883556066016,-118.24794739952
10029,COMPTON BLVD/TAJAUTA AV,0,33.895836610414,-118.24636911204
10030,EL SEGUNDO BLVD/COMPTON AV,0,33.916225780317,-118.24625437024
10031,ALONDRA BLVD/NORTHWOOD AV,0,33.888482427293,-118.24415313428
10032,CALDWELL ST/NORTHWOOD AV,0,33.88359959627,-118.24412244052
10033,EL SEGUNDO BLVD/GRANDEE AV,0,33.916215561582,-118.24316605248
10034,WALNUT ST/ANDERSON AV,0,33.875950279211,-118.24244640493
10035,COMPTON BLVD/DWIGHT AV,0,33.895870231838,-118.24198009586
10036,ALONDRA BLVD/DWIGHT AV,0,33.888488773442,-118.24099998983
10037,WILMINGTON AV/MARTIN LUTHER KING JR HOSP,0,33.923405695229,-118.24090593776
10038,CALDWELL ST/DWIGHT AV,0,33.883757565128,-118.24072281641
10039,WALNUT ST/1001 WALNUT ST,0,33.876035946581,-118.23945538141
10040,WILMINGTON AV/STOCKWELL ST,0,33.909054501189,-118.23914435651
10041,WILMINGTON AV/133RD ST,0,33.911381957035,-118.23912463208
10043,WILMINGTON AV/130TH ST,0,33.91404463445,-118.23911245468
10044,WILMINGTON AV/124TH ST,0,33.919842564331,-118.23911581449
10045,EL SEGUNDO BLVD/WILMINGTON AV,0,33.916215452441,-118.23909887315
10046,WILMINGTON AV/122ND ST,0,33.921689114195,-118.23911449142
10049,WILMINGTON AV/139TH ST,0,33.905898458115,-118.23852897454
10051,ROSECRANS AV/WILMINGTON AV,0,33.903313555606,-118.23811957642
10052,WILMINGTON AV/POPLAR ST,0,33.900011146913,-118.23787293336
10053,COMPTON BLVD/WILMINGTON AV,0,33.895884413266,-118.23761408744
10054,WILMINGTON AV/LAUREL ST,0,33.892790748996,-118.23741420739
10055,WILMINGTON AV/ALONDRA BLVD,0,33.888518408982,-118.23714181505
10056,WILMINGTON AV/CALDWELL ST,0,33.88394667502,-118.23680930063
10057,WALNUT ST/WILMINGTON AV,0,33.876124668757,-118.23626999367
10060,ROSECRANS AV/MATTHISEN AV,0,33.903309907362,-118.23437266983
10061,CENTER AV/CYPRESS ST,0,33.890307363652,-118.23285360558
10062,ALONDRA BLVD/CENTER AV,0,33.888543291862,-118.23283552609
10063,ROSECRANS AV/ARANBE AV,0,33.903313843355,-118.23233940473
10064,EL SEGUNDO/WILLOWBROOK,0,33.916230892575,-118.23118209029
10065,WILLOWBROOK AV/130TH ST,0,33.914380658144,-118.2302376666
10066,ROSECRANS AV/OLEANDER AV,0,33.903309967244,-118.23006225679
10068,OLEANDER AV/PALM ST,0,33.89510754784,-118.22869204807
10069,OLEANDER AV/MYRRH ST,0,33.89205238841,-118.2284662443
10071,ALONDRA BLVD/OLEANDER AV,0,33.888568589013,-118.22822940541
10072,WILLOWBROOK AV/PIRU ST,0,33.91031244666,-118.22809087794
10073,ROSECRANS AV/ACACIA AV,0,33.903303157056,-118.22786089591
10074,EL SEGUNDO BLVD/MONA BLVD,0,33.916200351753,-118.22700935915
10075,WILLOWBROOK AV/WINONA AV,0,33.907803394641,-118.22678228776
10076,COMPTON BLVD/ACACIA AV,0,33.895969078546,-118.2264635929
10077,MONA BLVD/130TH ST,0,33.914385008366,-118.22649028782
10078,MYRRH ST/ACACIA AV,0,33.892149928986,-118.22628523084
10079,ACACIA AV/INDIGO ST,0,33.891127840385,-118.22622975266
10081,ALONDRA BLVD/ACACIA AV,0,33.888572662475,-118.22606799934
10082,MONA BLVD/133RD ST,0,33.911493048005,-118.22568490203
10085,MONA BLVD/ORIS ST,0,33.908971731307,-118.22504534862
10087,STATION RDWY/ACACIA AV,0,33.8764651437,-118.2249152678
10090,WILLOWBROOK AV/MONA BLVD,0,33.904116690059,-118.22484117612
10091,ROSECRANS AV/WILLOWBROOK AV,0,33.903323448306,-118.22436780268
10092,ELM ST/WILLOWBROOK AV,0,33.900661093873,-118.22420909123
10093,WILLOWBROOK AV/COMPTON BLVD,0,33.895954394244,-118.22402844976
10094,MLK JR TRANS CTR,0,33.89791913892,-118.22400404414
10095,MYRRH ST/WILLOWBROOK AV,0,33.892294669507,-118.22382096953
10096,EL SEGUNDO BLVD/ALAMEDA ST,0,33.91619850743,-118.22358488366
10097,MLK JR TRANS CTR,0,33.89790708041,-118.22309782919
10098,ARTESIA STATION/BUS BAY 3,0,33.875521789315,-118.22241234061
10110,COMPTON BLVD/DOUGLAS DOLLARHIDE DR,0,33.89594426493,-118.22207770414
10112,TAMARIND AV/INDIGO ST,0,33.891336716051,-118.22177224682
10113,ALONDRA BLVD/TAMARIND AV,0,33.888594789685,-118.22155082811
10114,TAMARIND AV/REEVE ST,0,33.886594604215,-118.22142363564
10115,TAMARIND AV/CALDWELL ST,0,33.884613659755,-118.22129320534
10117,GREENLEAF BLVD/TAMARIND AV,0,33.881223280519,-118.22105363734
10118,ALAMEDA ST/NEW CARSON PL,0,33.89742233661,-118.22072400168
10119,ALAMEDA ST/CARSON PL,0,33.897425186992,-118.22066799094
10124,COMPTON BLVD/ALAMEDA ST,0,33.895961052323,-118.22041700148
10125,EL SEGUNDO BLVD/ALAMEDA ST&SANTA FE BLVD,0,33.916512366791,-118.22027000405
10126,GREENLEAF BLVD/ALAMEDA ST,0,33.881242356155,-118.21812482861
10127,COMPTON BLVD/SPRING AV,0,33.896009177428,-118.21813030437
10128,ALAMEDA ST/1621 S ALAMEDA ST,0,33.880401668274,-118.21804357282
10130,EL SEGUNDO AV/SANTA FE BLVD,0,33.916811279305,-118.21757470027
10131,SANTA FE AV/CARLIN AV,0,33.915009230623,-118.21727998404
10132,ARTESIA BLVD/ALAMEDA ST,0,33.874223669119,-118.21701286838
10133,SANTA FE AV/EUCLID AV,0,33.913240107921,-118.21701173224
10134,SANTA FE AV/PINE ST,0,33.911413357668,-118.2167004981
10135,SANTA FE AV/TUCKER ST,0,33.906984225236,-118.21649131215
10136,SANTA FE AV/OAKS ST,0,33.909616779704,-118.21641901646
10137,SANTA FE AV/ROSECRANS AV,0,33.903382087417,-118.21634030459
10138,SANTA FE AV/ELM ST,0,33.900769254062,-118.2161424319
10139,ALONDRA BLVD/SANTA FE AV,0,33.888596529117,-118.21605173882
10140,PALMER ST/SANTA FE AV,0,33.898329486354,-118.21597137923
10142,COMPTON BLVD/SANTA FE AV,0,33.896010569851,-118.21583030386
10143,SANTA FE AV/JOHNSON ST,0,33.883296607465,-118.21569543815
10144,GREENLEAF BLVD/SANTA FE AV,0,33.881257988719,-118.21554523272
10145,SANTA FE AV/2111 S SANTA FE (DMV),0,33.87599705026,-118.21490248702
10146,SANTA FE AV/ARTESIA BLVD,0,33.874244497886,-118.2145883327
10147,GREENLEAF BLVD/TARTAR LN,0,33.881265541149,-118.21439215783
10148,ROSECRANS AV/VAN NESS AV,0,33.90341413951,-118.21377654606
10149,PALMER ST/MAYO AV,0,33.898335048684,-118.21284422404
10150,COMPTON BLVD/MAYO AV,0,33.896013409776,-118.2126867526
10151,GREENLEAF BLVD/MAYO AV,0,33.881267105681,-118.21195419106
10152,PALMER ST/SLOAN AV,0,33.898341668928,-118.21063973457
10153,COMPTON BLVD/SLOAN AV,0,33.896028293609,-118.2104691644
10154,GREENLEAF BLVD/BURRIS AV,0,33.881273210449,-118.21003677537
10155,LONG BEACH BLVD/2100 N LONG BEACH BLVD,0,33.910154817121,-118.20893589233
10157,ARTESIA BLVD/DELTA AV,0,33.874252140485,-118.20867182656
10158,LONG BEACH BLVD/PECK ST,0,33.905830197326,-118.20866476529
10159,DELTA AV/COMPTON COLLEGE,0,33.878327301006,-118.20859301962
10160,LONG BEACH BLVD/ROSECRANS AV,0,33.903450875601,-118.20849077492
10161,PALMER ST/LONG BEACH BLVD,0,33.898332257327,-118.20814852037
10162,COMPTON BLVD/LONG BEACH BLVD,0,33.896027059394,-118.20801428575
10163,LONG BEACH BLVD/MYRRH ST,0,33.892375630086,-118.20776139526
10165,BULLIS RD/TUCKER ST,0,33.906975525671,-118.20737245966
10166,BULLIS RD/QUEENSDALE ST,0,33.905241860365,-118.20724623674
10167,BULLIS RD/KAY ST,0,33.904324201583,-118.20717805841
10168,ALONDRA BLVD/LONG BEACH BLVD,0,33.888680944849,-118.20709656397
10169,BULLIS RD/ROSECRANS AV,0,33.903453250124,-118.20711329242
10172,LONG BEACH BLVD/TEMPLE AV,0,33.886769476753,-118.20650207785
10173,LONG BEACH BLVD/MARCELLE ST,0,33.886277860376,-118.20635919253
10174,LONG BEACH BLVD/BENNETT ST,0,33.883048033576,-118.20541227426
10175,LONG BEACH BLVD/GREENLEAF BLVD,0,33.881347977539,-118.20491392517
10176,COMPTON BLVD/BRADFIELD AV,0,33.896056413931,-118.20369773059
10177,ALONDRA BLVD/BRADFIELD AV,0,33.888701451611,-118.20311973463
10178,COMPTON BLVD/HOLLY AV,0,33.896065361246,-118.20164488259
10179,ALONDRA BLVD/MURIEL AV,0,33.888715758267,-118.20114286104
10180,COMPTON BLVD/HARRIS AV,0,33.896091958704,-118.19886714615
10181,ALONDRA BLVD/HARRIS AV,0,33.88873134745,-118.19836863681
10182,COMPTON BLVD/CASTLEGATE AV,0,33.896122951537,-118.19672538
10183,ALONDRA BLVD/WHITE AV,0,33.888755885255,-118.19511997443
10184,COMPTON BLVD/ATLANTIC AV,0,33.896161242334,-118.19344021599
10185,ALONDRA BLVD/ATLANTIC AV,0,33.888762165527,-118.19292562002
10186,SOMERSET BLVD/GIBSON AV,0,33.896258842816,-118.18907767203
10188,SAN JOSE AV/SOMERSET BLVD,0,33.896256232246,-118.18184482848
10189,MYRRH ST/SAN JOSE AV,0,33.892505791851,-118.18161592784
