shape_id,shape_pt_lat,shape_pt_lon,shape_pt_sequence
3120.1,34.074851174895,-118.06974449977,0
3120.1,34.075709025341,-118.06884041029,6
3120.1,34.075766419676,-118.06442210127,19
3120.1,34.081138348827,-118.06467392064,38
3120.1,34.081289977276,-118.05830035293,58
3120.1,34.079017267868,-118.05282679537,76
3120.1,34.077153389961,-118.04824207586,92
3120.1,34.076431825279,-118.04534559927,101
3120.1,34.076312158788,-118.0419145168,111
3120.1,34.075815026176,-118.04124722108,114
3120.1,34.071964940301,-118.042222732,128
3120.1,34.072296633757,-118.04444519392,135
3120.1,34.07113703807,-118.04444457779,139
3120.1,34.07113783878,-118.04221240842,146
3120.1,34.071964940301,-118.042222732,149
3120.1,34.072068622478,-118.03601160382,168
3120.1,34.074921178224,-118.03506180538,179
3120.1,34.075415524603,-118.03597341845,182
3120.1,34.07618228062,-118.03562371233,185
3120.1,34.07618228062,-118.03562371233,186
3120.1,34.075415524603,-118.03597341845,188
3120.1,34.076524058879,-118.04099660057,204
3120.1,34.076431825279,-118.04534559927,217
3120.1,34.077153389961,-118.04824207586,226
3120.1,34.079017267868,-118.05282679537,242
3120.1,34.081289977276,-118.05830035293,260
3120.1,34.081138348827,-118.06467392064,279
3120.1,34.075766419676,-118.06442210127,299
3120.1,34.075705741288,-118.06977493221,315
3120.1,34.074851174895,-118.06974449977,318
970.1,34.075648619286,-118.0734271232,0
970.1,34.075654329264,-118.07307379226,1
970.1,34.072420119681,-118.07304124813,12
970.1,34.062694314378,-118.06543886129,55
970.1,34.062694314378,-118.06543886129,56
970.1,34.062690711322,-118.07178141141,74
970.1,34.062673598702,-118.07724900004,90
970.1,34.062662231803,-118.08198691828,105
970.1,34.062662231803,-118.08198691828,106
970.1,34.059021330487,-118.08197344553,118
970.1,34.059001816139,-118.08631826378,131
970.1,34.055549979977,-118.08705421868,146
970.1,34.055377681924,-118.08195997125,162
970.1,34.046963791427,-118.08189561122,193
970.1,34.046963791427,-118.08189561122,194
970.1,34.044095046204,-118.0818729977,203
970.1,34.040890899806,-118.0820910185,215
970.1,34.038479633213,-118.08008180407,226
970.1,34.038069633215,-118.08093629876,229
970.1,34.037906810746,-118.08197256603,232
970.1,34.036833079898,-118.08096480883,237
970.1,34.037906810746,-118.08197256603,242
970.1,34.038479633213,-118.08008180407,248
970.1,34.040890899806,-118.0820910185,259
970.1,34.046963791427,-118.08189561122,281
970.1,34.051651611806,-118.08192660987,298
970.1,34.051651611806,-118.08192660987,299
970.1,34.051769122253,-118.09052981582,325
970.1,34.053926167762,-118.09055856066,332
970.1,34.054762963372,-118.09580536106,349
970.1,34.05534802233,-118.09949369971,360
970.1,34.055349937128,-118.10374921249,373
970.1,34.055349937128,-118.10374921249,374
970.1,34.059430497687,-118.10375757454,388
970.1,34.062598759853,-118.10377801256,399
970.1,34.062598759853,-118.10377801256,400
970.1,34.062613338633,-118.09951554728,412
970.1,34.06262704748,-118.09616104488,422
970.1,34.062631393409,-118.09053826896,439
970.1,34.062650953449,-118.08634183921,452
970.1,34.062662231803,-118.08198691828,465
970.1,34.062662231803,-118.08198691828,466
970.1,34.067789640742,-118.08212401951,484
970.1,34.069954971549,-118.08209642755,492
970.1,34.080509503097,-118.08208697316,530
970.1,34.080557182083,-118.08065377881,535
970.1,34.08066355697,-118.07766850897,544
970.1,34.080744626521,-118.07548899614,550
970.1,34.080828456681,-118.07322361888,557
970.1,34.08096246498,-118.06965382589,568
970.1,34.081118828003,-118.06520559528,581
970.1,34.081236347226,-118.06117342554,594
970.1,34.081289977276,-118.05830035293,602
970.1,34.078432048545,-118.05862198767,613
970.1,34.075827098863,-118.05858053542,622
970.1,34.075827098863,-118.05858053542,623
970.1,34.075853806571,-118.06014910519,627
970.1,34.075853806571,-118.06014910519,628
970.1,34.073160919691,-118.06012075189,637
970.1,34.073160919691,-118.06012075189,638
970.1,34.073098250437,-118.0644200463,650
970.1,34.075766419676,-118.06442210127,660
970.1,34.075709025341,-118.06884041029,673
970.1,34.075648619286,-118.0734271232,687
970.2,34.075648619286,-118.0734271232,0
970.2,34.075654329264,-118.07307379226,1
970.2,34.072420119681,-118.07304124813,12
970.2,34.062694314378,-118.06543886129,55
970.2,34.062694314378,-118.06543886129,56
970.2,34.062690711322,-118.07178141141,74
970.2,34.062673598702,-118.07724900004,90
970.2,34.062662231803,-118.08198691828,105
970.2,34.062662231803,-118.08198691828,106
970.2,34.059021330487,-118.08197344553,118
970.2,34.059001816139,-118.08631826378,131
970.2,34.055549979977,-118.08705421868,146
970.2,34.055377681924,-118.08195997125,162
970.2,34.046963791427,-118.08189561122,193
970.2,34.046963791427,-118.08189561122,194
970.2,34.044095046204,-118.0818729977,203
970.2,34.040890899806,-118.0820910185,215
970.2,34.038479633213,-118.08008180407,226
970.2,34.038069633215,-118.08093629876,229
970.2,34.037906810746,-118.08197256603,232
970.2,34.036833079898,-118.08096480883,237
970.2,34.037906810746,-118.08197256603,242
970.2,34.038479633213,-118.08008180407,248
970.2,34.040890899806,-118.0820910185,259
970.2,34.046963791427,-118.08189561122,281
970.2,34.051651611806,-118.08192660987,298
970.2,34.051651611806,-118.08192660987,299
970.2,34.051769122253,-118.09052981582,325
970.2,34.053926167762,-118.09055856066,332
970.2,34.054762963372,-118.09580536106,349
970.2,34.05534802233,-118.09949369971,360
970.2,34.055349937128,-118.10374921249,373
970.2,34.055349937128,-118.10374921249,374
970.2,34.059430497687,-118.10375757454,388
970.2,34.062598759853,-118.10377801256,399
970.2,34.062598759853,-118.10377801256,400
970.2,34.062613338633,-118.09951554728,412
970.2,34.06262704748,-118.09616104488,422
970.2,34.062631393409,-118.09053826896,439
970.2,34.062650953449,-118.08634183921,452
970.2,34.062662231803,-118.08198691828,465
970.2,34.062662231803,-118.08198691828,466
970.2,34.067789640742,-118.08212401951,484
970.2,34.069954971549,-118.08209642755,492
970.2,34.080509503097,-118.08208697316,530
970.2,34.080557182083,-118.08065377881,535
970.2,34.08066355697,-118.07766850897,544
970.2,34.080744626521,-118.07548899614,550
970.2,34.080828456681,-118.07322361888,557
970.2,34.08096246498,-118.06965382589,568
970.2,34.081118828003,-118.06520559528,581
970.2,34.081236347226,-118.06117342554,594
970.2,34.081289977276,-118.05830035293,602
970.2,34.078432048545,-118.05862198767,613
970.2,34.075827098863,-118.05858053542,622
970.2,34.075827098863,-118.05858053542,623
970.2,34.075853806571,-118.06014910519,627
970.2,34.075853806571,-118.06014910519,628
970.2,34.073160919691,-118.06012075189,637
970.2,34.073160919691,-118.06012075189,638
970.2,34.073098250437,-118.0644200463,650
970.2,34.075766419676,-118.06442210127,660
970.2,34.075709025341,-118.06884041029,673
970.2,34.075648619286,-118.0734271232,687
970.2,34.075654329264,-118.07307379226,688
970.2,34.072420119681,-118.07304124813,700
970.2,34.062694314378,-118.06543886129,742
970.2,34.062694314378,-118.06543886129,743
970.2,34.062690711322,-118.07178141141,761
970.2,34.062673598702,-118.07724900004,778
970.2,34.062662231803,-118.08198691828,792
970.2,34.062662231803,-118.08198691828,793
970.2,34.059021330487,-118.08197344553,805
970.2,34.059001816139,-118.08631826378,818
970.2,34.055341178735,-118.08700448036,832
970.2,34.055377681924,-118.08195997125,847
970.2,34.051651611806,-118.08192660987,861
970.2,34.051651611806,-118.08192660987,862
970.2,34.044095046204,-118.0818729977,888
970.2,34.040890899806,-118.0820910185,900
970.2,34.038479633213,-118.08008180407,911
970.2,34.038069633215,-118.08093629876,914
970.2,34.037906810746,-118.08197256603,917
970.2,34.036833079898,-118.08096480883,922
970.2,34.037906810746,-118.08197256603,927
970.2,34.038479633213,-118.08008180407,933
970.2,34.040890899806,-118.0820910185,944
970.2,34.046963791427,-118.08189561122,966
970.2,34.051651611806,-118.08192660987,983
970.2,34.051769122253,-118.09052981582,1009
970.2,34.053926167762,-118.09055856066,1017
970.2,34.054762963372,-118.09580536106,1034
970.2,34.05534802233,-118.09949369971,1045
970.2,34.055349937128,-118.10374921249,1058
970.2,34.055349937128,-118.10374921249,1059
970.2,34.059430497687,-118.10375757454,1073
970.2,34.062598759853,-118.10377801256,1084
970.2,34.062598759853,-118.10377801256,1085
970.2,34.062613338633,-118.09951554728,1097
970.2,34.06262704748,-118.09616104488,1107
970.2,34.062631393409,-118.09053826896,1124
970.2,34.062650953449,-118.08634183921,1137
970.2,34.062662231803,-118.08198691828,1150
970.2,34.062662231803,-118.08198691828,1151
970.2,34.067789640742,-118.08212401951,1169
970.2,34.069954971549,-118.08209642755,1177
970.2,34.080509503097,-118.08208697316,1215
970.2,34.080557182083,-118.08065377881,1219
970.2,34.08066355697,-118.07766850897,1228
970.2,34.080744626521,-118.07548899614,1235
970.2,34.080828456681,-118.07322361888,1242
970.2,34.08096246498,-118.06965382589,1253
970.2,34.081118828003,-118.06520559528,1266
970.2,34.081236347226,-118.06117342554,1278
970.2,34.081289977276,-118.05830035293,1287
970.2,34.078432048545,-118.05862198767,1298
970.2,34.075827098863,-118.05858053542,1307
970.2,34.075827098863,-118.05858053542,1308
970.2,34.075853806571,-118.06014910519,1312
970.2,34.075853806571,-118.06014910519,1313
970.2,34.073160919691,-118.06012075189,1322
970.2,34.073160919691,-118.06012075189,1323
970.2,34.073098250437,-118.0644200463,1335
970.2,34.075766419676,-118.06442210127,1344
970.2,34.075709025341,-118.06884041029,1358
970.2,34.075648619286,-118.0734271232,1372
970.3,34.075648619286,-118.0734271232,687
970.3,34.075654329264,-118.07307379226,688
970.3,34.072420119681,-118.07304124813,700
970.3,34.062694314378,-118.06543886129,742
970.3,34.062694314378,-118.06543886129,743
970.3,34.062690711322,-118.07178141141,761
970.3,34.062673598702,-118.07724900004,778
970.3,34.062662231803,-118.08198691828,792
970.3,34.062662231803,-118.08198691828,793
970.3,34.059021330487,-118.08197344553,805
970.3,34.059001816139,-118.08631826378,818
970.3,34.055341178735,-118.08700448036,832
970.3,34.055377681924,-118.08195997125,847
970.3,34.051651611806,-118.08192660987,861
970.3,34.051651611806,-118.08192660987,862
970.3,34.044095046204,-118.0818729977,888
970.3,34.040890899806,-118.0820910185,900
970.3,34.038479633213,-118.08008180407,911
970.3,34.038069633215,-118.08093629876,914
970.3,34.037906810746,-118.08197256603,917
970.3,34.036833079898,-118.08096480883,922
970.3,34.037906810746,-118.08197256603,927
970.3,34.038479633213,-118.08008180407,933
970.3,34.040890899806,-118.0820910185,944
970.3,34.046963791427,-118.08189561122,966
970.3,34.051651611806,-118.08192660987,983
970.3,34.051769122253,-118.09052981582,1009
970.3,34.053926167762,-118.09055856066,1017
970.3,34.054762963372,-118.09580536106,1034
970.3,34.05534802233,-118.09949369971,1045
970.3,34.055349937128,-118.10374921249,1058
970.3,34.055349937128,-118.10374921249,1059
970.3,34.059430497687,-118.10375757454,1073
970.3,34.062598759853,-118.10377801256,1084
970.3,34.062598759853,-118.10377801256,1085
970.3,34.062613338633,-118.09951554728,1097
970.3,34.06262704748,-118.09616104488,1107
970.3,34.062631393409,-118.09053826896,1124
970.3,34.062650953449,-118.08634183921,1137
970.3,34.062662231803,-118.08198691828,1150
970.3,34.062662231803,-118.08198691828,1151
970.3,34.067789640742,-118.08212401951,1169
970.3,34.069954971549,-118.08209642755,1177
970.3,34.080509503097,-118.08208697316,1215
970.3,34.080557182083,-118.08065377881,1219
970.3,34.08066355697,-118.07766850897,1228
970.3,34.080744626521,-118.07548899614,1235
970.3,34.080828456681,-118.07322361888,1242
970.3,34.08096246498,-118.06965382589,1253
970.3,34.081118828003,-118.06520559528,1266
970.3,34.081236347226,-118.06117342554,1278
970.3,34.081289977276,-118.05830035293,1287
970.3,34.078432048545,-118.05862198767,1298
970.3,34.075827098863,-118.05858053542,1307
970.3,34.075827098863,-118.05858053542,1308
970.3,34.075853806571,-118.06014910519,1312
970.3,34.075853806571,-118.06014910519,1313
970.3,34.073160919691,-118.06012075189,1322
970.3,34.073160919691,-118.06012075189,1323
970.3,34.073098250437,-118.0644200463,1335
970.3,34.075766419676,-118.06442210127,1344
970.3,34.075709025341,-118.06884041029,1358
970.3,34.075648619286,-118.0734271232,1372
972.1,34.075648619286,-118.0734271232,0
972.1,34.075654329264,-118.07307379226,1
972.1,34.075709025341,-118.06884041029,13
972.1,34.075766419676,-118.06442210127,27
972.1,34.073098250437,-118.0644200463,36
972.1,34.073160919691,-118.06012075189,50
972.1,34.075853806571,-118.06014910519,59
972.1,34.075853806571,-118.06014910519,60
972.1,34.075827098863,-118.05858053542,64
972.1,34.075827098863,-118.05858053542,65
972.1,34.078432048545,-118.05862198767,74
972.1,34.081289977276,-118.05830035293,84
972.1,34.081236347226,-118.06117342554,93
972.1,34.081138348827,-118.06467392064,103
972.1,34.081118828003,-118.06520559528,105
972.1,34.083599722975,-118.0708350215,125
972.1,34.084334671192,-118.0733125549,133
972.1,34.080828456681,-118.07322361888,145
972.1,34.080744626521,-118.07548899614,152
972.1,34.08066355697,-118.07766850897,159
972.1,34.080587948178,-118.07984141804,165
972.1,34.080509503097,-118.08208697316,172
972.1,34.069954971549,-118.08209642755,211
972.1,34.067789640742,-118.08212401951,219
972.1,34.062662231803,-118.08198691828,237
972.1,34.062650953449,-118.08634183921,250
972.1,34.062631393409,-118.09053826896,263
972.1,34.06262704748,-118.09616104488,280
972.1,34.062613338633,-118.09951554728,290
972.1,34.062598759853,-118.10377801256,303
972.1,34.062598759853,-118.10377801256,304
972.1,34.059430497687,-118.10375757454,315
972.1,34.055349937128,-118.10374921249,330
972.1,34.05534802233,-118.09949369971,342
972.1,34.054762963372,-118.09580536106,354
972.1,34.054191452946,-118.09221943115,365
972.1,34.053926167762,-118.09055856066,370
972.1,34.053926167762,-118.09055856066,371
972.1,34.051769122253,-118.09052981582,378
972.1,34.051645181683,-118.08718550737,388
972.1,34.051651611806,-118.08192660987,404
972.1,34.046963791427,-118.08189561122,421
972.1,34.044095046204,-118.0818729977,431
972.1,34.040890899806,-118.0820910185,443
972.1,34.038479633213,-118.08008180407,454
972.1,34.038069633215,-118.08093629876,457
972.1,34.037906810746,-118.08197256603,460
972.1,34.036833079898,-118.08096480883,465
972.1,34.037906810746,-118.08197256603,470
972.1,34.038479633213,-118.08008180407,477
972.1,34.040890899806,-118.0820910185,487
972.1,34.04482871847,-118.08188031756,502
972.1,34.051651611806,-118.08192660987,527
972.1,34.055377681924,-118.08195997125,540
972.1,34.062662231803,-118.08198691828,567
972.1,34.062662231803,-118.08198691828,568
972.1,34.062673598702,-118.07724900004,581
972.1,34.062689907186,-118.07312189825,594
972.1,34.062690711322,-118.07178141141,598
972.1,34.062694314378,-118.06543886129,617
972.1,34.06812655883,-118.07078889977,643
972.1,34.072420119681,-118.07304124813,660
972.1,34.075654329264,-118.07307379226,672
972.1,34.075654329264,-118.07307379226,673
972.1,34.075648619286,-118.0734271232,674
972.2,34.075648619286,-118.0734271232,0
972.2,34.075654329264,-118.07307379226,1
972.2,34.075709025341,-118.06884041029,13
972.2,34.075766419676,-118.06442210127,27
972.2,34.073098250437,-118.0644200463,36
972.2,34.073160919691,-118.06012075189,50
972.2,34.075853806571,-118.06014910519,59
972.2,34.075853806571,-118.06014910519,60
972.2,34.075827098863,-118.05858053542,64
972.2,34.075827098863,-118.05858053542,65
972.2,34.078432048545,-118.05862198767,74
972.2,34.081289977276,-118.05830035293,84
972.2,34.081236347226,-118.06117342554,93
972.2,34.081138348827,-118.06467392064,103
972.2,34.081118828003,-118.06520559528,105
972.2,34.083599722975,-118.0708350215,125
972.2,34.084334671192,-118.0733125549,133
972.2,34.080828456681,-118.07322361888,145
972.2,34.080744626521,-118.07548899614,152
972.2,34.08066355697,-118.07766850897,159
972.2,34.080587948178,-118.07984141804,165
972.2,34.080509503097,-118.08208697316,172
972.2,34.069954971549,-118.08209642755,211
972.2,34.067789640742,-118.08212401951,219
972.2,34.062662231803,-118.08198691828,237
972.2,34.062650953449,-118.08634183921,250
972.2,34.062631393409,-118.09053826896,263
972.2,34.06262704748,-118.09616104488,280
972.2,34.062613338633,-118.09951554728,290
972.2,34.062598759853,-118.10377801256,303
972.2,34.062598759853,-118.10377801256,304
972.2,34.059430497687,-118.10375757454,315
972.2,34.055349937128,-118.10374921249,330
972.2,34.05534802233,-118.09949369971,342
972.2,34.054762963372,-118.09580536106,354
972.2,34.054191452946,-118.09221943115,365
972.2,34.053926167762,-118.09055856066,370
972.2,34.053926167762,-118.09055856066,371
972.2,34.051769122253,-118.09052981582,378
972.2,34.051645181683,-118.08718550737,388
972.2,34.051651611806,-118.08192660987,404
972.2,34.046963791427,-118.08189561122,421
972.2,34.044095046204,-118.0818729977,431
972.2,34.040890899806,-118.0820910185,443
972.2,34.038479633213,-118.08008180407,454
972.2,34.038069633215,-118.08093629876,457
972.2,34.037906810746,-118.08197256603,460
972.2,34.036833079898,-118.08096480883,465
972.2,34.037906810746,-118.08197256603,470
972.2,34.038479633213,-118.08008180407,477
972.2,34.040890899806,-118.0820910185,487
972.2,34.04482871847,-118.08188031756,502
972.2,34.051651611806,-118.08192660987,527
972.2,34.055377681924,-118.08195997125,540
972.2,34.062662231803,-118.08198691828,567
972.2,34.062662231803,-118.08198691828,568
972.2,34.062673598702,-118.07724900004,581
972.2,34.062689907186,-118.07312189825,594
972.2,34.062690711322,-118.07178141141,598
972.2,34.062694314378,-118.06543886129,617
972.2,34.06812655883,-118.07078889977,643
972.2,34.072420119681,-118.07304124813,660
972.2,34.075654329264,-118.07307379226,672
972.2,34.075654329264,-118.07307379226,673
972.2,34.075648619286,-118.0734271232,674
972.2,34.075654329264,-118.07307379226,675
972.2,34.075709025341,-118.06884041029,687
972.2,34.075766419676,-118.06442210127,700
972.2,34.073098250437,-118.0644200463,710
972.2,34.073160919691,-118.06012075189,723
972.2,34.075853806571,-118.06014910519,733
972.2,34.075853806571,-118.06014910519,734
972.2,34.075827098863,-118.05858053542,738
972.2,34.075827098863,-118.05858053542,739
972.2,34.078432048545,-118.05862198767,747
972.2,34.081289977276,-118.05830035293,758
972.2,34.081236347226,-118.06117342554,766
972.2,34.081138348827,-118.06467392064,777
972.2,34.081118828003,-118.06520559528,779
972.2,34.083627201555,-118.07083504478,798
972.2,34.084334671192,-118.0733125549,806
972.2,34.080828456681,-118.07322361888,819
972.2,34.080744626521,-118.07548899614,826
972.2,34.08066355697,-118.07766850897,832
972.2,34.080587948178,-118.07984141804,839
972.2,34.080509503097,-118.08208697316,846
972.2,34.069954971549,-118.08209642755,884
972.2,34.067789640742,-118.08212401951,892
972.2,34.062662231803,-118.08198691828,911
972.2,34.062650953449,-118.08634183921,924
972.2,34.062631393409,-118.09053826896,936
972.2,34.06262704748,-118.09616104488,953
972.2,34.062613338633,-118.09951554728,964
972.2,34.062598759853,-118.10377801256,977
972.2,34.062598759853,-118.10377801256,978
972.2,34.059430497687,-118.10375757454,988
972.2,34.055349937128,-118.10374921249,1003
972.2,34.05534802233,-118.09949369971,1016
972.2,34.054762963372,-118.09580536106,1027
972.2,34.054191452946,-118.09221943115,1038
972.2,34.053926167762,-118.09055856066,1043
972.2,34.053926167762,-118.09055856066,1044
972.2,34.051769122253,-118.09052981582,1051
972.2,34.051645181683,-118.08718550737,1061
972.2,34.051651611806,-118.08192660987,1077
972.2,34.047650752528,-118.08189958471,1092
972.2,34.044095046204,-118.0818729977,1105
972.2,34.040890899806,-118.0820910185,1117
972.2,34.038479633213,-118.08008180407,1127
972.2,34.038069633215,-118.08093629876,1131
972.2,34.037906810746,-118.08197256603,1134
972.2,34.036833079898,-118.08096480883,1139
972.2,34.037906810746,-118.08197256603,1144
972.2,34.038479633213,-118.08008180407,1150
972.2,34.040890899806,-118.0820910185,1161
972.2,34.04482871847,-118.08188031756,1175
972.2,34.051651611806,-118.08192660987,1200
972.2,34.055377681924,-118.08195997125,1214
972.2,34.062662231803,-118.08198691828,1240
972.2,34.062662231803,-118.08198691828,1241
972.2,34.062673598702,-118.07724900004,1254
972.2,34.062689907186,-118.07312189825,1267
972.2,34.062690711322,-118.07178141141,1271
972.2,34.062694314378,-118.06543886129,1290
972.2,34.06812655883,-118.07078889977,1316
972.2,34.072420119681,-118.07304124813,1334
972.2,34.075654329264,-118.07307379226,1345
972.2,34.075654329264,-118.07307379226,1346
972.2,34.075648619286,-118.0734271232,1347
972.3,34.075648619286,-118.0734271232,674
972.3,34.075654329264,-118.07307379226,675
972.3,34.075709025341,-118.06884041029,687
972.3,34.075766419676,-118.06442210127,700
972.3,34.073098250437,-118.0644200463,710
972.3,34.073160919691,-118.06012075189,723
972.3,34.075853806571,-118.06014910519,733
972.3,34.075853806571,-118.06014910519,734
972.3,34.075827098863,-118.05858053542,738
972.3,34.075827098863,-118.05858053542,739
972.3,34.078432048545,-118.05862198767,747
972.3,34.081289977276,-118.05830035293,758
972.3,34.081236347226,-118.06117342554,766
972.3,34.081138348827,-118.06467392064,777
972.3,34.081118828003,-118.06520559528,779
972.3,34.083627201555,-118.07083504478,798
972.3,34.084334671192,-118.0733125549,806
972.3,34.080828456681,-118.07322361888,819
972.3,34.080744626521,-118.07548899614,826
972.3,34.08066355697,-118.07766850897,832
972.3,34.080587948178,-118.07984141804,839
972.3,34.080509503097,-118.08208697316,846
972.3,34.069954971549,-118.08209642755,884
972.3,34.067789640742,-118.08212401951,892
972.3,34.062662231803,-118.08198691828,911
972.3,34.062650953449,-118.08634183921,924
972.3,34.062631393409,-118.09053826896,936
972.3,34.06262704748,-118.09616104488,953
972.3,34.062613338633,-118.09951554728,964
972.3,34.062598759853,-118.10377801256,977
972.3,34.062598759853,-118.10377801256,978
972.3,34.059430497687,-118.10375757454,988
972.3,34.055349937128,-118.10374921249,1003
972.3,34.05534802233,-118.09949369971,1016
972.3,34.054762963372,-118.09580536106,1027
972.3,34.054191452946,-118.09221943115,1038
972.3,34.053926167762,-118.09055856066,1043
972.3,34.053926167762,-118.09055856066,1044
972.3,34.051769122253,-118.09052981582,1051
972.3,34.051645181683,-118.08718550737,1061
972.3,34.051651611806,-118.08192660987,1077
972.3,34.047650752528,-118.08189958471,1092
972.3,34.044095046204,-118.0818729977,1105
972.3,34.040890899806,-118.0820910185,1117
972.3,34.038479633213,-118.08008180407,1127
972.3,34.038069633215,-118.08093629876,1131
972.3,34.037906810746,-118.08197256603,1134
972.3,34.036833079898,-118.08096480883,1139
972.3,34.037906810746,-118.08197256603,1144
972.3,34.038479633213,-118.08008180407,1150
972.3,34.040890899806,-118.0820910185,1161
972.3,34.04482871847,-118.08188031756,1175
972.3,34.051651611806,-118.08192660987,1200
972.3,34.055377681924,-118.08195997125,1214
972.3,34.062662231803,-118.08198691828,1240
972.3,34.062662231803,-118.08198691828,1241
972.3,34.062673598702,-118.07724900004,1254
972.3,34.062689907186,-118.07312189825,1267
972.3,34.062690711322,-118.07178141141,1271
972.3,34.062694314378,-118.06543886129,1290
972.3,34.06812655883,-118.07078889977,1316
972.3,34.072420119681,-118.07304124813,1334
972.3,34.075654329264,-118.07307379226,1345
972.3,34.075654329264,-118.07307379226,1346
972.3,34.075648619286,-118.0734271232,1347
