route_id,service_id,trip_id,trip_headsign,shape_id
1000.1,MTWHFSU,1000.1-10-0-851-0900-0957-3262-0-0-0-0_AV_5LB,""AVENUE I - 40TH ST E"",1000.1
1000.1,MTWHF,1000.1-10-0-851-0930-1027-3262-0-0-0-0_AV_5LB,""AVENUE I - 40TH ST E"",1000.1
1000.1,MTWHFSU,1000.1-11-0-851-1000-1057-3262-0-0-0-0_AV_5LB,""AVENUE I - 40TH ST E"",1000.1
1000.1,MTWHF,1000.1-11-0-851-1030-1127-3262-0-0-0-0_AV_5LB,""AVENUE I - 40TH ST E"",1000.1
1000.1,MTWHFSU,1000.1-12-0-851-1100-1157-3262-0-0-0-0_AV_5LB,""AVENUE I - 40TH ST E"",1000.1
1000.1,MTWHF,1000.1-12-0-851-1130-1227-3262-0-0-0-0_AV_5LB,""AVENUE I - 40TH ST E"",1000.1
1000.1,MTWHFSU,1000.1-13-0-851-1200-1257-3262-0-0-0-0_AV_5LB,""AVENUE I - 40TH ST E"",1000.1
1000.1,MTWHF,1000.1-13-0-851-1230-1327-3262-0-0-0-0_AV_5LB,""AVENUE I - 40TH ST E"",1000.1
1000.1,MTWHFSU,1000.1-14-0-851-1300-1357-3262-0-0-0-0_AV_5LB,""AVENUE I - 40TH ST E"",1000.1
1000.1,MTWHF,1000.1-14-0-851-1330-1427-3262-0-0-0-0_AV_5LB,""AVENUE I - 40TH ST E"",1000.1
1000.1,MTWHFSU,1000.1-15-0-851-1400-1457-3262-0-0-0-0_AV_5LB,""AVENUE I - 40TH ST E"",1000.1
1000.1,MTWHF,1000.1-15-0-851-1430-1527-3262-0-0-0-0_AV_5LB,""AVENUE I - 40TH ST E"",1000.1
1000.1,MTWHFSU,1000.1-16-0-851-1500-1557-3262-0-0-0-0_AV_5LB,""AVENUE I - 40TH ST E"",1000.1
1000.1,MTWHF,1000.1-16-0-851-1530-1627-3262-0-0-0-0_AV_5LB,""AVENUE I - 40TH ST E"",1000.1
1000.1,MTWHFSU,1000.1-17-0-851-1600-1657-3262-0-0-0-0_AV_5LB,""AVENUE I - 40TH ST E"",1000.1
1000.1,MTWHF,1000.1-17-0-851-1630-1727-3262-0-0-0-0_AV_5LB,""AVENUE I - 40TH ST E"",1000.1
1000.1,MTWHFSU,1000.1-18-0-851-1700-1757-3262-0-0-0-0_AV_5LB,""AVENUE I - 40TH ST E"",1000.1
1000.1,MTWHF,1000.1-18-0-851-1730-1827-3262-0-0-0-0_AV_5LB,""AVENUE I - 40TH ST E"",1000.1
1000.1,MTWHFSU,1000.1-19-0-851-1800-1857-3262-0-0-0-0_AV_5LB,""AVENUE I - 40TH ST E"",1000.1
1000.1,MTWHFS,1000.1-20-0-851-1900-1957-3262-0-0-0-0_AV_5LB,""AVENUE I - 40TH ST E"",1000.1
1000.1,MTWHF,1000.1-21-0-851-2000-2057-3262-0-0-0-0_AV_5LB,""AVENUE I - 40TH ST E"",1000.1
1000.1,MTWHF,1000.1-22-0-851-2100-2157-3262-0-0-0-0_AV_5LB,""AVENUE I - 40TH ST E"",1000.1
1000.1,MTWHF,1000.1-23-0-851-2200-2257-3262-0-0-0-0_AV_5LB,""AVENUE I - 40TH ST E"",1000.1
1000.1,MTWHF,1000.1-24-0-851-2300-2357-3262-0-0-0-0_AV_5LB,""AVENUE I - 40TH ST E"",1000.1
1000.1,MTWHF,1000.1-7-0-851-0600-0657-3262-0-0-0-0_AV_5LB,""AVENUE I - 40TH ST E"",1000.1
1000.1,MTWHF,1000.1-7-0-851-0630-0727-3262-0-0-0-0_AV_5LB,""AVENUE I - 40TH ST E"",1000.1
1000.1,MTWHFSU,1000.1-8-0-851-0700-0757-3262-0-0-0-0_AV_5LB,""AVENUE I - 40TH ST E"",1000.1
1000.1,MTWHF,1000.1-8-0-851-0730-0827-3262-0-0-0-0_AV_5LB,""AVENUE I - 40TH ST E"",1000.1
1000.1,MTWHFSU,1000.1-9-0-851-0800-0857-3262-0-0-0-0_AV_5LB,""AVENUE I - 40TH ST E"",1000.1
1000.1,MTWHF,1000.1-9-0-851-0830-0927-3262-0-0-0-0_AV_5LB,""AVENUE I - 40TH ST E"",1000.1
1001.1,MTWHF,1001.1-10-0-825-0920-1017-2743-0-0-0-0_AV_5LB,""LANCASTER CITY PARK"",1001.1
1001.1,MTWHFSU,1001.1-10-0-825-0950-1047-2743-0-0-0-0_AV_5LB,""LANCASTER CITY PARK"",1001.1
1001.1,MTWHF,1001.1-11-0-825-1020-1117-2743-0-0-0-0_AV_5LB,""LANCASTER CITY PARK"",1001.1
1001.1,MTWHFSU,1001.1-11-0-825-1050-1147-2743-0-0-0-0_AV_5LB,""LANCASTER CITY PARK"",1001.1
1001.1,MTWHF,1001.1-12-0-825-1120-1217-2743-0-0-0-0_AV_5LB,""LANCASTER CITY PARK"",1001.1
1001.1,MTWHFSU,1001.1-12-0-825-1150-1247-2743-0-0-0-0_AV_5LB,""LANCASTER CITY PARK"",1001.1
1001.1,MTWHF,1001.1-13-0-825-1220-1317-2743-0-0-0-0_AV_5LB,""LANCASTER CITY PARK"",1001.1
1001.1,MTWHFSU,1001.1-13-0-825-1250-1347-2743-0-0-0-0_AV_5LB,""LANCASTER CITY PARK"",1001.1
1001.1,MTWHF,1001.1-14-0-825-1320-1417-2743-0-0-0-0_AV_5LB,""LANCASTER CITY PARK"",1001.1
1001.1,MTWHFSU,1001.1-14-0-825-1350-1447-2743-0-0-0-0_AV_5LB,""LANCASTER CITY PARK"",1001.1
1001.1,MTWHF,1001.1-15-0-825-1420-1517-2743-0-0-0-0_AV_5LB,""LANCASTER CITY PARK"",1001.1
1001.1,MTWHFSU,1001.1-15-0-825-1450-1547-2743-0-0-0-0_AV_5LB,""LANCASTER CITY PARK"",1001.1
1001.1,MTWHF,1001.1-16-0-825-1520-1617-2743-0-0-0-0_AV_5LB,""LANCASTER CITY PARK"",1001.1
1001.1,MTWHFSU,1001.1-16-0-825-1550-1647-2743-0-0-0-0_AV_5LB,""LANCASTER CITY PARK"",1001.1
1001.1,MTWHF,1001.1-17-0-825-1620-1717-2743-0-0-0-0_AV_5LB,""LANCASTER CITY PARK"",1001.1
1001.1,MTWHFSU,1001.1-17-0-825-1650-1747-2743-0-0-0-0_AV_5LB,""LANCASTER CITY PARK"",1001.1
1001.1,MTWHF,1001.1-18-0-825-1720-1817-2743-0-0-0-0_AV_5LB,""LANCASTER CITY PARK"",1001.1
1001.1,MTWHFSU,1001.1-18-0-825-1750-1847-2743-0-0-0-0_AV_5LB,""LANCASTER CITY PARK"",1001.1
1001.1,MTWHF,1001.1-19-0-825-1850-1947-2743-0-0-0-0_AV_5LB,""LANCASTER CITY PARK"",1001.1
1001.1,MTWHF,1001.1-20-0-825-1950-2047-2743-0-0-0-0_AV_5LB,""LANCASTER CITY PARK"",1001.1
1001.1,MTWHF,1001.1-21-0-825-2050-2147-2743-0-0-0-0_AV_5LB,""LANCASTER CITY PARK"",1001.1
1001.1,MTWHF,1001.1-22-0-825-2150-2247-2743-0-0-0-0_AV_5LB,""LANCASTER CITY PARK"",1001.1
1001.1,MTWHF,1001.1-6-0-825-0520-0617-2743-0-0-0-0_AV_5LB,""LANCASTER CITY PARK"",1001.1
1001.1,MTWHFS,1001.1-6-0-825-0550-0647-2743-0-0-0-0_AV_5LB,""LANCASTER CITY PARK"",1001.1
1001.1,MTWHF,1001.1-7-0-825-0620-0717-2743-0-0-0-0_AV_5LB,""LANCASTER CITY PARK"",1001.1
1001.1,MTWHFSU,1001.1-7-0-825-0650-0747-2743-0-0-0-0_AV_5LB,""LANCASTER CITY PARK"",1001.1
1001.1,MTWHF,1001.1-8-0-825-0720-0817-2743-0-0-0-0_AV_5LB,""LANCASTER CITY PARK"",1001.1
1001.1,MTWHFSU,1001.1-8-0-825-0750-0847-2743-0-0-0-0_AV_5LB,""LANCASTER CITY PARK"",1001.1
1001.1,MTWHF,1001.1-9-0-825-0820-0917-2743-0-0-0-0_AV_5LB,""LANCASTER CITY PARK"",1001.1
1001.1,MTWHFSU,1001.1-9-0-825-0850-0947-2743-0-0-0-0_AV_5LB,""LANCASTER CITY PARK"",1001.1
1002.1,MTWHF,1002.1-10-0-476-0900-0945-3259-0-0-0-0_AV_5LB,""47TH ST E - AVENUE S"",1002.1
1002.1,MTWHFSU,1002.1-10-0-476-0930-1015-3259-0-0-0-0_AV_5LB,""47TH ST E - AVENUE S"",1002.1
1002.1,MTWHF,1002.1-11-0-476-1000-1045-3259-0-0-0-0_AV_5LB,""47TH ST E - AVENUE S"",1002.1
1002.1,MTWHFSU,1002.1-11-0-476-1030-1115-3259-0-0-0-0_AV_5LB,""47TH ST E - AVENUE S"",1002.1
1002.1,MTWHF,1002.1-12-0-476-1100-1145-3259-0-0-0-0_AV_5LB,""47TH ST E - AVENUE S"",1002.1
1002.1,MTWHFSU,1002.1-12-0-476-1130-1215-3259-0-0-0-0_AV_5LB,""47TH ST E - AVENUE S"",1002.1
1002.1,MTWHF,1002.1-13-0-476-1200-1245-3259-0-0-0-0_AV_5LB,""47TH ST E - AVENUE S"",1002.1
1002.1,MTWHF,1002.1-13-0-476-1230-1315-3259-0-0-0-0_AV_5LB,""47TH ST E - AVENUE S"",1002.1
1002.1,SU,1002.1-13-0-476-1230-1318-3259-0-0-0-0_AV_5LB,""47TH ST E - AVENUE S"",1002.1
1002.1,MTWHF,1002.1-14-0-476-1300-1345-3259-0-0-0-0_AV_5LB,""47TH ST E - AVENUE S"",1002.1
1002.1,MTWHFSU,1002.1-14-0-476-1330-1415-3259-0-0-0-0_AV_5LB,""47TH ST E - AVENUE S"",1002.1
1002.1,MTWHF,1002.1-15-0-476-1400-1445-3259-0-0-0-0_AV_5LB,""47TH ST E - AVENUE S"",1002.1
1002.1,MTWHFSU,1002.1-15-0-476-1430-1515-3259-0-0-0-0_AV_5LB,""47TH ST E - AVENUE S"",1002.1
1002.1,MTWHF,1002.1-16-0-476-1500-1545-3259-0-0-0-0_AV_5LB,""47TH ST E - AVENUE S"",1002.1
1002.1,MTWHFSU,1002.1-16-0-476-1530-1615-3259-0-0-0-0_AV_5LB,""47TH ST E - AVENUE S"",1002.1
1002.1,MTWHF,1002.1-17-0-476-1600-1645-3259-0-0-0-0_AV_5LB,""47TH ST E - AVENUE S"",1002.1
1002.1,MTWHFSU,1002.1-17-0-476-1630-1715-3259-0-0-0-0_AV_5LB,""47TH ST E - AVENUE S"",1002.1
1002.1,MTWHF,1002.1-18-0-476-1700-1745-3259-0-0-0-0_AV_5LB,""47TH ST E - AVENUE S"",1002.1
1002.1,MTWHFSU,1002.1-18-0-476-1730-1815-3259-0-0-0-0_AV_5LB,""47TH ST E - AVENUE S"",1002.1
1002.1,MTWHF,1002.1-19-0-476-1800-1845-3259-0-0-0-0_AV_5LB,""47TH ST E - AVENUE S"",1002.1
1002.1,SU,1002.1-19-0-476-1830-1915-3259-0-0-0-0_AV_5LB,""47TH ST E - AVENUE S"",1002.1
1002.1,MTWHF,1002.1-20-0-476-1900-1945-3259-0-0-0-0_AV_5LB,""47TH ST E - AVENUE S"",1002.1
1002.1,S,1002.1-20-0-476-1930-2015-3259-0-0-0-0_AV_5LB,""47TH ST E - AVENUE S"",1002.1
1002.1,MTWHF,1002.1-21-0-476-2000-2045-3259-0-0-0-0_AV_5LB,""47TH ST E - AVENUE S"",1002.1
1002.1,MTWHF,1002.1-22-0-476-2100-2145-3259-0-0-0-0_AV_5LB,""47TH ST E - AVENUE S"",1002.1
1002.1,MTWHF,1002.1-23-0-476-2200-2245-3259-0-0-0-0_AV_5LB,""47TH ST E - AVENUE S"",1002.1
1002.1,MTWHF,1002.1-7-0-476-0600-0645-3259-0-0-0-0_AV_5LB,""47TH ST E - AVENUE S"",1002.1
1002.1,MTWHFSU,1002.1-7-0-476-0630-0715-3259-0-0-0-0_AV_5LB,""47TH ST E - AVENUE S"",1002.1
1002.1,MTWHF,1002.1-8-0-476-0700-0745-3259-0-0-0-0_AV_5LB,""47TH ST E - AVENUE S"",1002.1
1002.1,MTWHFSU,1002.1-8-0-476-0730-0815-3259-0-0-0-0_AV_5LB,""47TH ST E - AVENUE S"",1002.1
1002.1,MTWHF,1002.1-9-0-476-0800-0845-3259-0-0-0-0_AV_5LB,""47TH ST E - AVENUE S"",1002.1
1002.1,MTWHFSU,1002.1-9-0-476-0830-0915-3259-0-0-0-0_AV_5LB,""47TH ST E - AVENUE S"",1002.1
1003.1,MTWHF,1003.1-10-0-476-0925-1010-3260-0-0-0-0_AV_5LB,""ANTELOPE VALLEY MALL"",1003.1
1003.1,SU,1003.1-10-0-476-0930-1015-3260-0-0-0-0_AV_5LB,""ANTELOPE VALLEY MALL"",1003.1
1003.1,MTWHF,1003.1-10-0-476-0955-1040-3260-0-0-0-0_AV_5LB,""ANTELOPE VALLEY MALL"",1003.1
1003.1,MTWHF,1003.1-11-0-476-1025-1110-3260-0-0-0-0_AV_5LB,""ANTELOPE VALLEY MALL"",1003.1
1003.1,SU,1003.1-11-0-476-1030-1115-3260-0-0-0-0_AV_5LB,""ANTELOPE VALLEY MALL"",1003.1
1003.1,MTWHF,1003.1-11-0-476-1055-1140-3260-0-0-0-0_AV_5LB,""ANTELOPE VALLEY MALL"",1003.1
1003.1,MTWHF,1003.1-12-0-476-1125-1210-3260-0-0-0-0_AV_5LB,""ANTELOPE VALLEY MALL"",1003.1
1003.1,SU,1003.1-12-0-476-1130-1215-3260-0-0-0-0_AV_5LB,""ANTELOPE VALLEY MALL"",1003.1
1003.1,MTWHF,1003.1-12-0-476-1155-1240-3260-0-0-0-0_AV_5LB,""ANTELOPE VALLEY MALL"",1003.1
1003.1,MTWHF,1003.1-13-0-476-1225-1310-3260-0-0-0-0_AV_5LB,""ANTELOPE VALLEY MALL"",1003.1
1003.1,SU,1003.1-13-0-476-1230-1315-3260-0-0-0-0_AV_5LB,""ANTELOPE VALLEY MALL"",1003.1
1003.1,MTWHF,1003.1-13-0-476-1255-1340-3260-0-0-0-0_AV_5LB,""ANTELOPE VALLEY MALL"",1003.1
1003.1,MTWHF,1003.1-14-0-476-1325-1410-3260-0-0-0-0_AV_5LB,""ANTELOPE VALLEY MALL"",1003.1
1003.1,SU,1003.1-14-0-476-1330-1415-3260-0-0-0-0_AV_5LB,""ANTELOPE VALLEY MALL"",1003.1
1003.1,MTWHF,1003.1-14-0-476-1355-1440-3260-0-0-0-0_AV_5LB,""ANTELOPE VALLEY MALL"",1003.1
1003.1,MTWHF,1003.1-15-0-476-1425-1510-3260-0-0-0-0_AV_5LB,""ANTELOPE VALLEY MALL"",1003.1
1003.1,SU,1003.1-15-0-476-1430-1515-3260-0-0-0-0_AV_5LB,""ANTELOPE VALLEY MALL"",1003.1
1003.1,MTWHF,1003.1-15-0-476-1455-1540-3260-0-0-0-0_AV_5LB,""ANTELOPE VALLEY MALL"",1003.1
1003.1,MTWHF,1003.1-16-0-476-1525-1610-3260-0-0-0-0_AV_5LB,""ANTELOPE VALLEY MALL"",1003.1
1003.1,SU,1003.1-16-0-476-1530-1615-3260-0-0-0-0_AV_5LB,""ANTELOPE VALLEY MALL"",1003.1
1003.1,MTWHF,1003.1-16-0-476-1555-1640-3260-0-0-0-0_AV_5LB,""ANTELOPE VALLEY MALL"",1003.1
1003.1,MTWHF,1003.1-17-0-476-1625-1710-3260-0-0-0-0_AV_5LB,""ANTELOPE VALLEY MALL"",1003.1
1003.1,SU,1003.1-17-0-476-1630-1715-3260-0-0-0-0_AV_5LB,""ANTELOPE VALLEY MALL"",1003.1
1003.1,MTWHF,1003.1-17-0-476-1655-1740-3260-0-0-0-0_AV_5LB,""ANTELOPE VALLEY MALL"",1003.1
1003.1,MTWHF,1003.1-18-0-476-1725-1810-3260-0-0-0-0_AV_5LB,""ANTELOPE VALLEY MALL"",1003.1
1003.1,SU,1003.1-18-0-476-1730-1815-3260-0-0-0-0_AV_5LB,""ANTELOPE VALLEY MALL"",1003.1
1003.1,MTWHF,1003.1-18-0-476-1755-1840-3260-0-0-0-0_AV_5LB,""ANTELOPE VALLEY MALL"",1003.1
1003.1,SU,1003.1-19-0-476-1830-1915-3260-0-0-0-0_AV_5LB,""ANTELOPE VALLEY MALL"",1003.1
1003.1,MTWHF,1003.1-19-0-476-1855-1940-3260-0-0-0-0_AV_5LB,""ANTELOPE VALLEY MALL"",1003.1
1003.1,S,1003.1-20-0-476-1930-2015-3260-0-0-0-0_AV_5LB,""ANTELOPE VALLEY MALL"",1003.1
1003.1,MTWHF,1003.1-20-0-476-1955-2040-3260-0-0-0-0_AV_5LB,""ANTELOPE VALLEY MALL"",1003.1
1003.1,MTWHF,1003.1-21-0-476-2055-2140-3260-0-0-0-0_AV_5LB,""ANTELOPE VALLEY MALL"",1003.1
1003.1,MTWHF,1003.1-22-0-476-2155-2240-3260-0-0-0-0_AV_5LB,""ANTELOPE VALLEY MALL"",1003.1
1003.1,MTWHF,1003.1-6-0-476-0555-0640-3260-0-0-0-0_AV_5LB,""ANTELOPE VALLEY MALL"",1003.1
1003.1,MTWHF,1003.1-7-0-476-0625-0710-3260-0-0-0-0_AV_5LB,""ANTELOPE VALLEY MALL"",1003.1
1003.1,SU,1003.1-7-0-476-0630-0715-3260-0-0-0-0_AV_5LB,""ANTELOPE VALLEY MALL"",1003.1
1003.1,MTWHF,1003.1-7-0-476-0655-0740-3260-0-0-0-0_AV_5LB,""ANTELOPE VALLEY MALL"",1003.1
1003.1,MTWHF,1003.1-8-0-476-0725-0810-3260-0-0-0-0_AV_5LB,""ANTELOPE VALLEY MALL"",1003.1
1003.1,SU,1003.1-8-0-476-0730-0815-3260-0-0-0-0_AV_5LB,""ANTELOPE VALLEY MALL"",1003.1
1003.1,MTWHF,1003.1-8-0-476-0755-0840-3260-0-0-0-0_AV_5LB,""ANTELOPE VALLEY MALL"",1003.1
1003.1,MTWHF,1003.1-9-0-476-0825-0910-3260-0-0-0-0_AV_5LB,""ANTELOPE VALLEY MALL"",1003.1
1003.1,SU,1003.1-9-0-476-0830-0915-3260-0-0-0-0_AV_5LB,""ANTELOPE VALLEY MALL"",1003.1
1003.1,MTWHF,1003.1-9-0-476-0855-0940-3260-0-0-0-0_AV_5LB,""ANTELOPE VALLEY MALL"",1003.1
1022.1,MTWHF,1022.1-15-0-3658-1450-1645-2752-2752-0-1_AV_3EX,"""",1022.1
1022.1,MTWHF,1022.1-16-0-3658-1510-1705-2752-2752-0-2_AV_3EX,"""",1022.1
1022.1,MTWHF,1022.1-16-0-3658-1530-1725-2752-2752-0-3_AV_3EX,"""",1022.1
1022.1,MTWHF,1022.1-16-0-3658-1550-1751-2752-2752-0-4_AV_3EX,"""",1022.1
1022.1,MTWHF,1022.1-17-0-3658-1615-1816-2752-2752-0-5_AV_3EX,"""",1022.1
1022.1,MTWHF,1022.1-17-0-3658-1635-1836-2752-2752-0-6_AV_3EX,"""",1022.1
1022.1,MTWHF,1022.1-18-0-3658-1700-1907-2752-2752-0-7_AV_3EX,"""",1022.1
1022.1,MTWHF,1022.1-18-0-3658-1720-1927-2752-2752-0-8_AV_3EX,"""",1022.1
1022.1,MTWHF,1022.1-18-0-3658-1740-1947-2752-2752-0-9_AV_3EX,"""",1022.1
1023.1,MTWHF,1023.1-4-0-3714-0350-0542-2757-2757-0-1_AV_3EX,"""",1023.1
1023.1,MTWHF,1023.1-5-0-3714-0410-0602-2757-2757-0-2_AV_3EX,"""",1023.1
1023.1,MTWHF,1023.1-5-0-3714-0430-0622-2757-2757-0-3_AV_3EX,"""",1023.1
1023.1,MTWHF,1023.1-5-0-3714-0445-0655-2757-2757-0-4_AV_3EX,"""",1023.1
1023.1,MTWHF,1023.1-6-0-3714-0500-0710-2757-2757-0-5_AV_3EX,"""",1023.1
1023.1,MTWHF,1023.1-6-0-3714-0520-0730-2757-2757-0-6_AV_3EX,"""",1023.1
1023.1,MTWHF,1023.1-6-0-3714-0540-0800-2757-2757-0-7_AV_3EX,"""",1023.1
1023.1,MTWHF,1023.1-7-0-3714-0610-0835-2757-2757-0-8_AV_3EX,"""",1023.1
1023.1,MTWHF,1023.1-7-0-3714-0630-0855-2757-2757-0-9_AV_3EX,"""",1023.1
1024.1,MTWHF,1024.1-15-0-3446-1450-1713-2752-2752-0-AV-1_AV_3EX,""LANCASTER-PALMDALE"",1024.1
1024.1,MTWHF,1024.1-16-0-3446-1520-1744-2752-2752-0-AV-2_AV_3EX,""LANCASTER-PALMDALE"",1024.1
1024.1,MTWHF,1024.1-17-0-3446-1600-1831-2752-2752-0-AV-3_AV_3EX,""LANCASTER-PALMDALE"",1024.1
1024.1,MTWHF,1024.1-17-0-3446-1620-1851-2752-2752-0-AV-4_AV_3EX,""LANCASTER-PALMDALE"",1024.1
1024.1,MTWHF,1024.1-17-0-3446-1650-1928-2752-2752-0-AV-5_AV_3EX,""LANCASTER-PALMDALE"",1024.1
1025.1,MTWHF,1025.1-5-0-3459-0400-0624-2756-2756-0-0-0_AV_3EX,""WLA-CENTURY CITY-BEVERLY HILLS"",1025.1
1025.1,MTWHF,1025.1-5-0-3459-0430-0659-2756-2756-0-0-0_AV_3EX,""WLA-CENTURY CITY-BEVERLY HILLS"",1025.1
1025.1,MTWHF,1025.1-5-0-3459-0450-0715-2756-2756-0-0-0_AV_3EX,""WLA-CENTURY CITY-BEVERLY HILLS"",1025.1
1026.1,MTWHF,1026.1-15-0-3183-1450-1647-2752-0-0-1_AV_3EX,"""",1026.1
1026.1,MTWHF,1026.1-16-0-3183-1510-1707-2752-0-0-2_AV_3EX,"""",1026.1
1026.1,MTWHF,1026.1-16-0-3183-1530-1727-2752-0-0-3_AV_3EX,"""",1026.1
1026.1,MTWHF,1026.1-16-0-3183-1550-1747-2752-0-0-4_AV_3EX,"""",1026.1
1026.1,MTWHF,1026.1-17-0-3183-1610-1824-2752-0-0-5_AV_3EX,"""",1026.1
1026.1,MTWHF,1026.1-17-0-3183-1630-1849-2752-0-0-6_AV_3EX,"""",1026.1
1026.1,MTWHF,1026.1-17-0-3183-1650-1914-2752-0-0-7_AV_3EX,"""",1026.1
1026.1,MTWHF,1026.1-18-0-3183-1710-1934-2752-0-0-8_AV_3EX,"""",1026.1
1026.1,MTWHF,1026.1-18-0-3183-1740-1954-2752-0-0-9_AV_3EX,"""",1026.1
1027.1,MTWHF,1027.1-5-0-3207-0400-0555-2753-0-0-1_AV_3EX,"""",1027.1
1027.1,MTWHF,1027.1-5-0-3207-0420-0615-2753-0-0-2_AV_3EX,"""",1027.1
1027.1,MTWHF,1027.1-5-0-3207-0440-0635-2753-0-0-3_AV_3EX,"""",1027.1
1027.1,MTWHF,1027.1-6-0-3207-0500-0655-2753-0-0-4_AV_3EX,"""",1027.1
1027.1,MTWHF,1027.1-6-0-3207-0520-0728-2753-0-0-5_AV_3EX,"""",1027.1
1027.1,MTWHF,1027.1-6-0-3207-0540-0748-2753-0-0-6_AV_3EX,"""",1027.1
1027.1,MTWHF,1027.1-7-0-3207-0600-0828-2753-0-0-7_AV_3EX,"""",1027.1
1027.1,MTWHF,1027.1-7-0-3207-0620-0848-2753-0-0-8_AV_3EX,"""",1027.1
1027.1,MTWHF,1027.1-7-0-3207-0630-0858-2753-0-0-9_AV_3EX,"""",1027.1
1080.1,SU,1080.1-10-0-642-0935-1017-2502-0-0-0-0_AV_5LB,""SIERRA HWY & LANCASTER BLVD"",1080.1
1080.1,MTWHF,1080.1-10-0-642-0940-1022-2502-0-0-0-0_AV_5LB,""SIERRA HWY & LANCASTER BLVD"",1080.1
1080.1,MTWHF,1080.1-11-0-642-1040-1122-2502-0-0-0-0_AV_5LB,""SIERRA HWY & LANCASTER BLVD"",1080.1
1080.1,SU,1080.1-12-0-642-1135-1217-2502-0-0-0-0_AV_5LB,""SIERRA HWY & LANCASTER BLVD"",1080.1
1080.1,MTWHF,1080.1-12-0-642-1140-1222-2502-0-0-0-0_AV_5LB,""SIERRA HWY & LANCASTER BLVD"",1080.1
1080.1,MTWHF,1080.1-13-0-642-1240-1322-2502-0-0-0-0_AV_5LB,""SIERRA HWY & LANCASTER BLVD"",1080.1
1080.1,SU,1080.1-14-0-642-1335-1417-2502-0-0-0-0_AV_5LB,""SIERRA HWY & LANCASTER BLVD"",1080.1
1080.1,MTWHF,1080.1-14-0-642-1340-1422-2502-0-0-0-0_AV_5LB,""SIERRA HWY & LANCASTER BLVD"",1080.1
1080.1,MTWHF,1080.1-15-0-642-1440-1522-2502-0-0-0-0_AV_5LB,""SIERRA HWY & LANCASTER BLVD"",1080.1
1080.1,SU,1080.1-16-0-642-1535-1617-2502-0-0-0-0_AV_5LB,""SIERRA HWY & LANCASTER BLVD"",1080.1
1080.1,MTWHF,1080.1-16-0-642-1540-1622-2502-0-0-0-0_AV_5LB,""SIERRA HWY & LANCASTER BLVD"",1080.1
1080.1,MTWHF,1080.1-17-0-642-1640-1722-2502-0-0-0-0_AV_5LB,""SIERRA HWY & LANCASTER BLVD"",1080.1
1080.1,SU,1080.1-18-0-642-1735-1817-2502-0-0-0-0_AV_5LB,""SIERRA HWY & LANCASTER BLVD"",1080.1
1080.1,MTWHF,1080.1-18-0-642-1740-1822-2502-0-0-0-0_AV_5LB,""SIERRA HWY & LANCASTER BLVD"",1080.1
1080.1,MTWHF,1080.1-19-0-642-1840-1922-2502-0-0-0-0_AV_5LB,""SIERRA HWY & LANCASTER BLVD"",1080.1
1080.1,SU,1080.1-20-0-642-1935-2017-2502-0-0-0-0_AV_5LB,""SIERRA HWY & LANCASTER BLVD"",1080.1
1080.1,MTWHF,1080.1-20-0-642-1940-2022-2502-0-0-0-0_AV_5LB,""SIERRA HWY & LANCASTER BLVD"",1080.1
1080.1,MTWHF,1080.1-21-0-642-2040-2122-2502-0-0-0-0_AV_5LB,""SIERRA HWY & LANCASTER BLVD"",1080.1
1080.1,MTWHF,1080.1-7-0-642-0640-0722-2502-0-0-0-0_AV_5LB,""SIERRA HWY & LANCASTER BLVD"",1080.1
1080.1,SU,1080.1-8-0-642-0735-0817-2502-0-0-0-0_AV_5LB,""SIERRA HWY & LANCASTER BLVD"",1080.1
1080.1,MTWHF,1080.1-8-0-642-0740-0822-2502-0-0-0-0_AV_5LB,""SIERRA HWY & LANCASTER BLVD"",1080.1
1080.1,MTWHF,1080.1-9-0-642-0840-0922-2502-0-0-0-0_AV_5LB,""SIERRA HWY & LANCASTER BLVD"",1080.1
1081.1,MTWHF,1081.1-10-0-745-0930-1020-2743-0-0-0-0_AV_5LB,""LANCASTER CITY PARK"",1081.1
1081.1,MTWHFSU,1081.1-11-0-745-1030-1120-2743-0-0-0-0_AV_5LB,""LANCASTER CITY PARK"",1081.1
1081.1,MTWHF,1081.1-12-0-745-1130-1220-2743-0-0-0-0_AV_5LB,""LANCASTER CITY PARK"",1081.1
1081.1,MTWHFSU,1081.1-13-0-745-1230-1320-2743-0-0-0-0_AV_5LB,""LANCASTER CITY PARK"",1081.1
1081.1,MTWHF,1081.1-14-0-745-1330-1420-2743-0-0-0-0_AV_5LB,""LANCASTER CITY PARK"",1081.1
1081.1,MTWHFSU,1081.1-15-0-745-1430-1520-2743-0-0-0-0_AV_5LB,""LANCASTER CITY PARK"",1081.1
1081.1,MTWHF,1081.1-16-0-745-1530-1620-2743-0-0-0-0_AV_5LB,""LANCASTER CITY PARK"",1081.1
1081.1,MTWHFSU,1081.1-17-0-745-1630-1720-2743-0-0-0-0_AV_5LB,""LANCASTER CITY PARK"",1081.1
1081.1,MTWHF,1081.1-18-0-745-1730-1820-2743-0-0-0-0_AV_5LB,""LANCASTER CITY PARK"",1081.1
1081.1,MTWHFSU,1081.1-19-0-745-1830-1920-2743-0-0-0-0_AV_5LB,""LANCASTER CITY PARK"",1081.1
1081.1,MTWHF,1081.1-20-0-745-1930-2020-2743-0-0-0-0_AV_5LB,""LANCASTER CITY PARK"",1081.1
1081.1,MTWHFSU,1081.1-21-0-745-2030-2120-2743-0-0-0-0_AV_5LB,""LANCASTER CITY PARK"",1081.1
1081.1,MTWHF,1081.1-6-0-745-0530-0620-2743-0-0-0-0_AV_5LB,""LANCASTER CITY PARK"",1081.1
1081.1,MTWHF,1081.1-7-0-745-0630-0720-2743-0-0-0-0_AV_5LB,""LANCASTER CITY PARK"",1081.1
1081.1,MTWHF,1081.1-8-0-745-0730-0820-2743-0-0-0-0_AV_5LB,""LANCASTER CITY PARK"",1081.1
1081.1,MTWHFSU,1081.1-9-0-745-0830-0920-2743-0-0-0-0_AV_5LB,""LANCASTER CITY PARK"",1081.1
1634.1,MTWHF,1634.1-10-0-533-0900-0945-3259-0-0-0-0_AV_5LB,""47TH ST E - AVENUE S"",1634.1
1634.1,MTWHFSU,1634.1-10-0-533-0930-1015-3259-0-0-0-0_AV_5LB,""47TH ST E - AVENUE S"",1634.1
1634.1,MTWHF,1634.1-11-0-533-1000-1045-3259-0-0-0-0_AV_5LB,""47TH ST E - AVENUE S"",1634.1
1634.1,MTWHFSU,1634.1-11-0-533-1030-1115-3259-0-0-0-0_AV_5LB,""47TH ST E - AVENUE S"",1634.1
1634.1,MTWHF,1634.1-12-0-533-1100-1145-3259-0-0-0-0_AV_5LB,""47TH ST E - AVENUE S"",1634.1
1634.1,MTWHFSU,1634.1-12-0-533-1130-1215-3259-0-0-0-0_AV_5LB,""47TH ST E - AVENUE S"",1634.1
1634.1,MTWHF,1634.1-13-0-533-1200-1245-3259-0-0-0-0_AV_5LB,""47TH ST E - AVENUE S"",1634.1
1634.1,MTWHFSU,1634.1-13-0-533-1230-1316-3259-0-0-0-0_AV_5LB,""47TH ST E - AVENUE S"",1634.1
1634.1,MTWHF,1634.1-14-0-533-1300-1345-3259-0-0-0-0_AV_5LB,""47TH ST E - AVENUE S"",1634.1
1634.1,MTWHFSU,1634.1-14-0-533-1330-1415-3259-0-0-0-0_AV_5LB,""47TH ST E - AVENUE S"",1634.1
1634.1,MTWHF,1634.1-15-0-533-1400-1445-3259-0-0-0-0_AV_5LB,""47TH ST E - AVENUE S"",1634.1
1634.1,MTWHFSU,1634.1-15-0-533-1430-1515-3259-0-0-0-0_AV_5LB,""47TH ST E - AVENUE S"",1634.1
1634.1,MTWHF,1634.1-16-0-533-1500-1545-3259-0-0-0-0_AV_5LB,""47TH ST E - AVENUE S"",1634.1
1634.1,MTWHFSU,1634.1-16-0-533-1530-1615-3259-0-0-0-0_AV_5LB,""47TH ST E - AVENUE S"",1634.1
1634.1,MTWHF,1634.1-17-0-533-1600-1645-3259-0-0-0-0_AV_5LB,""47TH ST E - AVENUE S"",1634.1
1634.1,MTWHFSU,1634.1-17-0-533-1630-1715-3259-0-0-0-0_AV_5LB,""47TH ST E - AVENUE S"",1634.1
1634.1,MTWHF,1634.1-18-0-533-1700-1745-3259-0-0-0-0_AV_5LB,""47TH ST E - AVENUE S"",1634.1
1634.1,MTWHFSU,1634.1-18-0-533-1730-1815-3259-0-0-0-0_AV_5LB,""47TH ST E - AVENUE S"",1634.1
1634.1,MTWHF,1634.1-19-0-533-1800-1845-3259-0-0-0-0_AV_5LB,""47TH ST E - AVENUE S"",1634.1
1634.1,SU,1634.1-19-0-533-1830-1915-3259-0-0-0-0_AV_5LB,""47TH ST E - AVENUE S"",1634.1
1634.1,MTWHF,1634.1-20-0-533-1900-1945-3259-0-0-0-0_AV_5LB,""47TH ST E - AVENUE S"",1634.1
1634.1,S,1634.1-20-0-533-1930-2015-3259-0-0-0-0_AV_5LB,""47TH ST E - AVENUE S"",1634.1
1634.1,MTWHF,1634.1-21-0-533-2000-2045-3259-0-0-0-0_AV_5LB,""47TH ST E - AVENUE S"",1634.1
1634.1,MTWHF,1634.1-22-0-533-2100-2145-3259-0-0-0-0_AV_5LB,""47TH ST E - AVENUE S"",1634.1
1634.1,MTWHF,1634.1-23-0-533-2200-2245-3259-0-0-0-0_AV_5LB,""47TH ST E - AVENUE S"",1634.1
1634.1,MTWHF,1634.1-7-0-533-0600-0645-3259-0-0-0-0_AV_5LB,""47TH ST E - AVENUE S"",1634.1
1634.1,MTWHFSU,1634.1-7-0-533-0630-0715-3259-0-0-0-0_AV_5LB,""47TH ST E - AVENUE S"",1634.1
1634.1,MTWHF,1634.1-8-0-533-0700-0745-3259-0-0-0-0_AV_5LB,""47TH ST E - AVENUE S"",1634.1
1634.1,MTWHFSU,1634.1-8-0-533-0730-0815-3259-0-0-0-0_AV_5LB,""47TH ST E - AVENUE S"",1634.1
1634.1,MTWHF,1634.1-9-0-533-0800-0845-3259-0-0-0-0_AV_5LB,""47TH ST E - AVENUE S"",1634.1
1634.1,MTWHFSU,1634.1-9-0-533-0830-0915-3259-0-0-0-0_AV_5LB,""47TH ST E - AVENUE S"",1634.1
1635.1,MTWHF,1635.1-10-0-568-0925-1010-3260-0-0-0-0_AV_5LB,""ANTELOPE VALLEY MALL"",1635.1
1635.1,SU,1635.1-10-0-568-0930-1015-3260-0-0-0-0_AV_5LB,""ANTELOPE VALLEY MALL"",1635.1
1635.1,MTWHF,1635.1-10-0-568-0955-1040-3260-0-0-0-0_AV_5LB,""ANTELOPE VALLEY MALL"",1635.1
1635.1,MTWHF,1635.1-11-0-568-1025-1110-3260-0-0-0-0_AV_5LB,""ANTELOPE VALLEY MALL"",1635.1
1635.1,SU,1635.1-11-0-568-1030-1115-3260-0-0-0-0_AV_5LB,""ANTELOPE VALLEY MALL"",1635.1
1635.1,MTWHF,1635.1-11-0-568-1055-1140-3260-0-0-0-0_AV_5LB,""ANTELOPE VALLEY MALL"",1635.1
1635.1,MTWHF,1635.1-12-0-568-1125-1210-3260-0-0-0-0_AV_5LB,""ANTELOPE VALLEY MALL"",1635.1
1635.1,SU,1635.1-12-0-568-1130-1215-3260-0-0-0-0_AV_5LB,""ANTELOPE VALLEY MALL"",1635.1
1635.1,MTWHF,1635.1-12-0-568-1155-1240-3260-0-0-0-0_AV_5LB,""ANTELOPE VALLEY MALL"",1635.1
1635.1,MTWHF,1635.1-13-0-568-1225-1310-3260-0-0-0-0_AV_5LB,""ANTELOPE VALLEY MALL"",1635.1
1635.1,SU,1635.1-13-0-568-1230-1315-3260-0-0-0-0_AV_5LB,""ANTELOPE VALLEY MALL"",1635.1
1635.1,MTWHF,1635.1-13-0-568-1255-1340-3260-0-0-0-0_AV_5LB,""ANTELOPE VALLEY MALL"",1635.1
1635.1,MTWHF,1635.1-14-0-568-1325-1410-3260-0-0-0-0_AV_5LB,""ANTELOPE VALLEY MALL"",1635.1
1635.1,SU,1635.1-14-0-568-1330-1415-3260-0-0-0-0_AV_5LB,""ANTELOPE VALLEY MALL"",1635.1
1635.1,MTWHF,1635.1-14-0-568-1355-1440-3260-0-0-0-0_AV_5LB,""ANTELOPE VALLEY MALL"",1635.1
1635.1,MTWHF,1635.1-15-0-568-1425-1510-3260-0-0-0-0_AV_5LB,""ANTELOPE VALLEY MALL"",1635.1
1635.1,SU,1635.1-15-0-568-1430-1515-3260-0-0-0-0_AV_5LB,""ANTELOPE VALLEY MALL"",1635.1
1635.1,MTWHF,1635.1-15-0-568-1455-1540-3260-0-0-0-0_AV_5LB,""ANTELOPE VALLEY MALL"",1635.1
1635.1,MTWHF,1635.1-16-0-568-1525-1610-3260-0-0-0-0_AV_5LB,""ANTELOPE VALLEY MALL"",1635.1
1635.1,SU,1635.1-16-0-568-1530-1615-3260-0-0-0-0_AV_5LB,""ANTELOPE VALLEY MALL"",1635.1
1635.1,MTWHF,1635.1-16-0-568-1555-1640-3260-0-0-0-0_AV_5LB,""ANTELOPE VALLEY MALL"",1635.1
1635.1,MTWHF,1635.1-17-0-568-1625-1710-3260-0-0-0-0_AV_5LB,""ANTELOPE VALLEY MALL"",1635.1
1635.1,SU,1635.1-17-0-568-1630-1715-3260-0-0-0-0_AV_5LB,""ANTELOPE VALLEY MALL"",1635.1
1635.1,MTWHF,1635.1-17-0-568-1655-1740-3260-0-0-0-0_AV_5LB,""ANTELOPE VALLEY MALL"",1635.1
1635.1,MTWHF,1635.1-18-0-568-1725-1810-3260-0-0-0-0_AV_5LB,""ANTELOPE VALLEY MALL"",1635.1
1635.1,SU,1635.1-18-0-568-1730-1815-3260-0-0-0-0_AV_5LB,""ANTELOPE VALLEY MALL"",1635.1
1635.1,MTWHF,1635.1-18-0-568-1755-1840-3260-0-0-0-0_AV_5LB,""ANTELOPE VALLEY MALL"",1635.1
1635.1,SU,1635.1-19-0-568-1830-1915-3260-0-0-0-0_AV_5LB,""ANTELOPE VALLEY MALL"",1635.1
1635.1,MTWHF,1635.1-19-0-568-1855-1940-3260-0-0-0-0_AV_5LB,""ANTELOPE VALLEY MALL"",1635.1
1635.1,S,1635.1-20-0-568-1930-2015-3260-0-0-0-0_AV_5LB,""ANTELOPE VALLEY MALL"",1635.1
1635.1,MTWHF,1635.1-20-0-568-1955-2040-3260-0-0-0-0_AV_5LB,""ANTELOPE VALLEY MALL"",1635.1
1635.1,MTWHF,1635.1-21-0-568-2055-2140-3260-0-0-0-0_AV_5LB,""ANTELOPE VALLEY MALL"",1635.1
1635.1,MTWHF,1635.1-22-0-568-2155-2240-3260-0-0-0-0_AV_5LB,""ANTELOPE VALLEY MALL"",1635.1
1635.1,MTWHF,1635.1-6-0-568-0555-0640-3260-0-0-0-0_AV_5LB,""ANTELOPE VALLEY MALL"",1635.1
1635.1,MTWHF,1635.1-7-0-568-0625-0710-3260-0-0-0-0_AV_5LB,""ANTELOPE VALLEY MALL"",1635.1
1635.1,SU,1635.1-7-0-568-0630-0715-3260-0-0-0-0_AV_5LB,""ANTELOPE VALLEY MALL"",1635.1
1635.1,MTWHF,1635.1-7-0-568-0655-0740-3260-0-0-0-0_AV_5LB,""ANTELOPE VALLEY MALL"",1635.1
1635.1,MTWHF,1635.1-8-0-568-0725-0810-3260-0-0-0-0_AV_5LB,""ANTELOPE VALLEY MALL"",1635.1
1635.1,SU,1635.1-8-0-568-0730-0815-3260-0-0-0-0_AV_5LB,""ANTELOPE VALLEY MALL"",1635.1
1635.1,MTWHF,1635.1-8-0-568-0755-0840-3260-0-0-0-0_AV_5LB,""ANTELOPE VALLEY MALL"",1635.1
1635.1,MTWHF,1635.1-9-0-568-0825-0910-3260-0-0-0-0_AV_5LB,""ANTELOPE VALLEY MALL"",1635.1
1635.1,SU,1635.1-9-0-568-0830-0915-3260-0-0-0-0_AV_5LB,""ANTELOPE VALLEY MALL"",1635.1
1635.1,MTWHF,1635.1-9-0-568-0855-0940-3260-0-0-0-0_AV_5LB,""ANTELOPE VALLEY MALL"",1635.1
2513.1,SU,2513.1-11-0-1525-1030-1120-3062-0-0-0-0_AV_3EX,""TOWN CENTER PLAZA"",2513.1
2513.1,MTWHF,2513.1-12-0-1525-1130-1220-3062-0-0-0-0_AV_3EX,""TOWN CENTER PLAZA"",2513.1
2513.1,MTWHF,2513.1-13-0-1525-1230-1320-3062-0-0-0-0_AV_3EX,""TOWN CENTER PLAZA"",2513.1
2513.1,SU,2513.1-16-0-1525-1500-1550-3062-0-0-0-0_AV_3EX,""TOWN CENTER PLAZA"",2513.1
2513.1,MTWHF,2513.1-16-0-1525-1530-1620-3062-0-0-0-0_AV_3EX,""TOWN CENTER PLAZA"",2513.1
2513.1,MTWHF,2513.1-17-0-1525-1630-1720-3062-0-0-0-0_AV_3EX,""TOWN CENTER PLAZA"",2513.1
2513.1,SU,2513.1-18-0-1525-1700-1750-3062-0-0-0-0_AV_3EX,""TOWN CENTER PLAZA"",2513.1
2513.1,SU,2513.1-20-0-1525-1900-1950-3062-0-0-0-0_AV_3EX,""TOWN CENTER PLAZA"",2513.1
2513.1,MTWHF,2513.1-20-0-1525-1930-2020-3062-0-0-0-0_AV_3EX,""TOWN CENTER PLAZA"",2513.1
2513.1,MTWHF,2513.1-8-0-1525-0730-0820-3062-0-0-0-0_AV_3EX,""TOWN CENTER PLAZA"",2513.1
2513.1,SU,2513.1-9-0-1525-0800-0850-3062-0-0-0-0_AV_3EX,""TOWN CENTER PLAZA"",2513.1
2513.1,MTWHF,2513.1-9-0-1525-0830-0920-3062-0-0-0-0_AV_3EX,""TOWN CENTER PLAZA"",2513.1
2514.1,SU,2514.1-10-0-1512-0930-1020-2743-0-0-0-0_AV_3EX,""LANCASTER CITY PARK"",2514.1
2514.1,MTWHF,2514.1-11-0-1512-1030-1120-2743-0-0-0-0_AV_3EX,""LANCASTER CITY PARK"",2514.1
2514.1,SU,2514.1-12-0-1512-1100-1150-2743-0-0-0-0_AV_3EX,""LANCASTER CITY PARK"",2514.1
2514.1,MTWHF,2514.1-12-0-1512-1130-1220-2743-0-0-0-0_AV_3EX,""LANCASTER CITY PARK"",2514.1
2514.1,MTWHF,2514.1-15-0-1512-1430-1520-2743-0-0-0-0_AV_3EX,""LANCASTER CITY PARK"",2514.1
2514.1,MTWHF,2514.1-16-0-1512-1530-1620-2743-0-0-0-0_AV_3EX,""LANCASTER CITY PARK"",2514.1
2514.1,SU,2514.1-17-0-1512-1600-1650-2743-0-0-0-0_AV_3EX,""LANCASTER CITY PARK"",2514.1
2514.1,SU,2514.1-19-0-1512-1800-1850-2743-0-0-0-0_AV_3EX,""LANCASTER CITY PARK"",2514.1
2514.1,MTWHF,2514.1-19-0-1512-1830-1920-2743-0-0-0-0_AV_3EX,""LANCASTER CITY PARK"",2514.1
2514.1,MTWHF,2514.1-7-0-1512-0630-0720-2743-0-0-0-0_AV_3EX,""LANCASTER CITY PARK"",2514.1
2514.1,SU,2514.1-8-0-1512-0700-0750-2743-0-0-0-0_AV_3EX,""LANCASTER CITY PARK"",2514.1
2514.1,MTWHF,2514.1-8-0-1512-0730-0820-2743-0-0-0-0_AV_3EX,""LANCASTER CITY PARK"",2514.1
2515.1,MTWHF,2515.1-10-0-1051-0930-1020-3062-0-0-0-0_AV_3EX,""TOWN CENTER PLAZA"",2515.1
2515.1,SU,2515.1-11-0-1051-1000-1050-3062-0-0-0-0_AV_3EX,""TOWN CENTER PLAZA"",2515.1
2515.1,MTWHF,2515.1-11-0-1051-1030-1120-3062-0-0-0-0_AV_3EX,""TOWN CENTER PLAZA"",2515.1
2515.1,MTWHF,2515.1-14-0-1051-1330-1420-3062-0-0-0-0_AV_3EX,""TOWN CENTER PLAZA"",2515.1
2515.1,MTWHF,2515.1-15-0-1051-1430-1520-3062-0-0-0-0_AV_3EX,""TOWN CENTER PLAZA"",2515.1
2515.1,SU,2515.1-16-0-1051-1500-1550-3062-0-0-0-0_AV_3EX,""TOWN CENTER PLAZA"",2515.1
2515.1,SU,2515.1-18-0-1051-1700-1750-3062-0-0-0-0_AV_3EX,""TOWN CENTER PLAZA"",2515.1
2515.1,MTWHF,2515.1-18-0-1051-1730-1820-3062-0-0-0-0_AV_3EX,""TOWN CENTER PLAZA"",2515.1
2515.1,MTWHF,2515.1-19-0-1051-1830-1920-3062-0-0-0-0_AV_3EX,""TOWN CENTER PLAZA"",2515.1
2515.1,SU,2515.1-20-0-1051-1900-1950-3062-0-0-0-0_AV_3EX,""TOWN CENTER PLAZA"",2515.1
2515.1,MTWHF,2515.1-7-0-1051-0630-0720-3062-0-0-0-0_AV_3EX,""TOWN CENTER PLAZA"",2515.1
2515.1,SU,2515.1-9-0-1051-0830-0920-3062-0-0-0-0_AV_3EX,""TOWN CENTER PLAZA"",2515.1
2516.1,SU,2516.1-10-0-1285-0900-0950-3136-0-0-0-0_AV_3EX,""PALMDALE TRANSIT CTR"",2516.1
2516.1,MTWHF,2516.1-10-0-1285-0930-1020-3136-0-0-0-0_AV_3EX,""PALMDALE TRANSIT CTR"",2516.1
2516.1,SU,2516.1-12-0-1285-1130-1220-3136-0-0-0-0_AV_3EX,""PALMDALE TRANSIT CTR"",2516.1
2516.1,MTWHF,2516.1-13-0-1285-1230-1320-3136-0-0-0-0_AV_3EX,""PALMDALE TRANSIT CTR"",2516.1
2516.1,MTWHF,2516.1-14-0-1285-1330-1420-3136-0-0-0-0_AV_3EX,""PALMDALE TRANSIT CTR"",2516.1
2516.1,SU,2516.1-17-0-1285-1600-1650-3136-0-0-0-0_AV_3EX,""PALMDALE TRANSIT CTR"",2516.1
2516.1,MTWHF,2516.1-17-0-1285-1630-1720-3136-0-0-0-0_AV_3EX,""PALMDALE TRANSIT CTR"",2516.1
2516.1,MTWHF,2516.1-18-0-1285-1730-1820-3136-0-0-0-0_AV_3EX,""PALMDALE TRANSIT CTR"",2516.1
2516.1,SU,2516.1-19-0-1285-1800-1850-3136-0-0-0-0_AV_3EX,""PALMDALE TRANSIT CTR"",2516.1
2516.1,MTWHF,2516.1-6-0-1285-0530-0620-3136-0-0-0-0_AV_3EX,""PALMDALE TRANSIT CTR"",2516.1
2516.1,SU,2516.1-8-0-1285-0730-0820-3136-0-0-0-0_AV_3EX,""PALMDALE TRANSIT CTR"",2516.1
2516.1,MTWHF,2516.1-9-0-1285-0830-0920-3136-0-0-0-0_AV_3EX,""PALMDALE TRANSIT CTR"",2516.1
3163.1,MTWHF,3163.1-11-0-1803-1035-1140-2622-0-0-0-0_AV_3EX,""LANCASTER METROLINK"",3163.1
3163.1,MTWHF,3163.1-15-0-1803-1435-1540-2622-0-0-0-0_AV_3EX,""LANCASTER METROLINK"",3163.1
3163.2,MTWHF,3163.2-16-160-1803-1500-1550-2622-0-0-0-0_AV_3EX,""LANCASTER METROLINK"",3163.2
3163.2,MTWHF,3163.2-18-160-1803-1700-1750-2622-0-0-0-0_AV_3EX,""LANCASTER METROLINK"",3163.2
3163.2,MTWHF,3163.2-9-160-1803-0850-0936-2622-0-0-0-0_AV_3EX,""LANCASTER METROLINK"",3163.2
3164.1,MTWHF,3164.1-11-0-1449-1030-1120-2632-0-0-0-0_AV_3EX,""NEWHALL METROLINK"",3164.1
3164.1,MTWHF,3164.1-15-0-1449-1400-1450-2632-0-0-0-0_AV_3EX,""NEWHALL METROLINK"",3164.1
3164.1,MTWHF,3164.1-17-0-1449-1600-1650-2632-0-0-0-0_AV_3EX,""NEWHALL METROLINK"",3164.1
3164.1,MTWHF,3164.1-8-0-1449-0750-0840-2632-0-0-0-0_AV_3EX,""NEWHALL METROLINK"",3164.1
3164.2,MTWHF,3164.2-10-0-1609-0910-1010-3319-0-0-0-0_AV_3EX,""MCBEAN REGIONAL TRANS CTR"",3164.2
3165.1,MTWHF,3165.1-6-0-3521-0520-0749-2472-0-0-0-0_AV_3EX,""RAPID 12/UCLA"",3165.1
3165.1,MTWHF,3165.1-6-0-3521-0540-0814-2472-0-0-0-0_AV_3EX,""RAPID 12/UCLA"",3165.1
3257.1,MTWHFSU,3257.1-10-0-506-0900-0944-3262-0-0-0-0_AV_5LB,""AVENUE I - 40TH ST E"",3257.1
3257.1,MTWHF,3257.1-10-0-506-0930-1014-3262-0-0-0-0_AV_5LB,""AVENUE I - 40TH ST E"",3257.1
3257.1,MTWHFSU,3257.1-11-0-506-1000-1044-3262-0-0-0-0_AV_5LB,""AVENUE I - 40TH ST E"",3257.1
3257.1,MTWHF,3257.1-11-0-506-1030-1114-3262-0-0-0-0_AV_5LB,""AVENUE I - 40TH ST E"",3257.1
3257.1,MTWHFSU,3257.1-12-0-506-1100-1144-3262-0-0-0-0_AV_5LB,""AVENUE I - 40TH ST E"",3257.1
3257.1,MTWHF,3257.1-12-0-506-1130-1214-3262-0-0-0-0_AV_5LB,""AVENUE I - 40TH ST E"",3257.1
3257.1,MTWHFSU,3257.1-13-0-506-1200-1244-3262-0-0-0-0_AV_5LB,""AVENUE I - 40TH ST E"",3257.1
3257.1,MTWHF,3257.1-13-0-506-1230-1314-3262-0-0-0-0_AV_5LB,""AVENUE I - 40TH ST E"",3257.1
3257.1,MTWHFSU,3257.1-14-0-506-1300-1344-3262-0-0-0-0_AV_5LB,""AVENUE I - 40TH ST E"",3257.1
3257.1,MTWHF,3257.1-14-0-506-1330-1414-3262-0-0-0-0_AV_5LB,""AVENUE I - 40TH ST E"",3257.1
3257.1,MTWHFSU,3257.1-15-0-506-1400-1444-3262-0-0-0-0_AV_5LB,""AVENUE I - 40TH ST E"",3257.1
3257.1,MTWHF,3257.1-15-0-506-1430-1514-3262-0-0-0-0_AV_5LB,""AVENUE I - 40TH ST E"",3257.1
3257.1,MTWHFSU,3257.1-16-0-506-1500-1544-3262-0-0-0-0_AV_5LB,""AVENUE I - 40TH ST E"",3257.1
3257.1,MTWHF,3257.1-16-0-506-1530-1614-3262-0-0-0-0_AV_5LB,""AVENUE I - 40TH ST E"",3257.1
3257.1,MTWHFSU,3257.1-17-0-506-1600-1644-3262-0-0-0-0_AV_5LB,""AVENUE I - 40TH ST E"",3257.1
3257.1,MTWHF,3257.1-17-0-506-1630-1714-3262-0-0-0-0_AV_5LB,""AVENUE I - 40TH ST E"",3257.1
3257.1,MTWHFSU,3257.1-18-0-506-1700-1744-3262-0-0-0-0_AV_5LB,""AVENUE I - 40TH ST E"",3257.1
3257.1,MTWHF,3257.1-18-0-506-1730-1814-3262-0-0-0-0_AV_5LB,""AVENUE I - 40TH ST E"",3257.1
3257.1,MTWHFSU,3257.1-19-0-506-1800-1844-3262-0-0-0-0_AV_5LB,""AVENUE I - 40TH ST E"",3257.1
3257.1,MTWHFS,3257.1-20-0-506-1900-1944-3262-0-0-0-0_AV_5LB,""AVENUE I - 40TH ST E"",3257.1
3257.1,MTWHF,3257.1-21-0-506-2000-2044-3262-0-0-0-0_AV_5LB,""AVENUE I - 40TH ST E"",3257.1
3257.1,MTWHF,3257.1-22-0-506-2100-2144-3262-0-0-0-0_AV_5LB,""AVENUE I - 40TH ST E"",3257.1
3257.1,MTWHF,3257.1-23-0-506-2200-2244-3262-0-0-0-0_AV_5LB,""AVENUE I - 40TH ST E"",3257.1
3257.1,MTWHF,3257.1-24-0-506-2300-2344-3262-0-0-0-0_AV_5LB,""AVENUE I - 40TH ST E"",3257.1
3257.1,MTWHF,3257.1-7-0-506-0600-0644-3262-0-0-0-0_AV_5LB,""AVENUE I - 40TH ST E"",3257.1
3257.1,MTWHF,3257.1-7-0-506-0630-0714-3262-0-0-0-0_AV_5LB,""AVENUE I - 40TH ST E"",3257.1
3257.1,MTWHFSU,3257.1-8-0-506-0700-0744-3262-0-0-0-0_AV_5LB,""AVENUE I - 40TH ST E"",3257.1
3257.1,MTWHF,3257.1-8-0-506-0730-0814-3262-0-0-0-0_AV_5LB,""AVENUE I - 40TH ST E"",3257.1
3257.1,MTWHFSU,3257.1-9-0-506-0800-0844-3262-0-0-0-0_AV_5LB,""AVENUE I - 40TH ST E"",3257.1
3257.1,MTWHF,3257.1-9-0-506-0830-0914-3262-0-0-0-0_AV_5LB,""AVENUE I - 40TH ST E"",3257.1
3258.1,MTWHFSU,3258.1-10-0-505-0905-0950-2743-0-0-0-0_AV_5LB,""LANCASTER CITY PARK"",3258.1
3258.1,MTWHF,3258.1-10-0-505-0935-1020-2743-0-0-0-0_AV_5LB,""LANCASTER CITY PARK"",3258.1
3258.1,MTWHFSU,3258.1-11-0-505-1005-1050-2743-0-0-0-0_AV_5LB,""LANCASTER CITY PARK"",3258.1
3258.1,MTWHF,3258.1-11-0-505-1035-1120-2743-0-0-0-0_AV_5LB,""LANCASTER CITY PARK"",3258.1
3258.1,MTWHFSU,3258.1-12-0-505-1105-1150-2743-0-0-0-0_AV_5LB,""LANCASTER CITY PARK"",3258.1
3258.1,MTWHF,3258.1-12-0-505-1135-1220-2743-0-0-0-0_AV_5LB,""LANCASTER CITY PARK"",3258.1
3258.1,MTWHFSU,3258.1-13-0-505-1205-1250-2743-0-0-0-0_AV_5LB,""LANCASTER CITY PARK"",3258.1
3258.1,MTWHF,3258.1-13-0-505-1235-1320-2743-0-0-0-0_AV_5LB,""LANCASTER CITY PARK"",3258.1
3258.1,MTWHFSU,3258.1-14-0-505-1305-1350-2743-0-0-0-0_AV_5LB,""LANCASTER CITY PARK"",3258.1
3258.1,MTWHF,3258.1-14-0-505-1335-1420-2743-0-0-0-0_AV_5LB,""LANCASTER CITY PARK"",3258.1
3258.1,MTWHFSU,3258.1-15-0-505-1405-1450-2743-0-0-0-0_AV_5LB,""LANCASTER CITY PARK"",3258.1
3258.1,MTWHF,3258.1-15-0-505-1435-1520-2743-0-0-0-0_AV_5LB,""LANCASTER CITY PARK"",3258.1
3258.1,MTWHFSU,3258.1-16-0-505-1505-1550-2743-0-0-0-0_AV_5LB,""LANCASTER CITY PARK"",3258.1
3258.1,MTWHF,3258.1-16-0-505-1535-1620-2743-0-0-0-0_AV_5LB,""LANCASTER CITY PARK"",3258.1
3258.1,MTWHFSU,3258.1-17-0-505-1605-1650-2743-0-0-0-0_AV_5LB,""LANCASTER CITY PARK"",3258.1
3258.1,MTWHF,3258.1-17-0-505-1635-1720-2743-0-0-0-0_AV_5LB,""LANCASTER CITY PARK"",3258.1
3258.1,MTWHFSU,3258.1-18-0-505-1705-1750-2743-0-0-0-0_AV_5LB,""LANCASTER CITY PARK"",3258.1
3258.1,MTWHF,3258.1-18-0-505-1735-1820-2743-0-0-0-0_AV_5LB,""LANCASTER CITY PARK"",3258.1
3258.1,MTWHFSU,3258.1-19-0-505-1805-1850-2743-0-0-0-0_AV_5LB,""LANCASTER CITY PARK"",3258.1
3258.1,MTWHF,3258.1-20-0-505-1905-1950-2743-0-0-0-0_AV_5LB,""LANCASTER CITY PARK"",3258.1
3258.1,MTWHF,3258.1-21-0-505-2005-2050-2743-0-0-0-0_AV_5LB,""LANCASTER CITY PARK"",3258.1
3258.1,MTWHF,3258.1-22-0-505-2105-2150-2743-0-0-0-0_AV_5LB,""LANCASTER CITY PARK"",3258.1
3258.1,MTWHF,3258.1-23-0-505-2205-2250-2743-0-0-0-0_AV_5LB,""LANCASTER CITY PARK"",3258.1
3258.1,MTWHF,3258.1-6-0-505-0505-0550-2743-0-0-0-0_AV_5LB,""LANCASTER CITY PARK"",3258.1
3258.1,MTWHF,3258.1-6-0-505-0535-0620-2743-0-0-0-0_AV_5LB,""LANCASTER CITY PARK"",3258.1
3258.1,MTWHFS,3258.1-7-0-505-0605-0650-2743-0-0-0-0_AV_5LB,""LANCASTER CITY PARK"",3258.1
3258.1,MTWHF,3258.1-7-0-505-0635-0720-2743-0-0-0-0_AV_5LB,""LANCASTER CITY PARK"",3258.1
3258.1,MTWHFSU,3258.1-8-0-505-0705-0750-2743-0-0-0-0_AV_5LB,""LANCASTER CITY PARK"",3258.1
3258.1,MTWHF,3258.1-8-0-505-0735-0820-2743-0-0-0-0_AV_5LB,""LANCASTER CITY PARK"",3258.1
3258.1,MTWHFSU,3258.1-9-0-505-0805-0850-2743-0-0-0-0_AV_5LB,""LANCASTER CITY PARK"",3258.1
3258.1,MTWHF,3258.1-9-0-505-0835-0920-2743-0-0-0-0_AV_5LB,""LANCASTER CITY PARK"",3258.1
3453.1,U,3453.1-10-0-890-0900-0947-3396-0-0-0-0_AV_5LB,""LANCASTER BLVD - SIERRA HWY"",3453.1
3453.1,S,3453.1-10-0-890-0900-0950-3396-0-0-0-0_AV_5LB,""LANCASTER BLVD - SIERRA HWY"",3453.1
3453.1,MTWHF,3453.1-10-0-890-0910-1000-3396-0-0-0-0_AV_5LB,""LANCASTER BLVD - SIERRA HWY"",3453.1
3453.1,U,3453.1-11-0-890-1000-1047-3396-0-0-0-0_AV_5LB,""LANCASTER BLVD - SIERRA HWY"",3453.1
3453.1,S,3453.1-11-0-890-1000-1050-3396-0-0-0-0_AV_5LB,""LANCASTER BLVD - SIERRA HWY"",3453.1
3453.1,MTWHF,3453.1-11-0-890-1010-1100-3396-0-0-0-0_AV_5LB,""LANCASTER BLVD - SIERRA HWY"",3453.1
3453.1,U,3453.1-12-0-890-1100-1147-3396-0-0-0-0_AV_5LB,""LANCASTER BLVD - SIERRA HWY"",3453.1
3453.1,S,3453.1-12-0-890-1100-1150-3396-0-0-0-0_AV_5LB,""LANCASTER BLVD - SIERRA HWY"",3453.1
3453.1,MTWHF,3453.1-12-0-890-1110-1200-3396-0-0-0-0_AV_5LB,""LANCASTER BLVD - SIERRA HWY"",3453.1
3453.1,U,3453.1-13-0-890-1200-1247-3396-0-0-0-0_AV_5LB,""LANCASTER BLVD - SIERRA HWY"",3453.1
3453.1,S,3453.1-13-0-890-1200-1250-3396-0-0-0-0_AV_5LB,""LANCASTER BLVD - SIERRA HWY"",3453.1
3453.1,MTWHF,3453.1-13-0-890-1210-1300-3396-0-0-0-0_AV_5LB,""LANCASTER BLVD - SIERRA HWY"",3453.1
3453.1,U,3453.1-14-0-890-1300-1347-3396-0-0-0-0_AV_5LB,""LANCASTER BLVD - SIERRA HWY"",3453.1
3453.1,S,3453.1-14-0-890-1300-1350-3396-0-0-0-0_AV_5LB,""LANCASTER BLVD - SIERRA HWY"",3453.1
3453.1,MTWHF,3453.1-14-0-890-1310-1400-3396-0-0-0-0_AV_5LB,""LANCASTER BLVD - SIERRA HWY"",3453.1
3453.1,U,3453.1-15-0-890-1400-1447-3396-0-0-0-0_AV_5LB,""LANCASTER BLVD - SIERRA HWY"",3453.1
3453.1,S,3453.1-15-0-890-1400-1450-3396-0-0-0-0_AV_5LB,""LANCASTER BLVD - SIERRA HWY"",3453.1
3453.1,MTWHF,3453.1-15-0-890-1410-1500-3396-0-0-0-0_AV_5LB,""LANCASTER BLVD - SIERRA HWY"",3453.1
3453.1,U,3453.1-16-0-890-1500-1547-3396-0-0-0-0_AV_5LB,""LANCASTER BLVD - SIERRA HWY"",3453.1
3453.1,S,3453.1-16-0-890-1500-1550-3396-0-0-0-0_AV_5LB,""LANCASTER BLVD - SIERRA HWY"",3453.1
3453.1,MTWHF,3453.1-16-0-890-1510-1600-3396-0-0-0-0_AV_5LB,""LANCASTER BLVD - SIERRA HWY"",3453.1
3453.1,U,3453.1-17-0-890-1600-1647-3396-0-0-0-0_AV_5LB,""LANCASTER BLVD - SIERRA HWY"",3453.1
3453.1,S,3453.1-17-0-890-1600-1650-3396-0-0-0-0_AV_5LB,""LANCASTER BLVD - SIERRA HWY"",3453.1
3453.1,MTWHF,3453.1-17-0-890-1610-1700-3396-0-0-0-0_AV_5LB,""LANCASTER BLVD - SIERRA HWY"",3453.1
3453.1,U,3453.1-18-0-890-1700-1747-3396-0-0-0-0_AV_5LB,""LANCASTER BLVD - SIERRA HWY"",3453.1
3453.1,S,3453.1-18-0-890-1700-1750-3396-0-0-0-0_AV_5LB,""LANCASTER BLVD - SIERRA HWY"",3453.1
3453.1,MTWHF,3453.1-18-0-890-1710-1800-3396-0-0-0-0_AV_5LB,""LANCASTER BLVD - SIERRA HWY"",3453.1
3453.1,SU,3453.1-19-0-890-1800-1847-3396-0-0-0-0_AV_5LB,""LANCASTER BLVD - SIERRA HWY"",3453.1
3453.1,MTWHF,3453.1-19-0-890-1810-1900-3396-0-0-0-0_AV_5LB,""LANCASTER BLVD - SIERRA HWY"",3453.1
3453.1,S,3453.1-20-0-890-1900-1947-3396-0-0-0-0_AV_5LB,""LANCASTER BLVD - SIERRA HWY"",3453.1
3453.1,MTWHF,3453.1-20-0-890-1910-2000-3396-0-0-0-0_AV_5LB,""LANCASTER BLVD - SIERRA HWY"",3453.1
3453.1,S,3453.1-21-0-890-2000-2047-3396-0-0-0-0_AV_5LB,""LANCASTER BLVD - SIERRA HWY"",3453.1
3453.1,MTWHF,3453.1-21-0-890-2010-2100-3396-0-0-0-0_AV_5LB,""LANCASTER BLVD - SIERRA HWY"",3453.1
3453.1,MTWHF,3453.1-22-0-890-2110-2200-3396-0-0-0-0_AV_5LB,""LANCASTER BLVD - SIERRA HWY"",3453.1
3453.1,MTWHF,3453.1-6-0-890-0510-0600-3396-0-0-0-0_AV_5LB,""LANCASTER BLVD - SIERRA HWY"",3453.1
3453.1,MTWHF,3453.1-7-0-890-0610-0700-3396-0-0-0-0_AV_5LB,""LANCASTER BLVD - SIERRA HWY"",3453.1
3453.1,U,3453.1-8-0-890-0700-0747-3396-0-0-0-0_AV_5LB,""LANCASTER BLVD - SIERRA HWY"",3453.1
3453.1,S,3453.1-8-0-890-0700-0750-3396-0-0-0-0_AV_5LB,""LANCASTER BLVD - SIERRA HWY"",3453.1
3453.1,MTWHF,3453.1-8-0-890-0710-0800-3396-0-0-0-0_AV_5LB,""LANCASTER BLVD - SIERRA HWY"",3453.1
3453.1,U,3453.1-9-0-890-0800-0847-3396-0-0-0-0_AV_5LB,""LANCASTER BLVD - SIERRA HWY"",3453.1
3453.1,S,3453.1-9-0-890-0800-0850-3396-0-0-0-0_AV_5LB,""LANCASTER BLVD - SIERRA HWY"",3453.1
3453.1,MTWHF,3453.1-9-0-890-0810-0900-3396-0-0-0-0_AV_5LB,""LANCASTER BLVD - SIERRA HWY"",3453.1
3454.1,MTWHF,3454.1-10-0-977-0905-0955-3136-0-0-0-0_AV_5LB,""PALMDALE TRANSIT CTR"",3454.1
3454.1,U,3454.1-10-0-977-0955-1041-3136-0-0-0-0_AV_5LB,""PALMDALE TRANSIT CTR"",3454.1
3454.1,S,3454.1-10-0-977-0955-1045-3136-0-0-0-0_AV_5LB,""PALMDALE TRANSIT CTR"",3454.1
3454.1,MTWHF,3454.1-11-0-977-1005-1055-3136-0-0-0-0_AV_5LB,""PALMDALE TRANSIT CTR"",3454.1
3454.1,U,3454.1-11-0-977-1055-1141-3136-0-0-0-0_AV_5LB,""PALMDALE TRANSIT CTR"",3454.1
3454.1,S,3454.1-11-0-977-1055-1145-3136-0-0-0-0_AV_5LB,""PALMDALE TRANSIT CTR"",3454.1
3454.1,MTWHF,3454.1-12-0-977-1105-1155-3136-0-0-0-0_AV_5LB,""PALMDALE TRANSIT CTR"",3454.1
3454.1,U,3454.1-12-0-977-1155-1241-3136-0-0-0-0_AV_5LB,""PALMDALE TRANSIT CTR"",3454.1
3454.1,S,3454.1-12-0-977-1155-1245-3136-0-0-0-0_AV_5LB,""PALMDALE TRANSIT CTR"",3454.1
3454.1,MTWHF,3454.1-13-0-977-1205-1255-3136-0-0-0-0_AV_5LB,""PALMDALE TRANSIT CTR"",3454.1
3454.1,U,3454.1-13-0-977-1255-1341-3136-0-0-0-0_AV_5LB,""PALMDALE TRANSIT CTR"",3454.1
3454.1,S,3454.1-13-0-977-1255-1345-3136-0-0-0-0_AV_5LB,""PALMDALE TRANSIT CTR"",3454.1
3454.1,MTWHF,3454.1-14-0-977-1305-1355-3136-0-0-0-0_AV_5LB,""PALMDALE TRANSIT CTR"",3454.1
3454.1,U,3454.1-14-0-977-1355-1441-3136-0-0-0-0_AV_5LB,""PALMDALE TRANSIT CTR"",3454.1
3454.1,S,3454.1-14-0-977-1355-1445-3136-0-0-0-0_AV_5LB,""PALMDALE TRANSIT CTR"",3454.1
3454.1,MTWHF,3454.1-15-0-977-1405-1455-3136-0-0-0-0_AV_5LB,""PALMDALE TRANSIT CTR"",3454.1
3454.1,U,3454.1-15-0-977-1455-1541-3136-0-0-0-0_AV_5LB,""PALMDALE TRANSIT CTR"",3454.1
3454.1,S,3454.1-15-0-977-1455-1545-3136-0-0-0-0_AV_5LB,""PALMDALE TRANSIT CTR"",3454.1
3454.1,MTWHF,3454.1-16-0-977-1505-1555-3136-0-0-0-0_AV_5LB,""PALMDALE TRANSIT CTR"",3454.1
3454.1,U,3454.1-16-0-977-1555-1641-3136-0-0-0-0_AV_5LB,""PALMDALE TRANSIT CTR"",3454.1
3454.1,S,3454.1-16-0-977-1555-1645-3136-0-0-0-0_AV_5LB,""PALMDALE TRANSIT CTR"",3454.1
3454.1,MTWHF,3454.1-17-0-977-1605-1655-3136-0-0-0-0_AV_5LB,""PALMDALE TRANSIT CTR"",3454.1
3454.1,U,3454.1-17-0-977-1655-1741-3136-0-0-0-0_AV_5LB,""PALMDALE TRANSIT CTR"",3454.1
3454.1,S,3454.1-17-0-977-1655-1745-3136-0-0-0-0_AV_5LB,""PALMDALE TRANSIT CTR"",3454.1
3454.1,MTWHF,3454.1-18-0-977-1705-1755-3136-0-0-0-0_AV_5LB,""PALMDALE TRANSIT CTR"",3454.1
3454.1,SU,3454.1-18-0-977-1755-1841-3136-0-0-0-0_AV_5LB,""PALMDALE TRANSIT CTR"",3454.1
3454.1,MTWHF,3454.1-19-0-977-1805-1855-3136-0-0-0-0_AV_5LB,""PALMDALE TRANSIT CTR"",3454.1
3454.1,S,3454.1-19-0-977-1855-1941-3136-0-0-0-0_AV_5LB,""PALMDALE TRANSIT CTR"",3454.1
3454.1,MTWHF,3454.1-20-0-977-1905-1955-3136-0-0-0-0_AV_5LB,""PALMDALE TRANSIT CTR"",3454.1
3454.1,S,3454.1-20-0-977-1955-2041-3136-0-0-0-0_AV_5LB,""PALMDALE TRANSIT CTR"",3454.1
3454.1,MTWHF,3454.1-21-0-977-2005-2055-3136-0-0-0-0_AV_5LB,""PALMDALE TRANSIT CTR"",3454.1
3454.1,MTWHF,3454.1-22-0-977-2105-2155-3136-0-0-0-0_AV_5LB,""PALMDALE TRANSIT CTR"",3454.1
3454.1,MTWHF,3454.1-23-0-977-2205-2255-3136-0-0-0-0_AV_5LB,""PALMDALE TRANSIT CTR"",3454.1
3454.1,MTWHF,3454.1-7-0-977-0605-0655-3136-0-0-0-0_AV_5LB,""PALMDALE TRANSIT CTR"",3454.1
3454.1,U,3454.1-7-0-977-0655-0741-3136-0-0-0-0_AV_5LB,""PALMDALE TRANSIT CTR"",3454.1
3454.1,S,3454.1-7-0-977-0655-0745-3136-0-0-0-0_AV_5LB,""PALMDALE TRANSIT CTR"",3454.1
3454.1,MTWHF,3454.1-8-0-977-0705-0755-3136-0-0-0-0_AV_5LB,""PALMDALE TRANSIT CTR"",3454.1
3454.1,U,3454.1-8-0-977-0755-0841-3136-0-0-0-0_AV_5LB,""PALMDALE TRANSIT CTR"",3454.1
3454.1,S,3454.1-8-0-977-0755-0845-3136-0-0-0-0_AV_5LB,""PALMDALE TRANSIT CTR"",3454.1
3454.1,MTWHF,3454.1-9-0-977-0805-0855-3136-0-0-0-0_AV_5LB,""PALMDALE TRANSIT CTR"",3454.1
3454.1,U,3454.1-9-0-977-0855-0941-3136-0-0-0-0_AV_5LB,""PALMDALE TRANSIT CTR"",3454.1
3454.1,S,3454.1-9-0-977-0855-0945-3136-0-0-0-0_AV_5LB,""PALMDALE TRANSIT CTR"",3454.1
3455.1,SU,3455.1-10-0-907-0900-0935-2743-0-0-0-0_AV_5LB,""LANCASTER CITY PARK"",3455.1
3455.1,MTWHF,3455.1-11-0-907-1010-1045-2743-0-0-0-0_AV_5LB,""LANCASTER CITY PARK"",3455.1
3455.1,SU,3455.1-11-0-907-1030-1105-2743-0-0-0-0_AV_5LB,""LANCASTER CITY PARK"",3455.1
3455.1,MTWHF,3455.1-12-0-907-1140-1215-2743-0-0-0-0_AV_5LB,""LANCASTER CITY PARK"",3455.1
3455.1,SU,3455.1-13-0-907-1200-1235-2743-0-0-0-0_AV_5LB,""LANCASTER CITY PARK"",3455.1
3455.1,MTWHF,3455.1-14-0-907-1310-1345-2743-0-0-0-0_AV_5LB,""LANCASTER CITY PARK"",3455.1
3455.1,SU,3455.1-14-0-907-1330-1405-2743-0-0-0-0_AV_5LB,""LANCASTER CITY PARK"",3455.1
3455.1,MTWHF,3455.1-15-0-907-1440-1515-2743-0-0-0-0_AV_5LB,""LANCASTER CITY PARK"",3455.1
3455.1,SU,3455.1-16-0-907-1500-1535-2743-0-0-0-0_AV_5LB,""LANCASTER CITY PARK"",3455.1
3455.1,MTWHF,3455.1-17-0-907-1610-1645-2743-0-0-0-0_AV_5LB,""LANCASTER CITY PARK"",3455.1
3455.1,SU,3455.1-17-0-907-1630-1705-2743-0-0-0-0_AV_5LB,""LANCASTER CITY PARK"",3455.1
3455.1,MTWHF,3455.1-18-0-907-1740-1815-2743-0-0-0-0_AV_5LB,""LANCASTER CITY PARK"",3455.1
3455.1,SU,3455.1-19-0-907-1800-1835-2743-0-0-0-0_AV_5LB,""LANCASTER CITY PARK"",3455.1
3455.1,MTWHF,3455.1-20-0-907-1910-1945-2743-0-0-0-0_AV_5LB,""LANCASTER CITY PARK"",3455.1
3455.1,MTWHF,3455.1-8-0-907-0710-0745-2743-0-0-0-0_AV_5LB,""LANCASTER CITY PARK"",3455.1
3455.1,SU,3455.1-8-0-907-0730-0805-2743-0-0-0-0_AV_5LB,""LANCASTER CITY PARK"",3455.1
3455.1,MTWHF,3455.1-9-0-907-0840-0915-2743-0-0-0-0_AV_5LB,""LANCASTER CITY PARK"",3455.1
3456.1,MTWHF,3456.1-10-0-748-0930-1003-3562-0-0-0-0_AV_5LB,""60TH ST W & AVE L"",3456.1
3456.1,SU,3456.1-10-0-748-0950-1023-3562-0-0-0-0_AV_5LB,""60TH ST W & AVE L"",3456.1
3456.1,MTWHF,3456.1-12-0-748-1100-1133-3562-0-0-0-0_AV_5LB,""60TH ST W & AVE L"",3456.1
3456.1,SU,3456.1-12-0-748-1120-1153-3562-0-0-0-0_AV_5LB,""60TH ST W & AVE L"",3456.1
3456.1,MTWHF,3456.1-13-0-748-1230-1303-3562-0-0-0-0_AV_5LB,""60TH ST W & AVE L"",3456.1
3456.1,SU,3456.1-13-0-748-1250-1323-3562-0-0-0-0_AV_5LB,""60TH ST W & AVE L"",3456.1
3456.1,MTWHF,3456.1-15-0-748-1400-1433-3562-0-0-0-0_AV_5LB,""60TH ST W & AVE L"",3456.1
3456.1,SU,3456.1-15-0-748-1420-1453-3562-0-0-0-0_AV_5LB,""60TH ST W & AVE L"",3456.1
3456.1,MTWHF,3456.1-16-0-748-1530-1603-3562-0-0-0-0_AV_5LB,""60TH ST W & AVE L"",3456.1
3456.1,SU,3456.1-16-0-748-1550-1623-3562-0-0-0-0_AV_5LB,""60TH ST W & AVE L"",3456.1
3456.1,MTWHF,3456.1-18-0-748-1700-1733-3562-0-0-0-0_AV_5LB,""60TH ST W & AVE L"",3456.1
3456.1,SU,3456.1-18-0-748-1720-1753-3562-0-0-0-0_AV_5LB,""60TH ST W & AVE L"",3456.1
3456.1,MTWHF,3456.1-19-0-748-1830-1903-3562-0-0-0-0_AV_5LB,""60TH ST W & AVE L"",3456.1
3456.1,SU,3456.1-19-0-748-1850-1923-3562-0-0-0-0_AV_5LB,""60TH ST W & AVE L"",3456.1
3456.1,MTWHF,3456.1-7-0-748-0630-0703-3562-0-0-0-0_AV_5LB,""60TH ST W & AVE L"",3456.1
3456.1,MTWHF,3456.1-9-0-748-0800-0833-3562-0-0-0-0_AV_5LB,""60TH ST W & AVE L"",3456.1
3456.1,SU,3456.1-9-0-748-0820-0853-3562-0-0-0-0_AV_5LB,""60TH ST W & AVE L"",3456.1
3457.1,MTWHFSU,3457.1-11-0-1557-1030-1120-3062-0-0-0-0_AV_5LB,""TOWN CENTER PLAZA"",3457.1
3457.1,MTWHFSU,3457.1-13-0-1557-1230-1320-3062-0-0-0-0_AV_5LB,""TOWN CENTER PLAZA"",3457.1
3457.1,MTWHFSU,3457.1-15-0-1557-1430-1520-3062-0-0-0-0_AV_5LB,""TOWN CENTER PLAZA"",3457.1
3457.1,MTWHFSU,3457.1-17-0-1557-1630-1720-3062-0-0-0-0_AV_5LB,""TOWN CENTER PLAZA"",3457.1
3457.1,MTWHFSU,3457.1-19-0-1557-1830-1920-3062-0-0-0-0_AV_5LB,""TOWN CENTER PLAZA"",3457.1
3457.1,MTWHFS,3457.1-21-0-1557-2030-2120-3062-0-0-0-0_AV_5LB,""TOWN CENTER PLAZA"",3457.1
3457.1,MTWHF,3457.1-23-0-1557-2230-2320-3062-0-0-0-0_AV_5LB,""TOWN CENTER PLAZA"",3457.1
3457.1,MTWHF,3457.1-7-0-1557-0630-0720-3062-0-0-0-0_AV_5LB,""TOWN CENTER PLAZA"",3457.1
3457.1,MTWHFSU,3457.1-9-0-1557-0830-0920-3062-0-0-0-0_AV_5LB,""TOWN CENTER PLAZA"",3457.1
3458.1,MTWHFSU,3458.1-10-0-1557-0930-1020-2743-0-0-0-0_AV_5LB,""LANCASTER CITY PARK"",3458.1
3458.1,MTWHFSU,3458.1-12-0-1557-1130-1220-2743-0-0-0-0_AV_5LB,""LANCASTER CITY PARK"",3458.1
3458.1,MTWHFSU,3458.1-14-0-1557-1330-1420-2743-0-0-0-0_AV_5LB,""LANCASTER CITY PARK"",3458.1
3458.1,MTWHFSU,3458.1-16-0-1557-1530-1620-2743-0-0-0-0_AV_5LB,""LANCASTER CITY PARK"",3458.1
3458.1,MTWHFSU,3458.1-18-0-1557-1730-1820-2743-0-0-0-0_AV_5LB,""LANCASTER CITY PARK"",3458.1
3458.1,MTWHFS,3458.1-20-0-1557-1930-2020-2743-0-0-0-0_AV_5LB,""LANCASTER CITY PARK"",3458.1
3458.1,MTWHF,3458.1-22-0-1557-2130-2220-2743-0-0-0-0_AV_5LB,""LANCASTER CITY PARK"",3458.1
3458.1,MTWHF,3458.1-6-0-1557-0530-0620-2743-0-0-0-0_AV_5LB,""LANCASTER CITY PARK"",3458.1
3458.1,MTWHFSU,3458.1-8-0-1557-0730-0820-2743-0-0-0-0_AV_5LB,""LANCASTER CITY PARK"",3458.1
3459.1,MTWHFSU,3459.1-11-0-1154-1030-1120-3062-0-0-0-0_AV_5LB,""TOWN CENTER PLAZA"",3459.1
3459.1,MTWHFSU,3459.1-13-0-1154-1230-1320-3062-0-0-0-0_AV_5LB,""TOWN CENTER PLAZA"",3459.1
3459.1,MTWHFSU,3459.1-15-0-1154-1430-1520-3062-0-0-0-0_AV_5LB,""TOWN CENTER PLAZA"",3459.1
3459.1,MTWHFSU,3459.1-17-0-1154-1630-1720-3062-0-0-0-0_AV_5LB,""TOWN CENTER PLAZA"",3459.1
3459.1,MTWHFSU,3459.1-19-0-1154-1830-1920-3062-0-0-0-0_AV_5LB,""TOWN CENTER PLAZA"",3459.1
3459.1,MTWHFS,3459.1-21-0-1154-2030-2120-3062-0-0-0-0_AV_5LB,""TOWN CENTER PLAZA"",3459.1
3459.1,MTWHF,3459.1-23-0-1154-2230-2320-3062-0-0-0-0_AV_5LB,""TOWN CENTER PLAZA"",3459.1
3459.1,MTWHF,3459.1-7-0-1154-0630-0720-3062-0-0-0-0_AV_5LB,""TOWN CENTER PLAZA"",3459.1
3459.1,MTWHFSU,3459.1-9-0-1154-0830-0920-3062-0-0-0-0_AV_5LB,""TOWN CENTER PLAZA"",3459.1
3460.1,MTWHFSU,3460.1-10-0-1154-0930-1017-3136-0-0-0-0_AV_5LB,""PALMDALE TRANSIT CTR"",3460.1
3460.1,MTWHFSU,3460.1-12-0-1154-1130-1217-3136-0-0-0-0_AV_5LB,""PALMDALE TRANSIT CTR"",3460.1
3460.1,MTWHFSU,3460.1-14-0-1154-1330-1417-3136-0-0-0-0_AV_5LB,""PALMDALE TRANSIT CTR"",3460.1
3460.1,MTWHFSU,3460.1-16-0-1154-1530-1617-3136-0-0-0-0_AV_5LB,""PALMDALE TRANSIT CTR"",3460.1
3460.1,MTWHFSU,3460.1-18-0-1154-1730-1817-3136-0-0-0-0_AV_5LB,""PALMDALE TRANSIT CTR"",3460.1
3460.1,MTWHFS,3460.1-20-0-1154-1930-2017-3136-0-0-0-0_AV_5LB,""PALMDALE TRANSIT CTR"",3460.1
3460.1,MTWHF,3460.1-22-0-1154-2130-2217-3136-0-0-0-0_AV_5LB,""PALMDALE TRANSIT CTR"",3460.1
3460.1,MTWHF,3460.1-6-0-1154-0530-0617-3136-0-0-0-0_AV_5LB,""PALMDALE TRANSIT CTR"",3460.1
3460.1,MTWHFSU,3460.1-8-0-1154-0730-0817-3136-0-0-0-0_AV_5LB,""PALMDALE TRANSIT CTR"",3460.1
3461.1,MTWHFSU,3461.1-11-0-1257-1030-1124-3564-0-0-0-0_AV_5LB,""AVE V-10 & 121ST ST E"",3461.1
3461.1,MTWHFSU,3461.1-13-0-1257-1230-1324-3564-0-0-0-0_AV_5LB,""AVE V-10 & 121ST ST E"",3461.1
3461.1,MTWHFSU,3461.1-15-0-1257-1430-1524-3564-0-0-0-0_AV_5LB,""AVE V-10 & 121ST ST E"",3461.1
3461.1,MTWHFSU,3461.1-17-0-1257-1630-1724-3564-0-0-0-0_AV_5LB,""AVE V-10 & 121ST ST E"",3461.1
3461.1,MTWHFSU,3461.1-19-0-1257-1830-1924-3564-0-0-0-0_AV_5LB,""AVE V-10 & 121ST ST E"",3461.1
3461.1,MTWHF,3461.1-21-0-1257-2030-2124-3564-0-0-0-0_AV_5LB,""AVE V-10 & 121ST ST E"",3461.1
3461.1,MTWHF,3461.1-23-0-1257-2230-2324-3564-0-0-0-0_AV_5LB,""AVE V-10 & 121ST ST E"",3461.1
3461.1,MTWHF,3461.1-7-0-1257-0630-0724-3564-0-0-0-0_AV_5LB,""AVE V-10 & 121ST ST E"",3461.1
3461.1,MTWHFSU,3461.1-9-0-1257-0830-0924-3564-0-0-0-0_AV_5LB,""AVE V-10 & 121ST ST E"",3461.1
3462.1,MTWHFSU,3462.1-10-0-1169-0930-1015-3536-0-0-0-0_AV_5LB,""26TH ST BERGAMOT STATION"",3462.1
3462.1,MTWHFSU,3462.1-12-0-1169-1130-1215-3536-0-0-0-0_AV_5LB,""26TH ST BERGAMOT STATION"",3462.1
3462.1,MTWHFSU,3462.1-14-0-1169-1330-1415-3536-0-0-0-0_AV_5LB,""26TH ST BERGAMOT STATION"",3462.1
3462.1,MTWHFSU,3462.1-16-0-1169-1530-1615-3536-0-0-0-0_AV_5LB,""26TH ST BERGAMOT STATION"",3462.1
3462.1,MTWHFSU,3462.1-18-0-1169-1730-1815-3536-0-0-0-0_AV_5LB,""26TH ST BERGAMOT STATION"",3462.1
3462.1,MTWHF,3462.1-20-0-1169-1930-2015-3536-0-0-0-0_AV_5LB,""26TH ST BERGAMOT STATION"",3462.1
3462.1,MTWHF,3462.1-22-0-1169-2130-2215-3536-0-0-0-0_AV_5LB,""26TH ST BERGAMOT STATION"",3462.1
3462.1,MTWHF,3462.1-6-0-1169-0530-0615-3536-0-0-0-0_AV_5LB,""26TH ST BERGAMOT STATION"",3462.1
3462.1,MTWHFSU,3462.1-8-0-1169-0730-0815-3536-0-0-0-0_AV_5LB,""26TH ST BERGAMOT STATION"",3462.1
8.1,MTWHFSU,8.1-10-0-394-0905-0930-2743-0-0-0-0_AV_5LB,""LANCASTER CITY PARK"",8.1
8.1,MTWHFSU,8.1-11-0-394-1005-1030-2743-0-0-0-0_AV_5LB,""LANCASTER CITY PARK"",8.1
8.1,MTWHFSU,8.1-12-0-394-1105-1130-2743-0-0-0-0_AV_5LB,""LANCASTER CITY PARK"",8.1
8.1,MTWHFSU,8.1-13-0-394-1205-1230-2743-0-0-0-0_AV_5LB,""LANCASTER CITY PARK"",8.1
8.1,MTWHFSU,8.1-14-0-394-1305-1330-2743-0-0-0-0_AV_5LB,""LANCASTER CITY PARK"",8.1
8.1,MTWHFSU,8.1-15-0-394-1405-1430-2743-0-0-0-0_AV_5LB,""LANCASTER CITY PARK"",8.1
8.1,MTWHFSU,8.1-16-0-394-1505-1530-2743-0-0-0-0_AV_5LB,""LANCASTER CITY PARK"",8.1
8.1,MTWHFSU,8.1-17-0-394-1605-1630-2743-0-0-0-0_AV_5LB,""LANCASTER CITY PARK"",8.1
8.1,MTWHFSU,8.1-18-0-394-1705-1730-2743-0-0-0-0_AV_5LB,""LANCASTER CITY PARK"",8.1
8.1,MTWHFSU,8.1-19-0-394-1805-1830-2743-0-0-0-0_AV_5LB,""LANCASTER CITY PARK"",8.1
8.1,MTWHF,8.1-20-0-394-1905-1930-2743-0-0-0-0_AV_5LB,""LANCASTER CITY PARK"",8.1
8.1,MTWHF,8.1-21-0-394-2020-2046-2743-0-0-0-0_AV_5LB,""LANCASTER CITY PARK"",8.1
8.1,MTWHF,8.1-7-0-394-0605-0630-2743-0-0-0-0_AV_5LB,""LANCASTER CITY PARK"",8.1
8.1,MTWHFSU,8.1-8-0-394-0705-0730-2743-0-0-0-0_AV_5LB,""LANCASTER CITY PARK"",8.1
8.1,MTWHFSU,8.1-9-0-394-0805-0830-2743-0-0-0-0_AV_5LB,""LANCASTER CITY PARK"",8.1
9.1,MTWHF,9.1-10-0-400-0940-1004-2754-0-0-0-0_AV_5LB,""AVE L-12 & 65TH ST WEST"",9.1
9.1,SU,9.1-10-0-400-0940-1005-2754-0-0-0-0_AV_5LB,""AVE L-12 & 65TH ST WEST"",9.1
9.1,MTWHF,9.1-11-0-400-1040-1104-2754-0-0-0-0_AV_5LB,""AVE L-12 & 65TH ST WEST"",9.1
9.1,SU,9.1-11-0-400-1040-1105-2754-0-0-0-0_AV_5LB,""AVE L-12 & 65TH ST WEST"",9.1
9.1,MTWHF,9.1-12-0-400-1140-1204-2754-0-0-0-0_AV_5LB,""AVE L-12 & 65TH ST WEST"",9.1
9.1,SU,9.1-12-0-400-1140-1205-2754-0-0-0-0_AV_5LB,""AVE L-12 & 65TH ST WEST"",9.1
9.1,MTWHF,9.1-13-0-400-1240-1304-2754-0-0-0-0_AV_5LB,""AVE L-12 & 65TH ST WEST"",9.1
9.1,SU,9.1-13-0-400-1240-1305-2754-0-0-0-0_AV_5LB,""AVE L-12 & 65TH ST WEST"",9.1
9.1,MTWHF,9.1-14-0-400-1340-1404-2754-0-0-0-0_AV_5LB,""AVE L-12 & 65TH ST WEST"",9.1
9.1,SU,9.1-14-0-400-1340-1405-2754-0-0-0-0_AV_5LB,""AVE L-12 & 65TH ST WEST"",9.1
9.1,MTWHF,9.1-15-0-400-1440-1504-2754-0-0-0-0_AV_5LB,""AVE L-12 & 65TH ST WEST"",9.1
9.1,SU,9.1-15-0-400-1440-1505-2754-0-0-0-0_AV_5LB,""AVE L-12 & 65TH ST WEST"",9.1
9.1,MTWHF,9.1-16-0-400-1540-1604-2754-0-0-0-0_AV_5LB,""AVE L-12 & 65TH ST WEST"",9.1
9.1,SU,9.1-16-0-400-1540-1605-2754-0-0-0-0_AV_5LB,""AVE L-12 & 65TH ST WEST"",9.1
9.1,MTWHF,9.1-17-0-400-1640-1704-2754-0-0-0-0_AV_5LB,""AVE L-12 & 65TH ST WEST"",9.1
9.1,SU,9.1-17-0-400-1640-1705-2754-0-0-0-0_AV_5LB,""AVE L-12 & 65TH ST WEST"",9.1
9.1,MTWHF,9.1-18-0-400-1740-1804-2754-0-0-0-0_AV_5LB,""AVE L-12 & 65TH ST WEST"",9.1
9.1,SU,9.1-18-0-400-1740-1805-2754-0-0-0-0_AV_5LB,""AVE L-12 & 65TH ST WEST"",9.1
9.1,MTWHF,9.1-19-0-400-1840-1904-2754-0-0-0-0_AV_5LB,""AVE L-12 & 65TH ST WEST"",9.1
9.1,SU,9.1-19-0-400-1840-1905-2754-0-0-0-0_AV_5LB,""AVE L-12 & 65TH ST WEST"",9.1
9.1,MTWHF,9.1-20-0-400-1940-2010-2754-0-0-0-0_AV_5LB,""AVE L-12 & 65TH ST WEST"",9.1
9.1,MTWHF,9.1-22-0-400-2100-2124-2754-0-0-0-0_AV_5LB,""AVE L-12 & 65TH ST WEST"",9.1
9.1,MTWHF,9.1-7-0-400-0640-0704-2754-0-0-0-0_AV_5LB,""AVE L-12 & 65TH ST WEST"",9.1
9.1,MTWHF,9.1-8-0-400-0740-0804-2754-0-0-0-0_AV_5LB,""AVE L-12 & 65TH ST WEST"",9.1
9.1,SU,9.1-8-0-400-0740-0805-2754-0-0-0-0_AV_5LB,""AVE L-12 & 65TH ST WEST"",9.1
9.1,MTWHF,9.1-9-0-400-0840-0904-2754-0-0-0-0_AV_5LB,""AVE L-12 & 65TH ST WEST"",9.1
9.1,SU,9.1-9-0-400-0840-0905-2754-0-0-0-0_AV_5LB,""AVE L-12 & 65TH ST WEST"",9.1
998.1,MTWHFSU,998.1-10-0-969-0900-1015-3396-0-0-0-0_AV_5LB,""LANCASTER BLVD - SIERRA HWY"",998.1
998.1,MTWHFS,998.1-10-0-969-0930-1045-3396-0-0-0-0_AV_5LB,""LANCASTER BLVD - SIERRA HWY"",998.1
998.1,MTWHFSU,998.1-11-0-969-1000-1115-3396-0-0-0-0_AV_5LB,""LANCASTER BLVD - SIERRA HWY"",998.1
998.1,MTWHFS,998.1-11-0-969-1030-1145-3396-0-0-0-0_AV_5LB,""LANCASTER BLVD - SIERRA HWY"",998.1
998.1,MTWHFSU,998.1-12-0-969-1100-1215-3396-0-0-0-0_AV_5LB,""LANCASTER BLVD - SIERRA HWY"",998.1
998.1,MTWHFS,998.1-12-0-969-1130-1245-3396-0-0-0-0_AV_5LB,""LANCASTER BLVD - SIERRA HWY"",998.1
998.1,MTWHFSU,998.1-13-0-969-1200-1315-3396-0-0-0-0_AV_5LB,""LANCASTER BLVD - SIERRA HWY"",998.1
998.1,MTWHFS,998.1-13-0-969-1230-1345-3396-0-0-0-0_AV_5LB,""LANCASTER BLVD - SIERRA HWY"",998.1
998.1,MTWHFSU,998.1-14-0-969-1300-1415-3396-0-0-0-0_AV_5LB,""LANCASTER BLVD - SIERRA HWY"",998.1
998.1,MTWHFS,998.1-14-0-969-1330-1445-3396-0-0-0-0_AV_5LB,""LANCASTER BLVD - SIERRA HWY"",998.1
998.1,MTWHF,998.1-15-0-969-1400-1510-3396-0-0-0-0_AV_5LB,""LANCASTER BLVD - SIERRA HWY"",998.1
998.1,SU,998.1-15-0-969-1400-1515-3396-0-0-0-0_AV_5LB,""LANCASTER BLVD - SIERRA HWY"",998.1
998.1,MTWHFS,998.1-15-0-969-1430-1545-3396-0-0-0-0_AV_5LB,""LANCASTER BLVD - SIERRA HWY"",998.1
998.1,MTWHF,998.1-16-0-969-1500-1610-3396-0-0-0-0_AV_5LB,""LANCASTER BLVD - SIERRA HWY"",998.1
998.1,SU,998.1-16-0-969-1500-1615-3396-0-0-0-0_AV_5LB,""LANCASTER BLVD - SIERRA HWY"",998.1
998.1,MTWHF,998.1-16-0-969-1520-1630-3396-0-0-0-0_AV_5LB,""LANCASTER BLVD - SIERRA HWY"",998.1
998.1,S,998.1-16-0-969-1530-1645-3396-0-0-0-0_AV_5LB,""LANCASTER BLVD - SIERRA HWY"",998.1
998.1,MTWHF,998.1-16-0-969-1540-1650-3396-0-0-0-0_AV_5LB,""LANCASTER BLVD - SIERRA HWY"",998.1
998.1,MTWHF,998.1-17-0-969-1600-1710-3396-0-0-0-0_AV_5LB,""LANCASTER BLVD - SIERRA HWY"",998.1
998.1,SU,998.1-17-0-969-1600-1715-3396-0-0-0-0_AV_5LB,""LANCASTER BLVD - SIERRA HWY"",998.1
998.1,MTWHF,998.1-17-0-969-1620-1730-3396-0-0-0-0_AV_5LB,""LANCASTER BLVD - SIERRA HWY"",998.1
998.1,S,998.1-17-0-969-1630-1745-3396-0-0-0-0_AV_5LB,""LANCASTER BLVD - SIERRA HWY"",998.1
998.1,MTWHF,998.1-17-0-969-1640-1750-3396-0-0-0-0_AV_5LB,""LANCASTER BLVD - SIERRA HWY"",998.1
998.1,MTWHF,998.1-18-0-969-1700-1810-3396-0-0-0-0_AV_5LB,""LANCASTER BLVD - SIERRA HWY"",998.1
998.1,SU,998.1-18-0-969-1700-1815-3396-0-0-0-0_AV_5LB,""LANCASTER BLVD - SIERRA HWY"",998.1
998.1,MTWHF,998.1-18-0-969-1720-1830-3396-0-0-0-0_AV_5LB,""LANCASTER BLVD - SIERRA HWY"",998.1
998.1,S,998.1-18-0-969-1730-1845-3396-0-0-0-0_AV_5LB,""LANCASTER BLVD - SIERRA HWY"",998.1
998.1,MTWHF,998.1-18-0-969-1740-1850-3396-0-0-0-0_AV_5LB,""LANCASTER BLVD - SIERRA HWY"",998.1
998.1,MTWHFSU,998.1-19-0-969-1800-1915-3396-0-0-0-0_AV_5LB,""LANCASTER BLVD - SIERRA HWY"",998.1
998.1,MTWHF,998.1-19-0-969-1820-1930-3396-0-0-0-0_AV_5LB,""LANCASTER BLVD - SIERRA HWY"",998.1
998.1,MTWHF,998.1-19-0-969-1840-1950-3396-0-0-0-0_AV_5LB,""LANCASTER BLVD - SIERRA HWY"",998.1
998.1,MTWHFSU,998.1-20-0-969-1900-2015-3396-0-0-0-0_AV_5LB,""LANCASTER BLVD - SIERRA HWY"",998.1
998.1,MTWHF,998.1-20-0-969-1930-2045-3396-0-0-0-0_AV_5LB,""LANCASTER BLVD - SIERRA HWY"",998.1
998.1,MTWHFS,998.1-21-0-969-2000-2115-3396-0-0-0-0_AV_5LB,""LANCASTER BLVD - SIERRA HWY"",998.1
998.1,MTWHFS,998.1-22-0-969-2100-2215-3396-0-0-0-0_AV_5LB,""LANCASTER BLVD - SIERRA HWY"",998.1
998.1,MTWHFS,998.1-23-0-969-2200-2315-3396-0-0-0-0_AV_5LB,""LANCASTER BLVD - SIERRA HWY"",998.1
998.1,MTWHF,998.1-24-0-969-2300-2415-3396-0-0-0-0_AV_5LB,""LANCASTER BLVD - SIERRA HWY"",998.1
998.1,MTWHF,998.1-6-0-969-0500-0610-3396-0-0-0-0_AV_5LB,""LANCASTER BLVD - SIERRA HWY"",998.1
998.1,MTWHF,998.1-6-0-969-0520-0630-3396-0-0-0-0_AV_5LB,""LANCASTER BLVD - SIERRA HWY"",998.1
998.1,MTWHF,998.1-6-0-969-0540-0650-3396-0-0-0-0_AV_5LB,""LANCASTER BLVD - SIERRA HWY"",998.1
998.1,MTWHF,998.1-7-0-969-0600-0710-3396-0-0-0-0_AV_5LB,""LANCASTER BLVD - SIERRA HWY"",998.1
998.1,S,998.1-7-0-969-0600-0715-3396-0-0-0-0_AV_5LB,""LANCASTER BLVD - SIERRA HWY"",998.1
998.1,MTWHF,998.1-7-0-969-0620-0730-3396-0-0-0-0_AV_5LB,""LANCASTER BLVD - SIERRA HWY"",998.1
998.1,MTWHF,998.1-7-0-969-0640-0750-3396-0-0-0-0_AV_5LB,""LANCASTER BLVD - SIERRA HWY"",998.1
998.1,MTWHF,998.1-8-0-969-0700-0810-3396-0-0-0-0_AV_5LB,""LANCASTER BLVD - SIERRA HWY"",998.1
998.1,SU,998.1-8-0-969-0700-0815-3396-0-0-0-0_AV_5LB,""LANCASTER BLVD - SIERRA HWY"",998.1
998.1,MTWHF,998.1-8-0-969-0720-0830-3396-0-0-0-0_AV_5LB,""LANCASTER BLVD - SIERRA HWY"",998.1
998.1,MTWHF,998.1-8-0-969-0740-0850-3396-0-0-0-0_AV_5LB,""LANCASTER BLVD - SIERRA HWY"",998.1
998.1,MTWHFSU,998.1-9-0-969-0800-0915-3396-0-0-0-0_AV_5LB,""LANCASTER BLVD - SIERRA HWY"",998.1
998.1,MTWHF,998.1-9-0-969-0820-0930-3396-0-0-0-0_AV_5LB,""LANCASTER BLVD - SIERRA HWY"",998.1
998.1,MTWHF,998.1-9-0-969-0840-0950-3396-0-0-0-0_AV_5LB,""LANCASTER BLVD - SIERRA HWY"",998.1
999.1,MTWHF,999.1-10-0-860-0900-1015-3259-0-0-0-0_AV_5LB,""47TH ST E - AVENUE S"",999.1
999.1,MTWHFSU,999.1-10-0-860-0930-1045-3259-0-0-0-0_AV_5LB,""47TH ST E - AVENUE S"",999.1
999.1,MTWHFS,999.1-11-0-860-1000-1115-3259-0-0-0-0_AV_5LB,""47TH ST E - AVENUE S"",999.1
999.1,MTWHFSU,999.1-11-0-860-1030-1145-3259-0-0-0-0_AV_5LB,""47TH ST E - AVENUE S"",999.1
999.1,MTWHFS,999.1-12-0-860-1100-1215-3259-0-0-0-0_AV_5LB,""47TH ST E - AVENUE S"",999.1
999.1,MTWHFSU,999.1-12-0-860-1130-1245-3259-0-0-0-0_AV_5LB,""47TH ST E - AVENUE S"",999.1
999.1,MTWHFS,999.1-13-0-860-1200-1315-3259-0-0-0-0_AV_5LB,""47TH ST E - AVENUE S"",999.1
999.1,MTWHFSU,999.1-13-0-860-1230-1345-3259-0-0-0-0_AV_5LB,""47TH ST E - AVENUE S"",999.1
999.1,MTWHFS,999.1-14-0-860-1300-1415-3259-0-0-0-0_AV_5LB,""47TH ST E - AVENUE S"",999.1
999.1,MTWHFSU,999.1-14-0-860-1330-1445-3259-0-0-0-0_AV_5LB,""47TH ST E - AVENUE S"",999.1
999.1,MTWHF,999.1-15-0-860-1400-1510-3259-0-0-0-0_AV_5LB,""47TH ST E - AVENUE S"",999.1
999.1,S,999.1-15-0-860-1400-1515-3259-0-0-0-0_AV_5LB,""47TH ST E - AVENUE S"",999.1
999.1,MTWHFSU,999.1-15-0-860-1430-1545-3259-0-0-0-0_AV_5LB,""47TH ST E - AVENUE S"",999.1
999.1,MTWHF,999.1-16-0-860-1500-1610-3259-0-0-0-0_AV_5LB,""47TH ST E - AVENUE S"",999.1
999.1,S,999.1-16-0-860-1500-1615-3259-0-0-0-0_AV_5LB,""47TH ST E - AVENUE S"",999.1
999.1,MTWHF,999.1-16-0-860-1520-1630-3259-0-0-0-0_AV_5LB,""47TH ST E - AVENUE S"",999.1
999.1,SU,999.1-16-0-860-1530-1645-3259-0-0-0-0_AV_5LB,""47TH ST E - AVENUE S"",999.1
999.1,MTWHF,999.1-16-0-860-1540-1650-3259-0-0-0-0_AV_5LB,""47TH ST E - AVENUE S"",999.1
999.1,MTWHF,999.1-17-0-860-1600-1710-3259-0-0-0-0_AV_5LB,""47TH ST E - AVENUE S"",999.1
999.1,S,999.1-17-0-860-1600-1715-3259-0-0-0-0_AV_5LB,""47TH ST E - AVENUE S"",999.1
999.1,MTWHF,999.1-17-0-860-1620-1730-3259-0-0-0-0_AV_5LB,""47TH ST E - AVENUE S"",999.1
999.1,SU,999.1-17-0-860-1630-1745-3259-0-0-0-0_AV_5LB,""47TH ST E - AVENUE S"",999.1
999.1,MTWHF,999.1-17-0-860-1640-1750-3259-0-0-0-0_AV_5LB,""47TH ST E - AVENUE S"",999.1
999.1,MTWHF,999.1-18-0-860-1700-1810-3259-0-0-0-0_AV_5LB,""47TH ST E - AVENUE S"",999.1
999.1,S,999.1-18-0-860-1700-1815-3259-0-0-0-0_AV_5LB,""47TH ST E - AVENUE S"",999.1
999.1,MTWHF,999.1-18-0-860-1720-1830-3259-0-0-0-0_AV_5LB,""47TH ST E - AVENUE S"",999.1
999.1,SU,999.1-18-0-860-1730-1845-3259-0-0-0-0_AV_5LB,""47TH ST E - AVENUE S"",999.1
999.1,MTWHF,999.1-18-0-860-1740-1850-3259-0-0-0-0_AV_5LB,""47TH ST E - AVENUE S"",999.1
999.1,MTWHFS,999.1-19-0-860-1800-1915-3259-0-0-0-0_AV_5LB,""47TH ST E - AVENUE S"",999.1
999.1,MTWHF,999.1-19-0-860-1820-1930-3259-0-0-0-0_AV_5LB,""47TH ST E - AVENUE S"",999.1
999.1,SU,999.1-19-0-860-1830-1945-3259-0-0-0-0_AV_5LB,""47TH ST E - AVENUE S"",999.1
999.1,MTWHF,999.1-19-0-860-1840-1950-3259-0-0-0-0_AV_5LB,""47TH ST E - AVENUE S"",999.1
999.1,MTWHF,999.1-20-0-860-1900-2015-3259-0-0-0-0_AV_5LB,""47TH ST E - AVENUE S"",999.1
999.1,MTWHFSU,999.1-20-0-860-1930-2045-3259-0-0-0-0_AV_5LB,""47TH ST E - AVENUE S"",999.1
999.1,MTWHFS,999.1-21-0-860-2030-2145-3259-0-0-0-0_AV_5LB,""47TH ST E - AVENUE S"",999.1
999.1,MTWHFS,999.1-22-0-860-2130-2245-3259-0-0-0-0_AV_5LB,""47TH ST E - AVENUE S"",999.1
999.1,MTWHFS,999.1-23-0-860-2230-2345-3259-0-0-0-0_AV_5LB,""47TH ST E - AVENUE S"",999.1
999.1,MTWHF,999.1-24-0-860-2330-2445-3259-0-0-0-0_AV_5LB,""47TH ST E - AVENUE S"",999.1
999.1,MTWHF,999.1-6-0-860-0500-0610-3259-0-0-0-0_AV_5LB,""47TH ST E - AVENUE S"",999.1
999.1,MTWHF,999.1-6-0-860-0520-0630-3259-0-0-0-0_AV_5LB,""47TH ST E - AVENUE S"",999.1
999.1,MTWHF,999.1-6-0-860-0540-0650-3259-0-0-0-0_AV_5LB,""47TH ST E - AVENUE S"",999.1
999.1,MTWHF,999.1-7-0-860-0600-0710-3259-0-0-0-0_AV_5LB,""47TH ST E - AVENUE S"",999.1
999.1,MTWHF,999.1-7-0-860-0620-0730-3259-0-0-0-0_AV_5LB,""47TH ST E - AVENUE S"",999.1
999.1,S,999.1-7-0-860-0630-0745-3259-0-0-0-0_AV_5LB,""47TH ST E - AVENUE S"",999.1
999.1,MTWHF,999.1-7-0-860-0640-0750-3259-0-0-0-0_AV_5LB,""47TH ST E - AVENUE S"",999.1
999.1,MTWHF,999.1-8-0-860-0700-0810-3259-0-0-0-0_AV_5LB,""47TH ST E - AVENUE S"",999.1
999.1,MTWHF,999.1-8-0-860-0720-0830-3259-0-0-0-0_AV_5LB,""47TH ST E - AVENUE S"",999.1
999.1,SU,999.1-8-0-860-0730-0845-3259-0-0-0-0_AV_5LB,""47TH ST E - AVENUE S"",999.1
999.1,MTWHF,999.1-8-0-860-0740-0850-3259-0-0-0-0_AV_5LB,""47TH ST E - AVENUE S"",999.1
999.1,MTWHF,999.1-9-0-860-0800-0915-3259-0-0-0-0_AV_5LB,""47TH ST E - AVENUE S"",999.1
999.1,MTWHF,999.1-9-0-860-0820-0930-3259-0-0-0-0_AV_5LB,""47TH ST E - AVENUE S"",999.1
999.1,SU,999.1-9-0-860-0830-0945-3259-0-0-0-0_AV_5LB,""47TH ST E - AVENUE S"",999.1
999.1,MTWHF,999.1-9-0-860-0840-0950-3259-0-0-0-0_AV_5LB,""47TH ST E - AVENUE S"",999.1
